{
  "content": [
    {
      "id": 68363,
      "businessDate": "2025-12-03",
      "exchangeIndexId": 52,
      "closingIndex": 7045.25,
      "openIndex": 7003.97,
      "highIndex": 7149.71,
      "lowIndex": 6952.68,
      "fiftyTwoWeekHigh": 7489.08,
      "fiftyTwoWeekLow": 5895.07,
      "turnoverValue": 246730794.6,
      "turnoverVolume": 311166,
      "totalTransaction": 6049,
      "absChange": 38.04,
      "percentageChange": 0.54
    },
    {
      "id": 68346,
      "businessDate": "2025-12-02",
      "exchangeIndexId": 52,
      "closingIndex": 7007.21,
      "openIndex": 7060.13,
      "highIndex": 7067.0,
      "lowIndex": 6979.53,
      "fiftyTwoWeekHigh": 7489.08,
      "fiftyTwoWeekLow": 5895.07,
      "turnoverValue": 85369406.0,
      "turnoverVolume": 113432,
      "totalTransaction": 4064,
      "absChange": -44.29,
      "percentageChange": -0.62
    },
    {
      "id": 68329,
      "businessDate": "2025-12-01",
      "exchangeIndexId": 52,
      "closingIndex": 7051.51,
      "openIndex": 7046.42,
      "highIndex": 7107.6,
      "lowIndex": 6984.1,
      "fiftyTwoWeekHigh": 7489.08,
      "fiftyTwoWeekLow": 5895.07,
      "turnoverValue": 186359743.5,
      "turnoverVolume": 247361,
      "totalTransaction": 7332,
      "absChange": -3.37,
      "percentageChange": -0.04
    },
    {
      "id": 68312,
      "businessDate": "2025-11-30",
      "exchangeIndexId": 52,
      "closingIndex": 7054.89,
      "openIndex": 7075.67,
      "highIndex": 7098.79,
      "lowIndex": 7005.8,
      "fiftyTwoWeekHigh": 7489.08,
      "fiftyTwoWeekLow": 5895.07,
      "turnoverValue": 185072204.6,
      "turnoverVolume": 262542,
      "totalTransaction": 8798,
      "absChange": -20.92,
      "percentageChange": -0.29
    },
    {
      "id": 68295,
      "businessDate": "2025-11-27",
      "exchangeIndexId": 52,
      "closingIndex": 7075.81,
      "openIndex": 7053.13,
      "highIndex": 7089.36,
      "lowIndex": 7018.0,
      "fiftyTwoWeekHigh": 7489.08,
      "fiftyTwoWeekLow": 5895.07,
      "turnoverValue": 199142650.9,
      "turnoverVolume": 268715,
      "totalTransaction": 15709,
      "absChange": 22.68,
      "percentageChange": 0.32
    },
    {
      "id": 68278,
      "businessDate": "2025-11-26",
      "exchangeIndexId": 52,
      "closingIndex": 7053.13,
      "openIndex": 6983.91,
      "highIndex": 7069.33,
      "lowIndex": 6938.89,
      "fiftyTwoWeekHigh": 7489.08,
      "fiftyTwoWeekLow": 5895.07,
      "turnoverValue": 261983149.2,
      "turnoverVolume": 356435,
      "totalTransaction": 24310,
      "absChange": 69.22,
      "percentageChange": 0.99
    },
    {
      "id": 68261,
      "businessDate": "2025-11-25",
      "exchangeIndexId": 52,
      "closingIndex": 6983.91,
      "openIndex": 6904.94,
      "highIndex": 6992.03,
      "lowIndex": 6884.59,
      "fiftyTwoWeekHigh": 7489.08,
      "fiftyTwoWeekLow": 5895.07,
      "turnoverValue": 299131708.0,
      "turnoverVolume": 390763,
      "totalTransaction": 34714,
      "absChange": 97.32,
      "percentageChange": 1.41
    },
    {
      "id": 68244,
      "businessDate": "2025-11-24",
      "exchangeIndexId": 52,
      "closingIndex": 6886.58,
      "openIndex": 6754.84,
      "highIndex": 6914.76,
      "lowIndex": 6754.84,
      "fiftyTwoWeekHigh": 7489.08,
      "fiftyTwoWeekLow": 5895.07,
      "turnoverValue": 91639084.4,
      "turnoverVolume": 132415,
      "totalTransaction": 5636,
      "absChange": 151.01,
      "percentageChange": 2.24
    },
    {
      "id": 68227,
      "businessDate": "2025-11-23",
      "exchangeIndexId": 52,
      "closingIndex": 6735.57,
      "openIndex": 6679.84,
      "highIndex": 6803.17,
      "lowIndex": 6664.45,
      "fiftyTwoWeekHigh": 7489.08,
      "fiftyTwoWeekLow": 5895.07,
      "turnoverValue": 72588912.0,
      "turnoverVolume": 114094,
      "totalTransaction": 2609,
      "absChange": 104.44,
      "percentageChange": 1.57
    },
    {
      "id": 68210,
      "businessDate": "2025-11-20",
      "exchangeIndexId": 52,
      "closingIndex": 6631.12,
      "openIndex": 6575.54,
      "highIndex": 6661.34,
      "lowIndex": 6575.54,
      "fiftyTwoWeekHigh": 7489.08,
      "fiftyTwoWeekLow": 5895.07,
      "turnoverValue": 87783575.2,
      "turnoverVolume": 145054,
      "totalTransaction": 1502,
      "absChange": 71.4,
      "percentageChange": 1.08
    },
    {
      "id": 68193,
      "businessDate": "2025-11-19",
      "exchangeIndexId": 52,
      "closingIndex": 6559.72,
      "openIndex": 6489.85,
      "highIndex": 6592.35,
      "lowIndex": 6481.96,
      "fiftyTwoWeekHigh": 7489.08,
      "fiftyTwoWeekLow": 5895.07,
      "turnoverValue": 47114215.6,
      "turnoverVolume": 71529,
      "totalTransaction": 655,
      "absChange": 75.59,
      "percentageChange": 1.16
    },
    {
      "id": 68176,
      "businessDate": "2025-11-18",
      "exchangeIndexId": 52,
      "closingIndex": 6484.12,
      "openIndex": 6406.15,
      "highIndex": 6530.27,
      "lowIndex": 6398.32,
      "fiftyTwoWeekHigh": 7489.08,
      "fiftyTwoWeekLow": 5895.07,
      "turnoverValue": 49009849.9,
      "turnoverVolume": 73227,
      "totalTransaction": 648,
      "absChange": 82.2,
      "percentageChange": 1.28
    },
    {
      "id": 68159,
      "businessDate": "2025-11-17",
      "exchangeIndexId": 52,
      "closingIndex": 6401.92,
      "openIndex": 6329.35,
      "highIndex": 6422.83,
      "lowIndex": 6321.04,
      "fiftyTwoWeekHigh": 7489.08,
      "fiftyTwoWeekLow": 5895.07,
      "turnoverValue": 35541701.9,
      "turnoverVolume": 58684,
      "totalTransaction": 646,
      "absChange": 68.25,
      "percentageChange": 1.07
    },
    {
      "id": 68142,
      "businessDate": "2025-11-16",
      "exchangeIndexId": 52,
      "closingIndex": 6333.67,
      "openIndex": 6305.15,
      "highIndex": 6377.43,
      "lowIndex": 6270.36,
      "fiftyTwoWeekHigh": 7489.08,
      "fiftyTwoWeekLow": 5895.07,
      "turnoverValue": 62927777.3,
      "turnoverVolume": 100601,
      "totalTransaction": 707,
      "absChange": 11.97,
      "percentageChange": 0.18
    },
    {
      "id": 68125,
      "businessDate": "2025-11-13",
      "exchangeIndexId": 52,
      "closingIndex": 6321.69,
      "openIndex": 6262.65,
      "highIndex": 6354.29,
      "lowIndex": 6245.96,
      "fiftyTwoWeekHigh": 7489.08,
      "fiftyTwoWeekLow": 5895.07,
      "turnoverValue": 59381390.0,
      "turnoverVolume": 92209,
      "totalTransaction": 597,
      "absChange": 45.19,
      "percentageChange": 0.72
    },
    {
      "id": 68108,
      "businessDate": "2025-11-12",
      "exchangeIndexId": 52,
      "closingIndex": 6276.49,
      "openIndex": 6263.71,
      "highIndex": 6360.99,
      "lowIndex": 6220.6,
      "fiftyTwoWeekHigh": 7489.08,
      "fiftyTwoWeekLow": 5895.07,
      "turnoverValue": 72827633.3,
      "turnoverVolume": 100265,
      "totalTransaction": 723,
      "absChange": -11.63,
      "percentageChange": -0.18
    },
    {
      "id": 68091,
      "businessDate": "2025-11-11",
      "exchangeIndexId": 52,
      "closingIndex": 6288.13,
      "openIndex": 6299.79,
      "highIndex": 6359.65,
      "lowIndex": 6215.54,
      "fiftyTwoWeekHigh": 7489.08,
      "fiftyTwoWeekLow": 5895.07,
      "turnoverValue": 79769328.6,
      "turnoverVolume": 128921,
      "totalTransaction": 634,
      "absChange": -24.33,
      "percentageChange": -0.38
    },
    {
      "id": 68074,
      "businessDate": "2025-11-10",
      "exchangeIndexId": 52,
      "closingIndex": 6312.46,
      "openIndex": 6216.22,
      "highIndex": 6312.63,
      "lowIndex": 6187.66,
      "fiftyTwoWeekHigh": 7489.08,
      "fiftyTwoWeekLow": 5895.07,
      "turnoverValue": 54110176.7,
      "turnoverVolume": 78375,
      "totalTransaction": 531,
      "absChange": 101.98,
      "percentageChange": 1.64
    },
    {
      "id": 68057,
      "businessDate": "2025-11-09",
      "exchangeIndexId": 52,
      "closingIndex": 6210.48,
      "openIndex": 6284.59,
      "highIndex": 6284.59,
      "lowIndex": 6186.49,
      "fiftyTwoWeekHigh": 7489.08,
      "fiftyTwoWeekLow": 5895.07,
      "turnoverValue": 70699249.2,
      "turnoverVolume": 97909,
      "totalTransaction": 624,
      "absChange": -43.38,
      "percentageChange": -0.69
    },
    {
      "id": 68040,
      "businessDate": "2025-11-06",
      "exchangeIndexId": 52,
      "closingIndex": 6253.86,
      "openIndex": 6269.84,
      "highIndex": 6322.96,
      "lowIndex": 6225.92,
      "fiftyTwoWeekHigh": 7489.08,
      "fiftyTwoWeekLow": 5895.07,
      "turnoverValue": 87961397.5,
      "turnoverVolume": 121198,
      "totalTransaction": 680,
      "absChange": -15.97,
      "percentageChange": -0.25
    }
  ],
  "pageable": {
    "sort": {
      "sorted": false,
      "unsorted": true,
      "empty": true
    },
    "offset": 0,
    "pageNumber": 0,
    "pageSize": 20,
    "paged": true,
    "unpaged": false
  },
  "last": false,
  "totalPages": 12,
  "totalElements": 227,
  "size": 20,
  "number": 0,
  "sort": {
    "sorted": false,
    "unsorted": true,
    "empty": true
  },
  "first": true,
  "numberOfElements": 20,
  "empty": false
}