{
  "content": [
    {
      "id": 68367,
      "businessDate": "2025-12-03",
      "exchangeIndexId": 56,
      "closingIndex": 8056.25,
      "openIndex": 8042.02,
      "highIndex": 8159.14,
      "lowIndex": 8013.94,
      "fiftyTwoWeekHigh": 8190.94,
      "fiftyTwoWeekLow": 6625.97,
      "turnoverValue": 349280553.1,
      "turnoverVolume": 422350,
      "totalTransaction": 3760,
      "absChange": 20.08,
      "percentageChange": 0.24
    },
    {
      "id": 68350,
      "businessDate": "2025-12-02",
      "exchangeIndexId": 56,
      "closingIndex": 8036.16,
      "openIndex": 7995.2,
      "highIndex": 8084.09,
      "lowIndex": 7994.65,
      "fiftyTwoWeekHigh": 8190.94,
      "fiftyTwoWeekLow": 6625.97,
      "turnoverValue": 194250836.7,
      "turnoverVolume": 264508,
      "totalTransaction": 2267,
      "absChange": 40.96,
      "percentageChange": 0.51
    },
    {
      "id": 68333,
      "businessDate": "2025-12-01",
      "exchangeIndexId": 56,
      "closingIndex": 7995.2,
      "openIndex": 7978.84,
      "highIndex": 8043.06,
      "lowIndex": 7965.5,
      "fiftyTwoWeekHigh": 8190.94,
      "fiftyTwoWeekLow": 6625.97,
      "turnoverValue": 205595938.5,
      "turnoverVolume": 253546,
      "totalTransaction": 2624,
      "absChange": 24.64,
      "percentageChange": 0.3
    },
    {
      "id": 68316,
      "businessDate": "2025-11-30",
      "exchangeIndexId": 56,
      "closingIndex": 7970.55,
      "openIndex": 7942.32,
      "highIndex": 8055.21,
      "lowIndex": 7942.32,
      "fiftyTwoWeekHigh": 8190.94,
      "fiftyTwoWeekLow": 6625.97,
      "turnoverValue": 429069630.6,
      "turnoverVolume": 575065,
      "totalTransaction": 4224,
      "absChange": 58.36,
      "percentageChange": 0.73
    },
    {
      "id": 68299,
      "businessDate": "2025-11-27",
      "exchangeIndexId": 56,
      "closingIndex": 7912.19,
      "openIndex": 7949.7,
      "highIndex": 7964.51,
      "lowIndex": 7902.34,
      "fiftyTwoWeekHigh": 8190.94,
      "fiftyTwoWeekLow": 6625.97,
      "turnoverValue": 359768074.0,
      "turnoverVolume": 413175,
      "totalTransaction": 3803,
      "absChange": -21.4,
      "percentageChange": -0.26
    },
    {
      "id": 68282,
      "businessDate": "2025-11-26",
      "exchangeIndexId": 56,
      "closingIndex": 7933.59,
      "openIndex": 7901.77,
      "highIndex": 7948.18,
      "lowIndex": 7851.24,
      "fiftyTwoWeekHigh": 8190.94,
      "fiftyTwoWeekLow": 6625.97,
      "turnoverValue": 604034065.4,
      "turnoverVolume": 766723,
      "totalTransaction": 4092,
      "absChange": 58.7,
      "percentageChange": 0.74
    },
    {
      "id": 68265,
      "businessDate": "2025-11-25",
      "exchangeIndexId": 56,
      "closingIndex": 7874.89,
      "openIndex": 7747.29,
      "highIndex": 7887.1,
      "lowIndex": 7747.29,
      "fiftyTwoWeekHigh": 8190.94,
      "fiftyTwoWeekLow": 6625.97,
      "turnoverValue": 375817764.0,
      "turnoverVolume": 501159,
      "totalTransaction": 3300,
      "absChange": 101.37,
      "percentageChange": 1.3
    },
    {
      "id": 68248,
      "businessDate": "2025-11-24",
      "exchangeIndexId": 56,
      "closingIndex": 7773.52,
      "openIndex": 7517.84,
      "highIndex": 7773.52,
      "lowIndex": 7501.92,
      "fiftyTwoWeekHigh": 8190.94,
      "fiftyTwoWeekLow": 6625.97,
      "turnoverValue": 448240759.6,
      "turnoverVolume": 610210,
      "totalTransaction": 3098,
      "absChange": 279.92,
      "percentageChange": 3.73
    },
    {
      "id": 68231,
      "businessDate": "2025-11-23",
      "exchangeIndexId": 56,
      "closingIndex": 7493.59,
      "openIndex": 7399.36,
      "highIndex": 7522.08,
      "lowIndex": 7399.36,
      "fiftyTwoWeekHigh": 8190.94,
      "fiftyTwoWeekLow": 6625.97,
      "turnoverValue": 280653073.1,
      "turnoverVolume": 411694,
      "totalTransaction": 2792,
      "absChange": 115.73,
      "percentageChange": 1.56
    },
    {
      "id": 68214,
      "businessDate": "2025-11-20",
      "exchangeIndexId": 56,
      "closingIndex": 7377.86,
      "openIndex": 7377.86,
      "highIndex": 7434.71,
      "lowIndex": 7348.91,
      "fiftyTwoWeekHigh": 8190.94,
      "fiftyTwoWeekLow": 6625.97,
      "turnoverValue": 209220154.4,
      "turnoverVolume": 295394,
      "totalTransaction": 2379,
      "absChange": 23.6,
      "percentageChange": 0.32
    },
    {
      "id": 68197,
      "businessDate": "2025-11-19",
      "exchangeIndexId": 56,
      "closingIndex": 7354.25,
      "openIndex": 7326.84,
      "highIndex": 7387.05,
      "lowIndex": 7326.84,
      "fiftyTwoWeekHigh": 8190.94,
      "fiftyTwoWeekLow": 6625.97,
      "turnoverValue": 239833876.0,
      "turnoverVolume": 328533,
      "totalTransaction": 2007,
      "absChange": 31.29,
      "percentageChange": 0.42
    },
    {
      "id": 68180,
      "businessDate": "2025-11-18",
      "exchangeIndexId": 56,
      "closingIndex": 7322.96,
      "openIndex": 7310.88,
      "highIndex": 7386.25,
      "lowIndex": 7310.88,
      "fiftyTwoWeekHigh": 8190.94,
      "fiftyTwoWeekLow": 6625.97,
      "turnoverValue": 165362798.3,
      "turnoverVolume": 241528,
      "totalTransaction": 1906,
      "absChange": 14.68,
      "percentageChange": 0.2
    },
    {
      "id": 68163,
      "businessDate": "2025-11-17",
      "exchangeIndexId": 56,
      "closingIndex": 7308.27,
      "openIndex": 7270.38,
      "highIndex": 7331.51,
      "lowIndex": 7256.16,
      "fiftyTwoWeekHigh": 8190.94,
      "fiftyTwoWeekLow": 6625.97,
      "turnoverValue": 333933367.7,
      "turnoverVolume": 474978,
      "totalTransaction": 2819,
      "absChange": 38.84,
      "percentageChange": 0.53
    },
    {
      "id": 68146,
      "businessDate": "2025-11-16",
      "exchangeIndexId": 56,
      "closingIndex": 7269.43,
      "openIndex": 7342.32,
      "highIndex": 7368.18,
      "lowIndex": 7213.56,
      "fiftyTwoWeekHigh": 8190.94,
      "fiftyTwoWeekLow": 6625.97,
      "turnoverValue": 209590519.3,
      "turnoverVolume": 284510,
      "totalTransaction": 2277,
      "absChange": 2.15,
      "percentageChange": 0.02
    },
    {
      "id": 68129,
      "businessDate": "2025-11-13",
      "exchangeIndexId": 56,
      "closingIndex": 7267.27,
      "openIndex": 7281.47,
      "highIndex": 7331.5,
      "lowIndex": 7246.28,
      "fiftyTwoWeekHigh": 8190.94,
      "fiftyTwoWeekLow": 6625.97,
      "turnoverValue": 274386927.1,
      "turnoverVolume": 339315,
      "totalTransaction": 2820,
      "absChange": -20.5,
      "percentageChange": -0.28
    },
    {
      "id": 68112,
      "businessDate": "2025-11-12",
      "exchangeIndexId": 56,
      "closingIndex": 7287.78,
      "openIndex": 7296.54,
      "highIndex": 7310.42,
      "lowIndex": 7253.07,
      "fiftyTwoWeekHigh": 8190.94,
      "fiftyTwoWeekLow": 6625.97,
      "turnoverValue": 185245310.3,
      "turnoverVolume": 259746,
      "totalTransaction": 1787,
      "absChange": 16.96,
      "percentageChange": 0.23
    },
    {
      "id": 68095,
      "businessDate": "2025-11-11",
      "exchangeIndexId": 56,
      "closingIndex": 7270.82,
      "openIndex": 7250.43,
      "highIndex": 7311.04,
      "lowIndex": 7235.97,
      "fiftyTwoWeekHigh": 8190.94,
      "fiftyTwoWeekLow": 6625.97,
      "turnoverValue": 223850703.7,
      "turnoverVolume": 337741,
      "totalTransaction": 1949,
      "absChange": 24.38,
      "percentageChange": 0.33
    },
    {
      "id": 68078,
      "businessDate": "2025-11-10",
      "exchangeIndexId": 56,
      "closingIndex": 7246.43,
      "openIndex": 7267.17,
      "highIndex": 7308.79,
      "lowIndex": 7217.92,
      "fiftyTwoWeekHigh": 8190.94,
      "fiftyTwoWeekLow": 6625.97,
      "turnoverValue": 229952103.6,
      "turnoverVolume": 338291,
      "totalTransaction": 2401,
      "absChange": -21.91,
      "percentageChange": -0.3
    },
    {
      "id": 68061,
      "businessDate": "2025-11-09",
      "exchangeIndexId": 56,
      "closingIndex": 7268.35,
      "openIndex": 7333.71,
      "highIndex": 7340.82,
      "lowIndex": 7258.89,
      "fiftyTwoWeekHigh": 8190.94,
      "fiftyTwoWeekLow": 6625.97,
      "turnoverValue": 346186505.0,
      "turnoverVolume": 484663,
      "totalTransaction": 3279,
      "absChange": -62.12,
      "percentageChange": -0.84
    },
    {
      "id": 68044,
      "businessDate": "2025-11-06",
      "exchangeIndexId": 56,
      "closingIndex": 7330.47,
      "openIndex": 7346.41,
      "highIndex": 7409.75,
      "lowIndex": 7319.35,
      "fiftyTwoWeekHigh": 8190.94,
      "fiftyTwoWeekLow": 6625.97,
      "turnoverValue": 650675479.3,
      "turnoverVolume": 826418,
      "totalTransaction": 5253,
      "absChange": 8.91,
      "percentageChange": 0.12
    }
  ],
  "pageable": {
    "sort": {
      "sorted": false,
      "unsorted": true,
      "empty": true
    },
    "offset": 0,
    "pageNumber": 0,
    "pageSize": 20,
    "paged": true,
    "unpaged": false
  },
  "last": false,
  "totalPages": 12,
  "totalElements": 227,
  "size": 20,
  "number": 0,
  "sort": {
    "sorted": false,
    "unsorted": true,
    "empty": true
  },
  "first": true,
  "numberOfElements": 20,
  "empty": false
}