{
  "content": [
    {
      "id": 68366,
      "businessDate": "2025-12-03",
      "exchangeIndexId": 55,
      "closingIndex": 5413.62,
      "openIndex": 5439.55,
      "highIndex": 5461.63,
      "lowIndex": 5392.27,
      "fiftyTwoWeekHigh": 6557.35,
      "fiftyTwoWeekLow": 5078.65,
      "turnoverValue": 229956591.8,
      "turnoverVolume": 420841,
      "totalTransaction": 2322,
      "absChange": -36.4,
      "percentageChange": -0.66
    },
    {
      "id": 68349,
      "businessDate": "2025-12-02",
      "exchangeIndexId": 55,
      "closingIndex": 5450.02,
      "openIndex": 5419.57,
      "highIndex": 5483.11,
      "lowIndex": 5411.3,
      "fiftyTwoWeekHigh": 6557.35,
      "fiftyTwoWeekLow": 5078.65,
      "turnoverValue": 300148713.7,
      "turnoverVolume": 424196,
      "totalTransaction": 2248,
      "absChange": 9.72,
      "percentageChange": 0.17
    },
    {
      "id": 68332,
      "businessDate": "2025-12-01",
      "exchangeIndexId": 55,
      "closingIndex": 5440.3,
      "openIndex": 5413.32,
      "highIndex": 5449.33,
      "lowIndex": 5404.54,
      "fiftyTwoWeekHigh": 6557.35,
      "fiftyTwoWeekLow": 5078.65,
      "turnoverValue": 298181887.7,
      "turnoverVolume": 459253,
      "totalTransaction": 2223,
      "absChange": 14.39,
      "percentageChange": 0.26
    },
    {
      "id": 68315,
      "businessDate": "2025-11-30",
      "exchangeIndexId": 55,
      "closingIndex": 5425.91,
      "openIndex": 5475.68,
      "highIndex": 5510.78,
      "lowIndex": 5418.33,
      "fiftyTwoWeekHigh": 6557.35,
      "fiftyTwoWeekLow": 5078.65,
      "turnoverValue": 289119266.0,
      "turnoverVolume": 538415,
      "totalTransaction": 2939,
      "absChange": -60.22,
      "percentageChange": -1.09
    },
    {
      "id": 68298,
      "businessDate": "2025-11-27",
      "exchangeIndexId": 55,
      "closingIndex": 5486.13,
      "openIndex": 5462.7,
      "highIndex": 5491.09,
      "lowIndex": 5456.22,
      "fiftyTwoWeekHigh": 6557.35,
      "fiftyTwoWeekLow": 5078.65,
      "turnoverValue": 304455188.2,
      "turnoverVolume": 568433,
      "totalTransaction": 2692,
      "absChange": 9.37,
      "percentageChange": 0.17
    },
    {
      "id": 68281,
      "businessDate": "2025-11-26",
      "exchangeIndexId": 55,
      "closingIndex": 5476.76,
      "openIndex": 5455.41,
      "highIndex": 5495.34,
      "lowIndex": 5433.23,
      "fiftyTwoWeekHigh": 6557.35,
      "fiftyTwoWeekLow": 5078.65,
      "turnoverValue": 261886517.8,
      "turnoverVolume": 476727,
      "totalTransaction": 1968,
      "absChange": 7.1,
      "percentageChange": 0.12
    },
    {
      "id": 68264,
      "businessDate": "2025-11-25",
      "exchangeIndexId": 55,
      "closingIndex": 5469.65,
      "openIndex": 5480.23,
      "highIndex": 5482.76,
      "lowIndex": 5433.22,
      "fiftyTwoWeekHigh": 6557.35,
      "fiftyTwoWeekLow": 5078.65,
      "turnoverValue": 216098726.1,
      "turnoverVolume": 389704,
      "totalTransaction": 1859,
      "absChange": -13.39,
      "percentageChange": -0.24
    },
    {
      "id": 68247,
      "businessDate": "2025-11-24",
      "exchangeIndexId": 55,
      "closingIndex": 5483.05,
      "openIndex": 5401.01,
      "highIndex": 5485.71,
      "lowIndex": 5398.09,
      "fiftyTwoWeekHigh": 6557.35,
      "fiftyTwoWeekLow": 5078.65,
      "turnoverValue": 329426585.4,
      "turnoverVolume": 636087,
      "totalTransaction": 2524,
      "absChange": 66.05,
      "percentageChange": 1.21
    },
    {
      "id": 68230,
      "businessDate": "2025-11-23",
      "exchangeIndexId": 55,
      "closingIndex": 5417.0,
      "openIndex": 5318.36,
      "highIndex": 5417.57,
      "lowIndex": 5301.5,
      "fiftyTwoWeekHigh": 6557.35,
      "fiftyTwoWeekLow": 5078.65,
      "turnoverValue": 329156507.3,
      "turnoverVolume": 607710,
      "totalTransaction": 2936,
      "absChange": 98.27,
      "percentageChange": 1.84
    },
    {
      "id": 68213,
      "businessDate": "2025-11-20",
      "exchangeIndexId": 55,
      "closingIndex": 5318.72,
      "openIndex": 5304.87,
      "highIndex": 5323.68,
      "lowIndex": 5259.32,
      "fiftyTwoWeekHigh": 6557.35,
      "fiftyTwoWeekLow": 5078.65,
      "turnoverValue": 412094335.2,
      "turnoverVolume": 575143,
      "totalTransaction": 2681,
      "absChange": -4.78,
      "percentageChange": -0.08
    },
    {
      "id": 68196,
      "businessDate": "2025-11-19",
      "exchangeIndexId": 55,
      "closingIndex": 5323.5,
      "openIndex": 5374.84,
      "highIndex": 5406.82,
      "lowIndex": 5303.3,
      "fiftyTwoWeekHigh": 6557.35,
      "fiftyTwoWeekLow": 5078.65,
      "turnoverValue": 209849004.2,
      "turnoverVolume": 327912,
      "totalTransaction": 1843,
      "absChange": -58.85,
      "percentageChange": -1.09
    },
    {
      "id": 68179,
      "businessDate": "2025-11-18",
      "exchangeIndexId": 55,
      "closingIndex": 5382.36,
      "openIndex": 5308.23,
      "highIndex": 5415.83,
      "lowIndex": 5299.84,
      "fiftyTwoWeekHigh": 6557.35,
      "fiftyTwoWeekLow": 5078.65,
      "turnoverValue": 303952088.2,
      "turnoverVolume": 486891,
      "totalTransaction": 2874,
      "absChange": 66.72,
      "percentageChange": 1.25
    },
    {
      "id": 68162,
      "businessDate": "2025-11-17",
      "exchangeIndexId": 55,
      "closingIndex": 5315.63,
      "openIndex": 5229.46,
      "highIndex": 5336.55,
      "lowIndex": 5213.82,
      "fiftyTwoWeekHigh": 6557.35,
      "fiftyTwoWeekLow": 5078.65,
      "turnoverValue": 276491517.8,
      "turnoverVolume": 437810,
      "totalTransaction": 2974,
      "absChange": 78.89,
      "percentageChange": 1.5
    },
    {
      "id": 68145,
      "businessDate": "2025-11-16",
      "exchangeIndexId": 55,
      "closingIndex": 5236.74,
      "openIndex": 5256.84,
      "highIndex": 5266.71,
      "lowIndex": 5220.71,
      "fiftyTwoWeekHigh": 6557.35,
      "fiftyTwoWeekLow": 5078.65,
      "turnoverValue": 91460005.1,
      "turnoverVolume": 209516,
      "totalTransaction": 1278,
      "absChange": -27.61,
      "percentageChange": -0.52
    },
    {
      "id": 68128,
      "businessDate": "2025-11-13",
      "exchangeIndexId": 55,
      "closingIndex": 5264.35,
      "openIndex": 5248.78,
      "highIndex": 5299.1,
      "lowIndex": 5225.12,
      "fiftyTwoWeekHigh": 6557.35,
      "fiftyTwoWeekLow": 5078.65,
      "turnoverValue": 155036333.9,
      "turnoverVolume": 301524,
      "totalTransaction": 1598,
      "absChange": -4.67,
      "percentageChange": -0.08
    },
    {
      "id": 68111,
      "businessDate": "2025-11-12",
      "exchangeIndexId": 55,
      "closingIndex": 5269.03,
      "openIndex": 5280.23,
      "highIndex": 5303.4,
      "lowIndex": 5247.54,
      "fiftyTwoWeekHigh": 6557.35,
      "fiftyTwoWeekLow": 5078.65,
      "turnoverValue": 130886611.3,
      "turnoverVolume": 241870,
      "totalTransaction": 1525,
      "absChange": -16.25,
      "percentageChange": -0.3
    },
    {
      "id": 68094,
      "businessDate": "2025-11-11",
      "exchangeIndexId": 55,
      "closingIndex": 5285.28,
      "openIndex": 5296.56,
      "highIndex": 5313.43,
      "lowIndex": 5244.42,
      "fiftyTwoWeekHigh": 6557.35,
      "fiftyTwoWeekLow": 5078.65,
      "turnoverValue": 183425144.2,
      "turnoverVolume": 387052,
      "totalTransaction": 1902,
      "absChange": -25.19,
      "percentageChange": -0.47
    },
    {
      "id": 68077,
      "businessDate": "2025-11-10",
      "exchangeIndexId": 55,
      "closingIndex": 5310.47,
      "openIndex": 5332.74,
      "highIndex": 5367.43,
      "lowIndex": 5280.83,
      "fiftyTwoWeekHigh": 6557.35,
      "fiftyTwoWeekLow": 5078.65,
      "turnoverValue": 144310471.8,
      "turnoverVolume": 296436,
      "totalTransaction": 1744,
      "absChange": -33.78,
      "percentageChange": -0.63
    },
    {
      "id": 68060,
      "businessDate": "2025-11-09",
      "exchangeIndexId": 55,
      "closingIndex": 5344.26,
      "openIndex": 5453.66,
      "highIndex": 5473.75,
      "lowIndex": 5332.16,
      "fiftyTwoWeekHigh": 6557.35,
      "fiftyTwoWeekLow": 5078.65,
      "turnoverValue": 267744488.3,
      "turnoverVolume": 523068,
      "totalTransaction": 2538,
      "absChange": -98.61,
      "percentageChange": -1.81
    },
    {
      "id": 68043,
      "businessDate": "2025-11-06",
      "exchangeIndexId": 55,
      "closingIndex": 5442.87,
      "openIndex": 5478.37,
      "highIndex": 5496.87,
      "lowIndex": 5406.54,
      "fiftyTwoWeekHigh": 6557.35,
      "fiftyTwoWeekLow": 5078.65,
      "turnoverValue": 221779997.8,
      "turnoverVolume": 429591,
      "totalTransaction": 2029,
      "absChange": -29.76,
      "percentageChange": -0.54
    }
  ],
  "pageable": {
    "sort": {
      "unsorted": true,
      "sorted": false,
      "empty": true
    },
    "offset": 0,
    "pageNumber": 0,
    "pageSize": 20,
    "paged": true,
    "unpaged": false
  },
  "last": false,
  "totalPages": 12,
  "totalElements": 227,
  "size": 20,
  "number": 0,
  "sort": {
    "unsorted": true,
    "sorted": false,
    "empty": true
  },
  "first": true,
  "numberOfElements": 20,
  "empty": false
}