{
  "content": [
    {
      "id": 68358,
      "businessDate": "2025-12-03",
      "exchangeIndexId": 64,
      "closingIndex": 4975.17,
      "openIndex": 4994.19,
      "highIndex": 5020.18,
      "lowIndex": 4956.73,
      "fiftyTwoWeekHigh": 5688.96,
      "fiftyTwoWeekLow": 4608.92,
      "turnoverValue": 409799183.0,
      "turnoverVolume": 386353,
      "totalTransaction": 3921,
      "absChange": -24.3,
      "percentageChange": -0.48
    },
    {
      "id": 68341,
      "businessDate": "2025-12-02",
      "exchangeIndexId": 64,
      "closingIndex": 4999.48,
      "openIndex": 4991.29,
      "highIndex": 5029.31,
      "lowIndex": 4981.73,
      "fiftyTwoWeekHigh": 5688.96,
      "fiftyTwoWeekLow": 4608.92,
      "turnoverValue": 263244594.5,
      "turnoverVolume": 252602,
      "totalTransaction": 2927,
      "absChange": -3.33,
      "percentageChange": -0.06
    },
    {
      "id": 68324,
      "businessDate": "2025-12-01",
      "exchangeIndexId": 64,
      "closingIndex": 5002.82,
      "openIndex": 4970.11,
      "highIndex": 5013.39,
      "lowIndex": 4964.91,
      "fiftyTwoWeekHigh": 5688.96,
      "fiftyTwoWeekLow": 4608.92,
      "turnoverValue": 430466302.1,
      "turnoverVolume": 429803,
      "totalTransaction": 4066,
      "absChange": 30.45,
      "percentageChange": 0.61
    },
    {
      "id": 68307,
      "businessDate": "2025-11-30",
      "exchangeIndexId": 64,
      "closingIndex": 4972.36,
      "openIndex": 5032.04,
      "highIndex": 5041.18,
      "lowIndex": 4956.92,
      "fiftyTwoWeekHigh": 5688.96,
      "fiftyTwoWeekLow": 4608.92,
      "turnoverValue": 491116979.9,
      "turnoverVolume": 460162,
      "totalTransaction": 4810,
      "absChange": -65.8,
      "percentageChange": -1.3
    },
    {
      "id": 68290,
      "businessDate": "2025-11-27",
      "exchangeIndexId": 64,
      "closingIndex": 5038.17,
      "openIndex": 5056.13,
      "highIndex": 5056.13,
      "lowIndex": 5016.5,
      "fiftyTwoWeekHigh": 5688.96,
      "fiftyTwoWeekLow": 4608.92,
      "turnoverValue": 468342218.8,
      "turnoverVolume": 477023,
      "totalTransaction": 4273,
      "absChange": -18.1,
      "percentageChange": -0.35
    },
    {
      "id": 68273,
      "businessDate": "2025-11-26",
      "exchangeIndexId": 64,
      "closingIndex": 5056.28,
      "openIndex": 5017.08,
      "highIndex": 5058.01,
      "lowIndex": 4990.75,
      "fiftyTwoWeekHigh": 5688.96,
      "fiftyTwoWeekLow": 4608.92,
      "turnoverValue": 674085147.5,
      "turnoverVolume": 613305,
      "totalTransaction": 5465,
      "absChange": 35.71,
      "percentageChange": 0.71
    },
    {
      "id": 68256,
      "businessDate": "2025-11-25",
      "exchangeIndexId": 64,
      "closingIndex": 5020.56,
      "openIndex": 5015.94,
      "highIndex": 5021.51,
      "lowIndex": 4970.1,
      "fiftyTwoWeekHigh": 5688.96,
      "fiftyTwoWeekLow": 4608.92,
      "turnoverValue": 374178085.5,
      "turnoverVolume": 356330,
      "totalTransaction": 3918,
      "absChange": 2.47,
      "percentageChange": 0.04
    },
    {
      "id": 68239,
      "businessDate": "2025-11-24",
      "exchangeIndexId": 64,
      "closingIndex": 5018.08,
      "openIndex": 4926.91,
      "highIndex": 5018.08,
      "lowIndex": 4923.77,
      "fiftyTwoWeekHigh": 5688.96,
      "fiftyTwoWeekLow": 4608.92,
      "turnoverValue": 509634341.5,
      "turnoverVolume": 495283,
      "totalTransaction": 4804,
      "absChange": 95.27,
      "percentageChange": 1.93
    },
    {
      "id": 68222,
      "businessDate": "2025-11-23",
      "exchangeIndexId": 64,
      "closingIndex": 4922.81,
      "openIndex": 4823.73,
      "highIndex": 4922.81,
      "lowIndex": 4823.73,
      "fiftyTwoWeekHigh": 5688.96,
      "fiftyTwoWeekLow": 4608.92,
      "turnoverValue": 405267936.8,
      "turnoverVolume": 408496,
      "totalTransaction": 4289,
      "absChange": 88.78,
      "percentageChange": 1.83
    },
    {
      "id": 68205,
      "businessDate": "2025-11-20",
      "exchangeIndexId": 64,
      "closingIndex": 4834.02,
      "openIndex": 4816.14,
      "highIndex": 4835.12,
      "lowIndex": 4790.32,
      "fiftyTwoWeekHigh": 5688.96,
      "fiftyTwoWeekLow": 4608.92,
      "turnoverValue": 350685964.2,
      "turnoverVolume": 301887,
      "totalTransaction": 3110,
      "absChange": 13.23,
      "percentageChange": 0.27
    },
    {
      "id": 68188,
      "businessDate": "2025-11-19",
      "exchangeIndexId": 64,
      "closingIndex": 4820.79,
      "openIndex": 4827.23,
      "highIndex": 4851.56,
      "lowIndex": 4798.59,
      "fiftyTwoWeekHigh": 5688.96,
      "fiftyTwoWeekLow": 4608.92,
      "turnoverValue": 206169039.3,
      "turnoverVolume": 193293,
      "totalTransaction": 2322,
      "absChange": -3.18,
      "percentageChange": -0.06
    },
    {
      "id": 68171,
      "businessDate": "2025-11-18",
      "exchangeIndexId": 64,
      "closingIndex": 4823.98,
      "openIndex": 4799.75,
      "highIndex": 4845.65,
      "lowIndex": 4799.75,
      "fiftyTwoWeekHigh": 5688.96,
      "fiftyTwoWeekLow": 4608.92,
      "turnoverValue": 237753044.6,
      "turnoverVolume": 238673,
      "totalTransaction": 2818,
      "absChange": 22.86,
      "percentageChange": 0.47
    },
    {
      "id": 68154,
      "businessDate": "2025-11-17",
      "exchangeIndexId": 64,
      "closingIndex": 4801.11,
      "openIndex": 4780.3,
      "highIndex": 4809.47,
      "lowIndex": 4774.77,
      "fiftyTwoWeekHigh": 5688.96,
      "fiftyTwoWeekLow": 4608.92,
      "turnoverValue": 189340657.4,
      "turnoverVolume": 179997,
      "totalTransaction": 2305,
      "absChange": 16.54,
      "percentageChange": 0.34
    },
    {
      "id": 68137,
      "businessDate": "2025-11-16",
      "exchangeIndexId": 64,
      "closingIndex": 4784.57,
      "openIndex": 4802.3,
      "highIndex": 4803.8,
      "lowIndex": 4769.18,
      "fiftyTwoWeekHigh": 5688.96,
      "fiftyTwoWeekLow": 4608.92,
      "turnoverValue": 191751255.4,
      "turnoverVolume": 188938,
      "totalTransaction": 2231,
      "absChange": -18.47,
      "percentageChange": -0.38
    },
    {
      "id": 68120,
      "businessDate": "2025-11-13",
      "exchangeIndexId": 64,
      "closingIndex": 4803.04,
      "openIndex": 4793.86,
      "highIndex": 4819.07,
      "lowIndex": 4777.38,
      "fiftyTwoWeekHigh": 5688.96,
      "fiftyTwoWeekLow": 4608.92,
      "turnoverValue": 194768563.7,
      "turnoverVolume": 193620,
      "totalTransaction": 2268,
      "absChange": 0.45,
      "percentageChange": 0.0
    },
    {
      "id": 68103,
      "businessDate": "2025-11-12",
      "exchangeIndexId": 64,
      "closingIndex": 4802.59,
      "openIndex": 4839.56,
      "highIndex": 4845.6,
      "lowIndex": 4793.76,
      "fiftyTwoWeekHigh": 5688.96,
      "fiftyTwoWeekLow": 4608.92,
      "turnoverValue": 268874304.2,
      "turnoverVolume": 251634,
      "totalTransaction": 2664,
      "absChange": -33.76,
      "percentageChange": -0.69
    },
    {
      "id": 68086,
      "businessDate": "2025-11-11",
      "exchangeIndexId": 64,
      "closingIndex": 4836.35,
      "openIndex": 4836.01,
      "highIndex": 4866.93,
      "lowIndex": 4800.88,
      "fiftyTwoWeekHigh": 5688.96,
      "fiftyTwoWeekLow": 4608.92,
      "turnoverValue": 169475639.1,
      "turnoverVolume": 175528,
      "totalTransaction": 2345,
      "absChange": -2.48,
      "percentageChange": -0.05
    },
    {
      "id": 68069,
      "businessDate": "2025-11-10",
      "exchangeIndexId": 64,
      "closingIndex": 4838.84,
      "openIndex": 4847.4,
      "highIndex": 4857.37,
      "lowIndex": 4796.26,
      "fiftyTwoWeekHigh": 5688.96,
      "fiftyTwoWeekLow": 4608.92,
      "turnoverValue": 335743316.4,
      "turnoverVolume": 298490,
      "totalTransaction": 3197,
      "absChange": -3.88,
      "percentageChange": -0.08
    },
    {
      "id": 68052,
      "businessDate": "2025-11-09",
      "exchangeIndexId": 64,
      "closingIndex": 4842.72,
      "openIndex": 4912.22,
      "highIndex": 4912.88,
      "lowIndex": 4825.66,
      "fiftyTwoWeekHigh": 5688.96,
      "fiftyTwoWeekLow": 4608.92,
      "turnoverValue": 254291278.2,
      "turnoverVolume": 251585,
      "totalTransaction": 3019,
      "absChange": -62.86,
      "percentageChange": -1.28
    },
    {
      "id": 68035,
      "businessDate": "2025-11-06",
      "exchangeIndexId": 64,
      "closingIndex": 4905.58,
      "openIndex": 4910.42,
      "highIndex": 4922.15,
      "lowIndex": 4876.24,
      "fiftyTwoWeekHigh": 5688.96,
      "fiftyTwoWeekLow": 4608.92,
      "turnoverValue": 455840779.7,
      "turnoverVolume": 400330,
      "totalTransaction": 3739,
      "absChange": -6.58,
      "percentageChange": -0.13
    }
  ],
  "pageable": {
    "sort": {
      "sorted": false,
      "unsorted": true,
      "empty": true
    },
    "offset": 0,
    "pageNumber": 0,
    "pageSize": 20,
    "paged": true,
    "unpaged": false
  },
  "last": false,
  "totalPages": 12,
  "totalElements": 227,
  "size": 20,
  "number": 0,
  "sort": {
    "sorted": false,
    "unsorted": true,
    "empty": true
  },
  "first": true,
  "numberOfElements": 20,
  "empty": false
}