{
  "content": [
    {
      "id": 68360,
      "businessDate": "2025-12-03",
      "exchangeIndexId": 66,
      "closingIndex": 20.17,
      "openIndex": 20.11,
      "highIndex": 20.17,
      "lowIndex": 19.98,
      "fiftyTwoWeekHigh": 21.98,
      "fiftyTwoWeekLow": 18.9,
      "turnoverValue": 6851100.63,
      "turnoverVolume": 741059,
      "totalTransaction": 568,
      "absChange": 0.08,
      "percentageChange": 0.44
    },
    {
      "id": 68343,
      "businessDate": "2025-12-02",
      "exchangeIndexId": 66,
      "closingIndex": 20.08,
      "openIndex": 20.06,
      "highIndex": 20.19,
      "lowIndex": 20.06,
      "fiftyTwoWeekHigh": 21.98,
      "fiftyTwoWeekLow": 18.9,
      "turnoverValue": 16716380.16,
      "turnoverVolume": 1714207,
      "totalTransaction": 573,
      "absChange": 0.05,
      "percentageChange": 0.27
    },
    {
      "id": 68326,
      "businessDate": "2025-12-01",
      "exchangeIndexId": 66,
      "closingIndex": 20.03,
      "openIndex": 20.06,
      "highIndex": 20.07,
      "lowIndex": 19.91,
      "fiftyTwoWeekHigh": 21.98,
      "fiftyTwoWeekLow": 18.9,
      "turnoverValue": 11518730.96,
      "turnoverVolume": 1238493,
      "totalTransaction": 621,
      "absChange": -0.03,
      "percentageChange": -0.17
    },
    {
      "id": 68309,
      "businessDate": "2025-11-30",
      "exchangeIndexId": 66,
      "closingIndex": 20.06,
      "openIndex": 20.09,
      "highIndex": 20.1,
      "lowIndex": 19.93,
      "fiftyTwoWeekHigh": 21.98,
      "fiftyTwoWeekLow": 18.9,
      "turnoverValue": 6716334.2,
      "turnoverVolume": 726123,
      "totalTransaction": 597,
      "absChange": 0.0,
      "percentageChange": 0.04
    },
    {
      "id": 68292,
      "businessDate": "2025-11-27",
      "exchangeIndexId": 66,
      "closingIndex": 20.05,
      "openIndex": 19.92,
      "highIndex": 20.08,
      "lowIndex": 19.82,
      "fiftyTwoWeekHigh": 21.98,
      "fiftyTwoWeekLow": 18.9,
      "turnoverValue": 6751657.47,
      "turnoverVolume": 712739,
      "totalTransaction": 616,
      "absChange": 0.15,
      "percentageChange": 0.78
    },
    {
      "id": 68275,
      "businessDate": "2025-11-26",
      "exchangeIndexId": 66,
      "closingIndex": 19.9,
      "openIndex": 19.94,
      "highIndex": 19.94,
      "lowIndex": 19.81,
      "fiftyTwoWeekHigh": 21.98,
      "fiftyTwoWeekLow": 18.9,
      "turnoverValue": 9577353.15,
      "turnoverVolume": 1064368,
      "totalTransaction": 631,
      "absChange": -0.01,
      "percentageChange": -0.05
    },
    {
      "id": 68258,
      "businessDate": "2025-11-25",
      "exchangeIndexId": 66,
      "closingIndex": 19.91,
      "openIndex": 20.0,
      "highIndex": 20.01,
      "lowIndex": 19.87,
      "fiftyTwoWeekHigh": 21.98,
      "fiftyTwoWeekLow": 18.9,
      "turnoverValue": 3296986.67,
      "turnoverVolume": 357721,
      "totalTransaction": 501,
      "absChange": -0.06,
      "percentageChange": -0.34
    },
    {
      "id": 68241,
      "businessDate": "2025-11-24",
      "exchangeIndexId": 66,
      "closingIndex": 19.98,
      "openIndex": 19.81,
      "highIndex": 19.98,
      "lowIndex": 19.69,
      "fiftyTwoWeekHigh": 21.98,
      "fiftyTwoWeekLow": 18.9,
      "turnoverValue": 7258188.78,
      "turnoverVolume": 786373,
      "totalTransaction": 520,
      "absChange": 0.15,
      "percentageChange": 0.79
    },
    {
      "id": 68224,
      "businessDate": "2025-11-23",
      "exchangeIndexId": 66,
      "closingIndex": 19.82,
      "openIndex": 19.87,
      "highIndex": 19.88,
      "lowIndex": 19.71,
      "fiftyTwoWeekHigh": 21.98,
      "fiftyTwoWeekLow": 18.9,
      "turnoverValue": 4066602.48,
      "turnoverVolume": 446361,
      "totalTransaction": 588,
      "absChange": -0.04,
      "percentageChange": -0.23
    },
    {
      "id": 68207,
      "businessDate": "2025-11-20",
      "exchangeIndexId": 66,
      "closingIndex": 19.87,
      "openIndex": 19.94,
      "highIndex": 19.96,
      "lowIndex": 19.77,
      "fiftyTwoWeekHigh": 21.98,
      "fiftyTwoWeekLow": 18.9,
      "turnoverValue": 7508424.0,
      "turnoverVolume": 852130,
      "totalTransaction": 520,
      "absChange": -0.08,
      "percentageChange": -0.41
    },
    {
      "id": 68190,
      "businessDate": "2025-11-19",
      "exchangeIndexId": 66,
      "closingIndex": 19.95,
      "openIndex": 19.91,
      "highIndex": 19.95,
      "lowIndex": 19.81,
      "fiftyTwoWeekHigh": 21.98,
      "fiftyTwoWeekLow": 18.9,
      "turnoverValue": 6395719.91,
      "turnoverVolume": 702262,
      "totalTransaction": 457,
      "absChange": 0.07,
      "percentageChange": 0.35
    },
    {
      "id": 68173,
      "businessDate": "2025-11-18",
      "exchangeIndexId": 66,
      "closingIndex": 19.88,
      "openIndex": 19.86,
      "highIndex": 19.89,
      "lowIndex": 19.72,
      "fiftyTwoWeekHigh": 21.98,
      "fiftyTwoWeekLow": 18.9,
      "turnoverValue": 3883885.62,
      "turnoverVolume": 422324,
      "totalTransaction": 461,
      "absChange": 0.01,
      "percentageChange": 0.08
    },
    {
      "id": 68156,
      "businessDate": "2025-11-17",
      "exchangeIndexId": 66,
      "closingIndex": 19.86,
      "openIndex": 19.84,
      "highIndex": 19.9,
      "lowIndex": 19.75,
      "fiftyTwoWeekHigh": 21.98,
      "fiftyTwoWeekLow": 18.9,
      "turnoverValue": 6841308.69,
      "turnoverVolume": 806757,
      "totalTransaction": 493,
      "absChange": 0.02,
      "percentageChange": 0.14
    },
    {
      "id": 68139,
      "businessDate": "2025-11-16",
      "exchangeIndexId": 66,
      "closingIndex": 19.84,
      "openIndex": 19.88,
      "highIndex": 19.9,
      "lowIndex": 19.72,
      "fiftyTwoWeekHigh": 21.98,
      "fiftyTwoWeekLow": 18.9,
      "turnoverValue": 6761572.73,
      "turnoverVolume": 748916,
      "totalTransaction": 467,
      "absChange": -0.02,
      "percentageChange": -0.14
    },
    {
      "id": 68122,
      "businessDate": "2025-11-13",
      "exchangeIndexId": 66,
      "closingIndex": 19.87,
      "openIndex": 19.84,
      "highIndex": 19.87,
      "lowIndex": 19.77,
      "fiftyTwoWeekHigh": 21.98,
      "fiftyTwoWeekLow": 18.9,
      "turnoverValue": 3092885.19,
      "turnoverVolume": 338389,
      "totalTransaction": 385,
      "absChange": 0.04,
      "percentageChange": 0.2
    },
    {
      "id": 68105,
      "businessDate": "2025-11-12",
      "exchangeIndexId": 66,
      "closingIndex": 19.82,
      "openIndex": 20.0,
      "highIndex": 20.01,
      "lowIndex": 19.73,
      "fiftyTwoWeekHigh": 21.98,
      "fiftyTwoWeekLow": 18.9,
      "turnoverValue": 9787473.97,
      "turnoverVolume": 1070348,
      "totalTransaction": 495,
      "absChange": -0.17,
      "percentageChange": -0.86
    },
    {
      "id": 68088,
      "businessDate": "2025-11-11",
      "exchangeIndexId": 66,
      "closingIndex": 20.0,
      "openIndex": 19.95,
      "highIndex": 20.0,
      "lowIndex": 19.83,
      "fiftyTwoWeekHigh": 21.98,
      "fiftyTwoWeekLow": 18.9,
      "turnoverValue": 5459515.47,
      "turnoverVolume": 597806,
      "totalTransaction": 474,
      "absChange": 0.04,
      "percentageChange": 0.24
    },
    {
      "id": 68071,
      "businessDate": "2025-11-10",
      "exchangeIndexId": 66,
      "closingIndex": 19.95,
      "openIndex": 20.04,
      "highIndex": 20.06,
      "lowIndex": 19.94,
      "fiftyTwoWeekHigh": 21.98,
      "fiftyTwoWeekLow": 18.9,
      "turnoverValue": 2945976.64,
      "turnoverVolume": 325425,
      "totalTransaction": 332,
      "absChange": -0.09,
      "percentageChange": -0.48
    },
    {
      "id": 68054,
      "businessDate": "2025-11-09",
      "exchangeIndexId": 66,
      "closingIndex": 20.04,
      "openIndex": 20.26,
      "highIndex": 20.28,
      "lowIndex": 19.99,
      "fiftyTwoWeekHigh": 21.98,
      "fiftyTwoWeekLow": 18.9,
      "turnoverValue": 3091076.8,
      "turnoverVolume": 335328,
      "totalTransaction": 428,
      "absChange": -0.21,
      "percentageChange": -1.08
    },
    {
      "id": 68037,
      "businessDate": "2025-11-06",
      "exchangeIndexId": 66,
      "closingIndex": 20.26,
      "openIndex": 20.22,
      "highIndex": 20.29,
      "lowIndex": 20.16,
      "fiftyTwoWeekHigh": 21.98,
      "fiftyTwoWeekLow": 18.9,
      "turnoverValue": 5421028.73,
      "turnoverVolume": 594656,
      "totalTransaction": 429,
      "absChange": 0.03,
      "percentageChange": 0.19
    }
  ],
  "pageable": {
    "sort": {
      "sorted": false,
      "unsorted": true,
      "empty": true
    },
    "offset": 0,
    "pageNumber": 0,
    "pageSize": 20,
    "paged": true,
    "unpaged": false
  },
  "last": false,
  "totalPages": 12,
  "totalElements": 227,
  "size": 20,
  "number": 0,
  "sort": {
    "sorted": false,
    "unsorted": true,
    "empty": true
  },
  "first": true,
  "numberOfElements": 20,
  "empty": false
}