{
  "content": [
    {
      "id": 68365,
      "businessDate": "2025-12-03",
      "exchangeIndexId": 54,
      "closingIndex": 3405.27,
      "openIndex": 3432.55,
      "highIndex": 3442.58,
      "lowIndex": 3395.19,
      "fiftyTwoWeekHigh": 3941.95,
      "fiftyTwoWeekLow": 3147.74,
      "turnoverValue": 2274601007.9,
      "turnoverVolume": 5130394,
      "totalTransaction": 29757,
      "absChange": -17.12,
      "percentageChange": -0.5
    },
    {
      "id": 68348,
      "businessDate": "2025-12-02",
      "exchangeIndexId": 54,
      "closingIndex": 3422.39,
      "openIndex": 3397.64,
      "highIndex": 3430.36,
      "lowIndex": 3386.13,
      "fiftyTwoWeekHigh": 3941.95,
      "fiftyTwoWeekLow": 3147.74,
      "turnoverValue": 2482485482.4,
      "turnoverVolume": 5696191,
      "totalTransaction": 29562,
      "absChange": 23.89,
      "percentageChange": 0.7
    },
    {
      "id": 68331,
      "businessDate": "2025-12-01",
      "exchangeIndexId": 54,
      "closingIndex": 3398.5,
      "openIndex": 3394.63,
      "highIndex": 3408.35,
      "lowIndex": 3373.22,
      "fiftyTwoWeekHigh": 3941.95,
      "fiftyTwoWeekLow": 3147.74,
      "turnoverValue": 1868912395.8,
      "turnoverVolume": 4456550,
      "totalTransaction": 24739,
      "absChange": 7.75,
      "percentageChange": 0.22
    },
    {
      "id": 68314,
      "businessDate": "2025-11-30",
      "exchangeIndexId": 54,
      "closingIndex": 3390.75,
      "openIndex": 3437.86,
      "highIndex": 3449.57,
      "lowIndex": 3386.1,
      "fiftyTwoWeekHigh": 3941.95,
      "fiftyTwoWeekLow": 3147.74,
      "turnoverValue": 3002195282.7,
      "turnoverVolume": 7516479,
      "totalTransaction": 35245,
      "absChange": -45.17,
      "percentageChange": -1.31
    },
    {
      "id": 68297,
      "businessDate": "2025-11-27",
      "exchangeIndexId": 54,
      "closingIndex": 3435.92,
      "openIndex": 3432.35,
      "highIndex": 3442.87,
      "lowIndex": 3420.28,
      "fiftyTwoWeekHigh": 3941.95,
      "fiftyTwoWeekLow": 3147.74,
      "turnoverValue": 2588858270.3,
      "turnoverVolume": 6627952,
      "totalTransaction": 31766,
      "absChange": 0.6,
      "percentageChange": 0.01
    },
    {
      "id": 68280,
      "businessDate": "2025-11-26",
      "exchangeIndexId": 54,
      "closingIndex": 3435.32,
      "openIndex": 3435.64,
      "highIndex": 3446.2,
      "lowIndex": 3411.32,
      "fiftyTwoWeekHigh": 3941.95,
      "fiftyTwoWeekLow": 3147.74,
      "turnoverValue": 2458422748.8,
      "turnoverVolume": 6195320,
      "totalTransaction": 32552,
      "absChange": 9.86,
      "percentageChange": 0.28
    },
    {
      "id": 68263,
      "businessDate": "2025-11-25",
      "exchangeIndexId": 54,
      "closingIndex": 3425.46,
      "openIndex": 3423.44,
      "highIndex": 3434.79,
      "lowIndex": 3399.28,
      "fiftyTwoWeekHigh": 3941.95,
      "fiftyTwoWeekLow": 3147.74,
      "turnoverValue": 2432643080.0,
      "turnoverVolume": 5814007,
      "totalTransaction": 33931,
      "absChange": 6.57,
      "percentageChange": 0.19
    },
    {
      "id": 68246,
      "businessDate": "2025-11-24",
      "exchangeIndexId": 54,
      "closingIndex": 3418.88,
      "openIndex": 3392.94,
      "highIndex": 3426.04,
      "lowIndex": 3390.05,
      "fiftyTwoWeekHigh": 3941.95,
      "fiftyTwoWeekLow": 3147.74,
      "turnoverValue": 2500473508.6,
      "turnoverVolume": 6053327,
      "totalTransaction": 33297,
      "absChange": 27.28,
      "percentageChange": 0.8
    },
    {
      "id": 68229,
      "businessDate": "2025-11-23",
      "exchangeIndexId": 54,
      "closingIndex": 3391.59,
      "openIndex": 3347.23,
      "highIndex": 3397.13,
      "lowIndex": 3337.85,
      "fiftyTwoWeekHigh": 3941.95,
      "fiftyTwoWeekLow": 3147.74,
      "turnoverValue": 2894038983.2,
      "turnoverVolume": 7396208,
      "totalTransaction": 41105,
      "absChange": 44.56,
      "percentageChange": 1.33
    },
    {
      "id": 68212,
      "businessDate": "2025-11-20",
      "exchangeIndexId": 54,
      "closingIndex": 3347.03,
      "openIndex": 3340.66,
      "highIndex": 3365.14,
      "lowIndex": 3320.3,
      "fiftyTwoWeekHigh": 3941.95,
      "fiftyTwoWeekLow": 3147.74,
      "turnoverValue": 2624929875.4,
      "turnoverVolume": 6134990,
      "totalTransaction": 40223,
      "absChange": 3.32,
      "percentageChange": 0.09
    },
    {
      "id": 68195,
      "businessDate": "2025-11-19",
      "exchangeIndexId": 54,
      "closingIndex": 3343.71,
      "openIndex": 3354.35,
      "highIndex": 3362.03,
      "lowIndex": 3322.29,
      "fiftyTwoWeekHigh": 3941.95,
      "fiftyTwoWeekLow": 3147.74,
      "turnoverValue": 2064107594.8,
      "turnoverVolume": 4683852,
      "totalTransaction": 29143,
      "absChange": -4.75,
      "percentageChange": -0.14
    },
    {
      "id": 68178,
      "businessDate": "2025-11-18",
      "exchangeIndexId": 54,
      "closingIndex": 3348.46,
      "openIndex": 3316.93,
      "highIndex": 3360.27,
      "lowIndex": 3311.28,
      "fiftyTwoWeekHigh": 3941.95,
      "fiftyTwoWeekLow": 3147.74,
      "turnoverValue": 2098076475.9,
      "turnoverVolume": 4916002,
      "totalTransaction": 30784,
      "absChange": 31.02,
      "percentageChange": 0.93
    },
    {
      "id": 68161,
      "businessDate": "2025-11-17",
      "exchangeIndexId": 54,
      "closingIndex": 3317.43,
      "openIndex": 3291.31,
      "highIndex": 3317.88,
      "lowIndex": 3275.22,
      "fiftyTwoWeekHigh": 3941.95,
      "fiftyTwoWeekLow": 3147.74,
      "turnoverValue": 1911657504.6,
      "turnoverVolume": 4349775,
      "totalTransaction": 36889,
      "absChange": 28.96,
      "percentageChange": 0.88
    },
    {
      "id": 68144,
      "businessDate": "2025-11-16",
      "exchangeIndexId": 54,
      "closingIndex": 3288.46,
      "openIndex": 3311.63,
      "highIndex": 3312.13,
      "lowIndex": 3277.54,
      "fiftyTwoWeekHigh": 3941.95,
      "fiftyTwoWeekLow": 3147.74,
      "turnoverValue": 1744166411.0,
      "turnoverVolume": 4007550,
      "totalTransaction": 25438,
      "absChange": -16.21,
      "percentageChange": -0.49
    },
    {
      "id": 68127,
      "businessDate": "2025-11-13",
      "exchangeIndexId": 54,
      "closingIndex": 3304.68,
      "openIndex": 3287.52,
      "highIndex": 3321.11,
      "lowIndex": 3275.31,
      "fiftyTwoWeekHigh": 3941.95,
      "fiftyTwoWeekLow": 3147.74,
      "turnoverValue": 1723032744.6,
      "turnoverVolume": 3959677,
      "totalTransaction": 28113,
      "absChange": 7.74,
      "percentageChange": 0.23
    },
    {
      "id": 68110,
      "businessDate": "2025-11-12",
      "exchangeIndexId": 54,
      "closingIndex": 3296.94,
      "openIndex": 3327.38,
      "highIndex": 3329.52,
      "lowIndex": 3283.41,
      "fiftyTwoWeekHigh": 3941.95,
      "fiftyTwoWeekLow": 3147.74,
      "turnoverValue": 1765309823.0,
      "turnoverVolume": 3960015,
      "totalTransaction": 42946,
      "absChange": -23.37,
      "percentageChange": -0.7
    },
    {
      "id": 68093,
      "businessDate": "2025-11-11",
      "exchangeIndexId": 54,
      "closingIndex": 3320.32,
      "openIndex": 3301.22,
      "highIndex": 3330.33,
      "lowIndex": 3291.19,
      "fiftyTwoWeekHigh": 3941.95,
      "fiftyTwoWeekLow": 3147.74,
      "turnoverValue": 1855018074.5,
      "turnoverVolume": 3951055,
      "totalTransaction": 34093,
      "absChange": 25.37,
      "percentageChange": 0.77
    },
    {
      "id": 68076,
      "businessDate": "2025-11-10",
      "exchangeIndexId": 54,
      "closingIndex": 3294.94,
      "openIndex": 3286.52,
      "highIndex": 3304.97,
      "lowIndex": 3258.41,
      "fiftyTwoWeekHigh": 3941.95,
      "fiftyTwoWeekLow": 3147.74,
      "turnoverValue": 1682055727.3,
      "turnoverVolume": 3832362,
      "totalTransaction": 17322,
      "absChange": 10.37,
      "percentageChange": 0.31
    },
    {
      "id": 68059,
      "businessDate": "2025-11-09",
      "exchangeIndexId": 54,
      "closingIndex": 3284.57,
      "openIndex": 3328.88,
      "highIndex": 3333.15,
      "lowIndex": 3273.27,
      "fiftyTwoWeekHigh": 3941.95,
      "fiftyTwoWeekLow": 3147.74,
      "turnoverValue": 1936219947.4,
      "turnoverVolume": 4350053,
      "totalTransaction": 19293,
      "absChange": -39.4,
      "percentageChange": -1.18
    },
    {
      "id": 68042,
      "businessDate": "2025-11-06",
      "exchangeIndexId": 54,
      "closingIndex": 3323.97,
      "openIndex": 3350.87,
      "highIndex": 3357.63,
      "lowIndex": 3308.73,
      "fiftyTwoWeekHigh": 3941.95,
      "fiftyTwoWeekLow": 3147.74,
      "turnoverValue": 2147421700.0,
      "turnoverVolume": 4842626,
      "totalTransaction": 19018,
      "absChange": -22.92,
      "percentageChange": -0.68
    }
  ],
  "pageable": {
    "sort": {
      "unsorted": true,
      "sorted": false,
      "empty": true
    },
    "offset": 0,
    "pageNumber": 0,
    "pageSize": 20,
    "paged": true,
    "unpaged": false
  },
  "last": false,
  "totalPages": 12,
  "totalElements": 227,
  "size": 20,
  "number": 0,
  "sort": {
    "unsorted": true,
    "sorted": false,
    "empty": true
  },
  "first": true,
  "numberOfElements": 20,
  "empty": false
}