{
  "content": [
    {
      "id": 68368,
      "businessDate": "2025-12-03",
      "exchangeIndexId": 57,
      "closingIndex": 450.96,
      "openIndex": 454.16,
      "highIndex": 455.71,
      "lowIndex": 449.96,
      "fiftyTwoWeekHigh": 518.59,
      "fiftyTwoWeekLow": 434.97,
      "turnoverValue": 1645784094.1,
      "turnoverVolume": 3626293,
      "totalTransaction": 16107,
      "absChange": -3.03,
      "percentageChange": -0.66
    },
    {
      "id": 68351,
      "businessDate": "2025-12-02",
      "exchangeIndexId": 57,
      "closingIndex": 453.99,
      "openIndex": 454.5,
      "highIndex": 455.82,
      "lowIndex": 453.02,
      "fiftyTwoWeekHigh": 518.59,
      "fiftyTwoWeekLow": 434.97,
      "turnoverValue": 1293772434.51,
      "turnoverVolume": 3015165,
      "totalTransaction": 13870,
      "absChange": -1.26,
      "percentageChange": -0.27
    },
    {
      "id": 68334,
      "businessDate": "2025-12-01",
      "exchangeIndexId": 57,
      "closingIndex": 455.26,
      "openIndex": 457.08,
      "highIndex": 457.74,
      "lowIndex": 453.35,
      "fiftyTwoWeekHigh": 518.59,
      "fiftyTwoWeekLow": 434.97,
      "turnoverValue": 1584550869.9,
      "turnoverVolume": 3627476,
      "totalTransaction": 16125,
      "absChange": -1.72,
      "percentageChange": -0.37
    },
    {
      "id": 68317,
      "businessDate": "2025-11-30",
      "exchangeIndexId": 57,
      "closingIndex": 456.98,
      "openIndex": 461.42,
      "highIndex": 463.92,
      "lowIndex": 455.66,
      "fiftyTwoWeekHigh": 518.59,
      "fiftyTwoWeekLow": 434.97,
      "turnoverValue": 2693484421.2,
      "turnoverVolume": 5788484,
      "totalTransaction": 23888,
      "absChange": -4.67,
      "percentageChange": -1.01
    },
    {
      "id": 68300,
      "businessDate": "2025-11-27",
      "exchangeIndexId": 57,
      "closingIndex": 461.66,
      "openIndex": 459.72,
      "highIndex": 462.27,
      "lowIndex": 457.9,
      "fiftyTwoWeekHigh": 518.59,
      "fiftyTwoWeekLow": 434.97,
      "turnoverValue": 2789469162.3,
      "turnoverVolume": 6001034,
      "totalTransaction": 24632,
      "absChange": 2.48,
      "percentageChange": 0.54
    },
    {
      "id": 68283,
      "businessDate": "2025-11-26",
      "exchangeIndexId": 57,
      "closingIndex": 459.17,
      "openIndex": 458.45,
      "highIndex": 460.18,
      "lowIndex": 455.64,
      "fiftyTwoWeekHigh": 518.59,
      "fiftyTwoWeekLow": 434.97,
      "turnoverValue": 3159840300.2,
      "turnoverVolume": 5517383,
      "totalTransaction": 24859,
      "absChange": 1.64,
      "percentageChange": 0.36
    },
    {
      "id": 68266,
      "businessDate": "2025-11-25",
      "exchangeIndexId": 57,
      "closingIndex": 457.53,
      "openIndex": 456.49,
      "highIndex": 457.53,
      "lowIndex": 453.17,
      "fiftyTwoWeekHigh": 518.59,
      "fiftyTwoWeekLow": 434.97,
      "turnoverValue": 2298950541.3,
      "turnoverVolume": 4931767,
      "totalTransaction": 21762,
      "absChange": 1.39,
      "percentageChange": 0.3
    },
    {
      "id": 68249,
      "businessDate": "2025-11-24",
      "exchangeIndexId": 57,
      "closingIndex": 456.13,
      "openIndex": 448.45,
      "highIndex": 456.15,
      "lowIndex": 448.32,
      "fiftyTwoWeekHigh": 518.59,
      "fiftyTwoWeekLow": 434.97,
      "turnoverValue": 2551209928.1,
      "turnoverVolume": 5343653,
      "totalTransaction": 23610,
      "absChange": 7.84,
      "percentageChange": 1.74
    },
    {
      "id": 68232,
      "businessDate": "2025-11-23",
      "exchangeIndexId": 57,
      "closingIndex": 448.29,
      "openIndex": 441.31,
      "highIndex": 448.29,
      "lowIndex": 441.18,
      "fiftyTwoWeekHigh": 518.59,
      "fiftyTwoWeekLow": 434.97,
      "turnoverValue": 2569685546.4,
      "turnoverVolume": 4635001,
      "totalTransaction": 20083,
      "absChange": 7.63,
      "percentageChange": 1.73
    },
    {
      "id": 68215,
      "businessDate": "2025-11-20",
      "exchangeIndexId": 57,
      "closingIndex": 440.65,
      "openIndex": 442.07,
      "highIndex": 442.24,
      "lowIndex": 439.66,
      "fiftyTwoWeekHigh": 518.59,
      "fiftyTwoWeekLow": 434.97,
      "turnoverValue": 1411726971.1,
      "turnoverVolume": 3276481,
      "totalTransaction": 15229,
      "absChange": -1.61,
      "percentageChange": -0.36
    },
    {
      "id": 68198,
      "businessDate": "2025-11-19",
      "exchangeIndexId": 57,
      "closingIndex": 442.26,
      "openIndex": 443.75,
      "highIndex": 445.76,
      "lowIndex": 440.52,
      "fiftyTwoWeekHigh": 518.59,
      "fiftyTwoWeekLow": 434.97,
      "turnoverValue": 1556490504.1,
      "turnoverVolume": 3441719,
      "totalTransaction": 14765,
      "absChange": -1.26,
      "percentageChange": -0.28
    },
    {
      "id": 68181,
      "businessDate": "2025-11-18",
      "exchangeIndexId": 57,
      "closingIndex": 443.53,
      "openIndex": 441.1,
      "highIndex": 445.74,
      "lowIndex": 440.47,
      "fiftyTwoWeekHigh": 518.59,
      "fiftyTwoWeekLow": 434.97,
      "turnoverValue": 1687626463.5,
      "turnoverVolume": 3803574,
      "totalTransaction": 16901,
      "absChange": 2.65,
      "percentageChange": 0.6
    },
    {
      "id": 68164,
      "businessDate": "2025-11-17",
      "exchangeIndexId": 57,
      "closingIndex": 440.87,
      "openIndex": 439.69,
      "highIndex": 441.93,
      "lowIndex": 437.89,
      "fiftyTwoWeekHigh": 518.59,
      "fiftyTwoWeekLow": 434.97,
      "turnoverValue": 1601144065.5,
      "turnoverVolume": 3444124,
      "totalTransaction": 16376,
      "absChange": 1.43,
      "percentageChange": 0.32
    },
    {
      "id": 68147,
      "businessDate": "2025-11-16",
      "exchangeIndexId": 57,
      "closingIndex": 439.44,
      "openIndex": 441.35,
      "highIndex": 441.6,
      "lowIndex": 437.88,
      "fiftyTwoWeekHigh": 518.59,
      "fiftyTwoWeekLow": 434.97,
      "turnoverValue": 1326798671.2,
      "turnoverVolume": 2814925,
      "totalTransaction": 14890,
      "absChange": -1.44,
      "percentageChange": -0.32
    },
    {
      "id": 68130,
      "businessDate": "2025-11-13",
      "exchangeIndexId": 57,
      "closingIndex": 440.88,
      "openIndex": 440.05,
      "highIndex": 443.04,
      "lowIndex": 438.42,
      "fiftyTwoWeekHigh": 518.59,
      "fiftyTwoWeekLow": 434.97,
      "turnoverValue": 1366968042.6,
      "turnoverVolume": 2813097,
      "totalTransaction": 15410,
      "absChange": -0.15,
      "percentageChange": -0.03
    },
    {
      "id": 68113,
      "businessDate": "2025-11-12",
      "exchangeIndexId": 57,
      "closingIndex": 441.04,
      "openIndex": 444.91,
      "highIndex": 445.51,
      "lowIndex": 440.4,
      "fiftyTwoWeekHigh": 518.59,
      "fiftyTwoWeekLow": 434.97,
      "turnoverValue": 1661426344.3,
      "turnoverVolume": 2899286,
      "totalTransaction": 16026,
      "absChange": -3.33,
      "percentageChange": -0.74
    },
    {
      "id": 68096,
      "businessDate": "2025-11-11",
      "exchangeIndexId": 57,
      "closingIndex": 444.37,
      "openIndex": 445.12,
      "highIndex": 446.54,
      "lowIndex": 442.0,
      "fiftyTwoWeekHigh": 518.59,
      "fiftyTwoWeekLow": 434.97,
      "turnoverValue": 1680077460.0,
      "turnoverVolume": 3226730,
      "totalTransaction": 14701,
      "absChange": -0.19,
      "percentageChange": -0.04
    },
    {
      "id": 68079,
      "businessDate": "2025-11-10",
      "exchangeIndexId": 57,
      "closingIndex": 444.56,
      "openIndex": 446.12,
      "highIndex": 447.47,
      "lowIndex": 442.35,
      "fiftyTwoWeekHigh": 518.59,
      "fiftyTwoWeekLow": 434.97,
      "turnoverValue": 1962772770.3,
      "turnoverVolume": 3435726,
      "totalTransaction": 15569,
      "absChange": -1.05,
      "percentageChange": -0.23
    },
    {
      "id": 68062,
      "businessDate": "2025-11-09",
      "exchangeIndexId": 57,
      "closingIndex": 445.62,
      "openIndex": 451.93,
      "highIndex": 452.01,
      "lowIndex": 445.21,
      "fiftyTwoWeekHigh": 518.59,
      "fiftyTwoWeekLow": 434.97,
      "turnoverValue": 1994598097.0,
      "turnoverVolume": 3946089,
      "totalTransaction": 18186,
      "absChange": -5.9,
      "percentageChange": -1.3
    },
    {
      "id": 68045,
      "businessDate": "2025-11-06",
      "exchangeIndexId": 57,
      "closingIndex": 451.52,
      "openIndex": 454.42,
      "highIndex": 455.43,
      "lowIndex": 450.46,
      "fiftyTwoWeekHigh": 518.59,
      "fiftyTwoWeekLow": 434.97,
      "turnoverValue": 2746217095.1,
      "turnoverVolume": 4774581,
      "totalTransaction": 21451,
      "absChange": -2.08,
      "percentageChange": -0.45
    }
  ],
  "pageable": {
    "sort": {
      "unsorted": true,
      "sorted": false,
      "empty": true
    },
    "offset": 0,
    "pageNumber": 0,
    "pageSize": 20,
    "paged": true,
    "unpaged": false
  },
  "last": false,
  "totalPages": 12,
  "totalElements": 227,
  "size": 20,
  "number": 0,
  "sort": {
    "unsorted": true,
    "sorted": false,
    "empty": true
  },
  "first": true,
  "numberOfElements": 20,
  "empty": false
}