{
  "content": [
    {
      "id": 68369,
      "businessDate": "2025-12-03",
      "exchangeIndexId": 58,
      "closingIndex": 2631.17,
      "openIndex": 2647.41,
      "highIndex": 2658.97,
      "lowIndex": 2622.88,
      "fiftyTwoWeekHigh": 3002.07,
      "fiftyTwoWeekLow": 2487.17,
      "turnoverValue": 5204981201.8,
      "turnoverVolume": 10032760,
      "totalTransaction": 66677,
      "absChange": -13.52,
      "percentageChange": -0.51
    },
    {
      "id": 68352,
      "businessDate": "2025-12-02",
      "exchangeIndexId": 58,
      "closingIndex": 2644.7,
      "openIndex": 2640.9,
      "highIndex": 2652.52,
      "lowIndex": 2638.17,
      "fiftyTwoWeekHigh": 3002.07,
      "fiftyTwoWeekLow": 2487.17,
      "turnoverValue": 4428897079.21,
      "turnoverVolume": 8982522,
      "totalTransaction": 55222,
      "absChange": -0.53,
      "percentageChange": -0.02
    },
    {
      "id": 68335,
      "businessDate": "2025-12-01",
      "exchangeIndexId": 58,
      "closingIndex": 2645.24,
      "openIndex": 2648.34,
      "highIndex": 2658.42,
      "lowIndex": 2630.66,
      "fiftyTwoWeekHigh": 3002.07,
      "fiftyTwoWeekLow": 2487.17,
      "turnoverValue": 4646837437.5,
      "turnoverVolume": 9333151,
      "totalTransaction": 59637,
      "absChange": -4.28,
      "percentageChange": -0.16
    },
    {
      "id": 68318,
      "businessDate": "2025-11-30",
      "exchangeIndexId": 58,
      "closingIndex": 2649.52,
      "openIndex": 2674.69,
      "highIndex": 2694.89,
      "lowIndex": 2644.13,
      "fiftyTwoWeekHigh": 3002.07,
      "fiftyTwoWeekLow": 2487.17,
      "turnoverValue": 6989153104.5,
      "turnoverVolume": 14644046,
      "totalTransaction": 83081,
      "absChange": -26.51,
      "percentageChange": -0.99
    },
    {
      "id": 68301,
      "businessDate": "2025-11-27",
      "exchangeIndexId": 58,
      "closingIndex": 2676.03,
      "openIndex": 2670.1,
      "highIndex": 2678.29,
      "lowIndex": 2658.12,
      "fiftyTwoWeekHigh": 3002.07,
      "fiftyTwoWeekLow": 2487.17,
      "turnoverValue": 6592772483.1,
      "turnoverVolume": 13713256,
      "totalTransaction": 85117,
      "absChange": 10.43,
      "percentageChange": 0.39
    },
    {
      "id": 68284,
      "businessDate": "2025-11-26",
      "exchangeIndexId": 58,
      "closingIndex": 2665.6,
      "openIndex": 2661.7,
      "highIndex": 2671.91,
      "lowIndex": 2647.39,
      "fiftyTwoWeekHigh": 3002.07,
      "fiftyTwoWeekLow": 2487.17,
      "turnoverValue": 6633948936.4,
      "turnoverVolume": 12331791,
      "totalTransaction": 90782,
      "absChange": 9.61,
      "percentageChange": 0.36
    },
    {
      "id": 68267,
      "businessDate": "2025-11-25",
      "exchangeIndexId": 58,
      "closingIndex": 2655.99,
      "openIndex": 2654.28,
      "highIndex": 2658.19,
      "lowIndex": 2635.55,
      "fiftyTwoWeekHigh": 3002.07,
      "fiftyTwoWeekLow": 2487.17,
      "turnoverValue": 5772367029.9,
      "turnoverVolume": 11399410,
      "totalTransaction": 101790,
      "absChange": 5.32,
      "percentageChange": 0.2
    },
    {
      "id": 68250,
      "businessDate": "2025-11-24",
      "exchangeIndexId": 58,
      "closingIndex": 2650.66,
      "openIndex": 2601.2,
      "highIndex": 2650.66,
      "lowIndex": 2601.11,
      "fiftyTwoWeekHigh": 3002.07,
      "fiftyTwoWeekLow": 2487.17,
      "turnoverValue": 6980366743.6,
      "turnoverVolume": 13178676,
      "totalTransaction": 78804,
      "absChange": 50.44,
      "percentageChange": 1.94
    },
    {
      "id": 68233,
      "businessDate": "2025-11-23",
      "exchangeIndexId": 58,
      "closingIndex": 2600.22,
      "openIndex": 2562.34,
      "highIndex": 2600.93,
      "lowIndex": 2562.34,
      "fiftyTwoWeekHigh": 3002.07,
      "fiftyTwoWeekLow": 2487.17,
      "turnoverValue": 6191880996.7,
      "turnoverVolume": 12376471,
      "totalTransaction": 74974,
      "absChange": 39.92,
      "percentageChange": 1.55
    },
    {
      "id": 68216,
      "businessDate": "2025-11-20",
      "exchangeIndexId": 58,
      "closingIndex": 2560.29,
      "openIndex": 2559.88,
      "highIndex": 2563.92,
      "lowIndex": 2549.82,
      "fiftyTwoWeekHigh": 3002.07,
      "fiftyTwoWeekLow": 2487.17,
      "turnoverValue": 4658881231.94,
      "turnoverVolume": 9504544,
      "totalTransaction": 65364,
      "absChange": -0.79,
      "percentageChange": -0.03
    },
    {
      "id": 68199,
      "businessDate": "2025-11-19",
      "exchangeIndexId": 58,
      "closingIndex": 2561.08,
      "openIndex": 2570.92,
      "highIndex": 2580.09,
      "lowIndex": 2550.62,
      "fiftyTwoWeekHigh": 3002.07,
      "fiftyTwoWeekLow": 2487.17,
      "turnoverValue": 3736002021.6,
      "turnoverVolume": 7566544,
      "totalTransaction": 49884,
      "absChange": -4.98,
      "percentageChange": -0.19
    },
    {
      "id": 68182,
      "businessDate": "2025-11-18",
      "exchangeIndexId": 58,
      "closingIndex": 2566.07,
      "openIndex": 2549.19,
      "highIndex": 2579.12,
      "lowIndex": 2547.42,
      "fiftyTwoWeekHigh": 3002.07,
      "fiftyTwoWeekLow": 2487.17,
      "turnoverValue": 4031530768.1,
      "turnoverVolume": 8557300,
      "totalTransaction": 54274,
      "absChange": 15.7,
      "percentageChange": 0.61
    },
    {
      "id": 68165,
      "businessDate": "2025-11-17",
      "exchangeIndexId": 58,
      "closingIndex": 2550.36,
      "openIndex": 2543.88,
      "highIndex": 2555.32,
      "lowIndex": 2534.97,
      "fiftyTwoWeekHigh": 3002.07,
      "fiftyTwoWeekLow": 2487.17,
      "turnoverValue": 3891257814.9,
      "turnoverVolume": 7922772,
      "totalTransaction": 60838,
      "absChange": 9.78,
      "percentageChange": 0.38
    },
    {
      "id": 68148,
      "businessDate": "2025-11-16",
      "exchangeIndexId": 58,
      "closingIndex": 2540.57,
      "openIndex": 2550.18,
      "highIndex": 2550.18,
      "lowIndex": 2533.03,
      "fiftyTwoWeekHigh": 3002.07,
      "fiftyTwoWeekLow": 2487.17,
      "turnoverValue": 3420145224.6,
      "turnoverVolume": 6783605,
      "totalTransaction": 46267,
      "absChange": -5.15,
      "percentageChange": -0.2
    },
    {
      "id": 68131,
      "businessDate": "2025-11-13",
      "exchangeIndexId": 58,
      "closingIndex": 2545.73,
      "openIndex": 2538.62,
      "highIndex": 2559.01,
      "lowIndex": 2530.32,
      "fiftyTwoWeekHigh": 3002.07,
      "fiftyTwoWeekLow": 2487.17,
      "turnoverValue": 3435359539.63,
      "turnoverVolume": 6975650,
      "totalTransaction": 49810,
      "absChange": 1.13,
      "percentageChange": 0.04
    },
    {
      "id": 68114,
      "businessDate": "2025-11-12",
      "exchangeIndexId": 58,
      "closingIndex": 2544.59,
      "openIndex": 2565.77,
      "highIndex": 2569.52,
      "lowIndex": 2540.24,
      "fiftyTwoWeekHigh": 3002.07,
      "fiftyTwoWeekLow": 2487.17,
      "turnoverValue": 3779229520.9,
      "turnoverVolume": 7093870,
      "totalTransaction": 65886,
      "absChange": -20.56,
      "percentageChange": -0.8
    },
    {
      "id": 68097,
      "businessDate": "2025-11-11",
      "exchangeIndexId": 58,
      "closingIndex": 2565.16,
      "openIndex": 2563.87,
      "highIndex": 2569.99,
      "lowIndex": 2548.01,
      "fiftyTwoWeekHigh": 3002.07,
      "fiftyTwoWeekLow": 2487.17,
      "turnoverValue": 3582670412.8,
      "turnoverVolume": 7244991,
      "totalTransaction": 54800,
      "absChange": 3.21,
      "percentageChange": 0.12
    },
    {
      "id": 68080,
      "businessDate": "2025-11-10",
      "exchangeIndexId": 58,
      "closingIndex": 2561.94,
      "openIndex": 2570.66,
      "highIndex": 2576.85,
      "lowIndex": 2544.1,
      "fiftyTwoWeekHigh": 3002.07,
      "fiftyTwoWeekLow": 2487.17,
      "turnoverValue": 4025803479.5,
      "turnoverVolume": 7607798,
      "totalTransaction": 39948,
      "absChange": -4.15,
      "percentageChange": -0.16
    },
    {
      "id": 68063,
      "businessDate": "2025-11-09",
      "exchangeIndexId": 58,
      "closingIndex": 2566.09,
      "openIndex": 2598.39,
      "highIndex": 2599.27,
      "lowIndex": 2560.92,
      "fiftyTwoWeekHigh": 3002.07,
      "fiftyTwoWeekLow": 2487.17,
      "turnoverValue": 4561004599.9,
      "turnoverVolume": 8696711,
      "totalTransaction": 46519,
      "absChange": -30.02,
      "percentageChange": -1.15
    },
    {
      "id": 68046,
      "businessDate": "2025-11-06",
      "exchangeIndexId": 58,
      "closingIndex": 2596.12,
      "openIndex": 2609.72,
      "highIndex": 2622.44,
      "lowIndex": 2589.63,
      "fiftyTwoWeekHigh": 3002.07,
      "fiftyTwoWeekLow": 2487.17,
      "turnoverValue": 5328147891.4,
      "turnoverVolume": 10016220,
      "totalTransaction": 49764,
      "absChange": -11.29,
      "percentageChange": -0.43
    }
  ],
  "pageable": {
    "sort": {
      "unsorted": true,
      "sorted": false,
      "empty": true
    },
    "offset": 0,
    "pageNumber": 0,
    "pageSize": 20,
    "paged": true,
    "unpaged": false
  },
  "last": false,
  "totalPages": 12,
  "totalElements": 227,
  "size": 20,
  "number": 0,
  "sort": {
    "unsorted": true,
    "sorted": false,
    "empty": true
  },
  "first": true,
  "numberOfElements": 20,
  "empty": false
}