{
  "content": [
    {
      "id": 68361,
      "businessDate": "2025-12-03",
      "exchangeIndexId": 67,
      "closingIndex": 104.55,
      "openIndex": 105.05,
      "highIndex": 105.79,
      "lowIndex": 104.03,
      "fiftyTwoWeekHigh": 122.47,
      "fiftyTwoWeekLow": 97.68,
      "turnoverValue": 139746638.7,
      "turnoverVolume": 235038,
      "totalTransaction": 1493,
      "absChange": -0.54,
      "percentageChange": -0.51
    },
    {
      "id": 68344,
      "businessDate": "2025-12-02",
      "exchangeIndexId": 67,
      "closingIndex": 105.09,
      "openIndex": 105.14,
      "highIndex": 105.22,
      "lowIndex": 104.65,
      "fiftyTwoWeekHigh": 122.47,
      "fiftyTwoWeekLow": 97.68,
      "turnoverValue": 133607558.4,
      "turnoverVolume": 215916,
      "totalTransaction": 1409,
      "absChange": -0.04,
      "percentageChange": -0.04
    },
    {
      "id": 68327,
      "businessDate": "2025-12-01",
      "exchangeIndexId": 67,
      "closingIndex": 105.14,
      "openIndex": 105.92,
      "highIndex": 106.33,
      "lowIndex": 104.75,
      "fiftyTwoWeekHigh": 122.47,
      "fiftyTwoWeekLow": 97.68,
      "turnoverValue": 259485541.4,
      "turnoverVolume": 410587,
      "totalTransaction": 1981,
      "absChange": -0.78,
      "percentageChange": -0.73
    },
    {
      "id": 68310,
      "businessDate": "2025-11-30",
      "exchangeIndexId": 67,
      "closingIndex": 105.92,
      "openIndex": 107.21,
      "highIndex": 107.78,
      "lowIndex": 105.2,
      "fiftyTwoWeekHigh": 122.47,
      "fiftyTwoWeekLow": 97.68,
      "turnoverValue": 450939505.4,
      "turnoverVolume": 710501,
      "totalTransaction": 3141,
      "absChange": -1.6,
      "percentageChange": -1.48
    },
    {
      "id": 68293,
      "businessDate": "2025-11-27",
      "exchangeIndexId": 67,
      "closingIndex": 107.52,
      "openIndex": 106.78,
      "highIndex": 107.63,
      "lowIndex": 106.56,
      "fiftyTwoWeekHigh": 122.47,
      "fiftyTwoWeekLow": 97.68,
      "turnoverValue": 810593783.6,
      "turnoverVolume": 1060523,
      "totalTransaction": 4436,
      "absChange": 0.89,
      "percentageChange": 0.83
    },
    {
      "id": 68276,
      "businessDate": "2025-11-26",
      "exchangeIndexId": 67,
      "closingIndex": 106.63,
      "openIndex": 107.44,
      "highIndex": 107.44,
      "lowIndex": 105.96,
      "fiftyTwoWeekHigh": 122.47,
      "fiftyTwoWeekLow": 97.68,
      "turnoverValue": 835754056.8,
      "turnoverVolume": 759442,
      "totalTransaction": 3598,
      "absChange": -0.18,
      "percentageChange": -0.17
    },
    {
      "id": 68259,
      "businessDate": "2025-11-25",
      "exchangeIndexId": 67,
      "closingIndex": 106.81,
      "openIndex": 106.58,
      "highIndex": 107.19,
      "lowIndex": 105.79,
      "fiftyTwoWeekHigh": 122.47,
      "fiftyTwoWeekLow": 97.68,
      "turnoverValue": 421896035.4,
      "turnoverVolume": 765202,
      "totalTransaction": 2780,
      "absChange": 0.24,
      "percentageChange": 0.23
    },
    {
      "id": 68242,
      "businessDate": "2025-11-24",
      "exchangeIndexId": 67,
      "closingIndex": 106.56,
      "openIndex": 104.3,
      "highIndex": 106.57,
      "lowIndex": 104.3,
      "fiftyTwoWeekHigh": 122.47,
      "fiftyTwoWeekLow": 97.68,
      "turnoverValue": 540657061.4,
      "turnoverVolume": 657055,
      "totalTransaction": 3312,
      "absChange": 1.92,
      "percentageChange": 1.83
    },
    {
      "id": 68225,
      "businessDate": "2025-11-23",
      "exchangeIndexId": 67,
      "closingIndex": 104.64,
      "openIndex": 103.11,
      "highIndex": 104.64,
      "lowIndex": 102.98,
      "fiftyTwoWeekHigh": 122.47,
      "fiftyTwoWeekLow": 97.68,
      "turnoverValue": 844600516.0,
      "turnoverVolume": 675234,
      "totalTransaction": 2533,
      "absChange": 2.09,
      "percentageChange": 2.03
    },
    {
      "id": 68208,
      "businessDate": "2025-11-20",
      "exchangeIndexId": 67,
      "closingIndex": 102.55,
      "openIndex": 102.67,
      "highIndex": 103.09,
      "lowIndex": 102.21,
      "fiftyTwoWeekHigh": 122.47,
      "fiftyTwoWeekLow": 97.68,
      "turnoverValue": 161805480.1,
      "turnoverVolume": 212035,
      "totalTransaction": 1621,
      "absChange": -0.52,
      "percentageChange": -0.51
    },
    {
      "id": 68191,
      "businessDate": "2025-11-19",
      "exchangeIndexId": 67,
      "closingIndex": 103.08,
      "openIndex": 103.61,
      "highIndex": 104.07,
      "lowIndex": 102.54,
      "fiftyTwoWeekHigh": 122.47,
      "fiftyTwoWeekLow": 97.68,
      "turnoverValue": 227866696.3,
      "turnoverVolume": 308046,
      "totalTransaction": 1719,
      "absChange": -0.46,
      "percentageChange": -0.44
    },
    {
      "id": 68174,
      "businessDate": "2025-11-18",
      "exchangeIndexId": 67,
      "closingIndex": 103.54,
      "openIndex": 102.73,
      "highIndex": 104.1,
      "lowIndex": 102.11,
      "fiftyTwoWeekHigh": 122.47,
      "fiftyTwoWeekLow": 97.68,
      "turnoverValue": 314466562.4,
      "turnoverVolume": 606304,
      "totalTransaction": 2519,
      "absChange": 1.22,
      "percentageChange": 1.19
    },
    {
      "id": 68157,
      "businessDate": "2025-11-17",
      "exchangeIndexId": 67,
      "closingIndex": 102.32,
      "openIndex": 101.65,
      "highIndex": 102.32,
      "lowIndex": 101.34,
      "fiftyTwoWeekHigh": 122.47,
      "fiftyTwoWeekLow": 97.68,
      "turnoverValue": 343121960.8,
      "turnoverVolume": 357386,
      "totalTransaction": 2048,
      "absChange": 0.54,
      "percentageChange": 0.53
    },
    {
      "id": 68140,
      "businessDate": "2025-11-16",
      "exchangeIndexId": 67,
      "closingIndex": 101.77,
      "openIndex": 102.26,
      "highIndex": 102.38,
      "lowIndex": 101.42,
      "fiftyTwoWeekHigh": 122.47,
      "fiftyTwoWeekLow": 97.68,
      "turnoverValue": 313658283.8,
      "turnoverVolume": 336904,
      "totalTransaction": 2152,
      "absChange": -0.35,
      "percentageChange": -0.34
    },
    {
      "id": 68123,
      "businessDate": "2025-11-13",
      "exchangeIndexId": 67,
      "closingIndex": 102.13,
      "openIndex": 101.72,
      "highIndex": 103.46,
      "lowIndex": 101.68,
      "fiftyTwoWeekHigh": 122.47,
      "fiftyTwoWeekLow": 97.68,
      "turnoverValue": 281540113.3,
      "turnoverVolume": 296556,
      "totalTransaction": 2092,
      "absChange": -0.08,
      "percentageChange": -0.07
    },
    {
      "id": 68106,
      "businessDate": "2025-11-12",
      "exchangeIndexId": 67,
      "closingIndex": 102.21,
      "openIndex": 103.11,
      "highIndex": 103.71,
      "lowIndex": 102.07,
      "fiftyTwoWeekHigh": 122.47,
      "fiftyTwoWeekLow": 97.68,
      "turnoverValue": 541593840.4,
      "turnoverVolume": 415013,
      "totalTransaction": 3016,
      "absChange": -1.02,
      "percentageChange": -0.99
    },
    {
      "id": 68089,
      "businessDate": "2025-11-11",
      "exchangeIndexId": 67,
      "closingIndex": 103.23,
      "openIndex": 103.02,
      "highIndex": 103.73,
      "lowIndex": 102.93,
      "fiftyTwoWeekHigh": 122.47,
      "fiftyTwoWeekLow": 97.68,
      "turnoverValue": 355640412.1,
      "turnoverVolume": 328366,
      "totalTransaction": 1554,
      "absChange": -0.3,
      "percentageChange": -0.29
    },
    {
      "id": 68072,
      "businessDate": "2025-11-10",
      "exchangeIndexId": 67,
      "closingIndex": 103.53,
      "openIndex": 103.45,
      "highIndex": 104.12,
      "lowIndex": 102.64,
      "fiftyTwoWeekHigh": 122.47,
      "fiftyTwoWeekLow": 97.68,
      "turnoverValue": 590875058.9,
      "turnoverVolume": 447226,
      "totalTransaction": 1816,
      "absChange": 0.1,
      "percentageChange": 0.1
    },
    {
      "id": 68055,
      "businessDate": "2025-11-09",
      "exchangeIndexId": 67,
      "closingIndex": 103.43,
      "openIndex": 104.99,
      "highIndex": 105.24,
      "lowIndex": 103.27,
      "fiftyTwoWeekHigh": 122.47,
      "fiftyTwoWeekLow": 97.68,
      "turnoverValue": 328768274.9,
      "turnoverVolume": 334533,
      "totalTransaction": 2174,
      "absChange": -1.63,
      "percentageChange": -1.55
    },
    {
      "id": 68038,
      "businessDate": "2025-11-06",
      "exchangeIndexId": 67,
      "closingIndex": 105.06,
      "openIndex": 105.43,
      "highIndex": 105.72,
      "lowIndex": 104.4,
      "fiftyTwoWeekHigh": 122.47,
      "fiftyTwoWeekLow": 97.68,
      "turnoverValue": 417622560.7,
      "turnoverVolume": 463418,
      "totalTransaction": 2123,
      "absChange": -0.12,
      "percentageChange": -0.11
    }
  ],
  "pageable": {
    "sort": {
      "sorted": false,
      "unsorted": true,
      "empty": true
    },
    "offset": 0,
    "pageNumber": 0,
    "pageSize": 20,
    "paged": true,
    "unpaged": false
  },
  "last": false,
  "totalPages": 12,
  "totalElements": 227,
  "size": 20,
  "number": 0,
  "sort": {
    "sorted": false,
    "unsorted": true,
    "empty": true
  },
  "first": true,
  "numberOfElements": 20,
  "empty": false
}