{
  "content": [
    {
      "id": 68362,
      "businessDate": "2025-12-03",
      "exchangeIndexId": 51,
      "closingIndex": 1354.09,
      "openIndex": 1366.17,
      "highIndex": 1370.85,
      "lowIndex": 1349.92,
      "fiftyTwoWeekHigh": 1561.48,
      "fiftyTwoWeekLow": 1296.0,
      "turnoverValue": 304792486.7,
      "turnoverVolume": 1204363,
      "totalTransaction": 4935,
      "absChange": -9.87,
      "percentageChange": -0.72
    },
    {
      "id": 68345,
      "businessDate": "2025-12-02",
      "exchangeIndexId": 51,
      "closingIndex": 1363.97,
      "openIndex": 1370.28,
      "highIndex": 1370.28,
      "lowIndex": 1360.55,
      "fiftyTwoWeekHigh": 1561.48,
      "fiftyTwoWeekLow": 1296.0,
      "turnoverValue": 273688891.5,
      "turnoverVolume": 949864,
      "totalTransaction": 4569,
      "absChange": -8.03,
      "percentageChange": -0.58
    },
    {
      "id": 68328,
      "businessDate": "2025-12-01",
      "exchangeIndexId": 51,
      "closingIndex": 1372.0,
      "openIndex": 1379.73,
      "highIndex": 1383.45,
      "lowIndex": 1364.28,
      "fiftyTwoWeekHigh": 1561.48,
      "fiftyTwoWeekLow": 1296.0,
      "turnoverValue": 435519601.1,
      "turnoverVolume": 1603010,
      "totalTransaction": 6088,
      "absChange": -9.48,
      "percentageChange": -0.68
    },
    {
      "id": 68311,
      "businessDate": "2025-11-30",
      "exchangeIndexId": 51,
      "closingIndex": 1381.49,
      "openIndex": 1396.16,
      "highIndex": 1402.96,
      "lowIndex": 1377.53,
      "fiftyTwoWeekHigh": 1561.48,
      "fiftyTwoWeekLow": 1296.0,
      "turnoverValue": 554251075.0,
      "turnoverVolume": 2067653,
      "totalTransaction": 7483,
      "absChange": -15.09,
      "percentageChange": -1.08
    },
    {
      "id": 68294,
      "businessDate": "2025-11-27",
      "exchangeIndexId": 51,
      "closingIndex": 1396.58,
      "openIndex": 1377.9,
      "highIndex": 1398.62,
      "lowIndex": 1369.86,
      "fiftyTwoWeekHigh": 1561.48,
      "fiftyTwoWeekLow": 1296.0,
      "turnoverValue": 661734370.6,
      "turnoverVolume": 2423278,
      "totalTransaction": 9196,
      "absChange": 20.61,
      "percentageChange": 1.49
    },
    {
      "id": 68277,
      "businessDate": "2025-11-26",
      "exchangeIndexId": 51,
      "closingIndex": 1375.97,
      "openIndex": 1367.82,
      "highIndex": 1380.21,
      "lowIndex": 1362.19,
      "fiftyTwoWeekHigh": 1561.48,
      "fiftyTwoWeekLow": 1296.0,
      "turnoverValue": 376766843.2,
      "turnoverVolume": 1392938,
      "totalTransaction": 6967,
      "absChange": 9.06,
      "percentageChange": 0.66
    },
    {
      "id": 68260,
      "businessDate": "2025-11-25",
      "exchangeIndexId": 51,
      "closingIndex": 1366.9,
      "openIndex": 1366.22,
      "highIndex": 1370.64,
      "lowIndex": 1355.11,
      "fiftyTwoWeekHigh": 1561.48,
      "fiftyTwoWeekLow": 1296.0,
      "turnoverValue": 308138614.2,
      "turnoverVolume": 1160664,
      "totalTransaction": 6319,
      "absChange": 2.79,
      "percentageChange": 0.2
    },
    {
      "id": 68243,
      "businessDate": "2025-11-24",
      "exchangeIndexId": 51,
      "closingIndex": 1364.11,
      "openIndex": 1343.33,
      "highIndex": 1364.47,
      "lowIndex": 1343.06,
      "fiftyTwoWeekHigh": 1561.48,
      "fiftyTwoWeekLow": 1296.0,
      "turnoverValue": 355731155.0,
      "turnoverVolume": 1366010,
      "totalTransaction": 6121,
      "absChange": 18.95,
      "percentageChange": 1.4
    },
    {
      "id": 68226,
      "businessDate": "2025-11-23",
      "exchangeIndexId": 51,
      "closingIndex": 1345.15,
      "openIndex": 1328.42,
      "highIndex": 1345.97,
      "lowIndex": 1327.25,
      "fiftyTwoWeekHigh": 1561.48,
      "fiftyTwoWeekLow": 1296.0,
      "turnoverValue": 336015235.0,
      "turnoverVolume": 1292775,
      "totalTransaction": 6263,
      "absChange": 18.14,
      "percentageChange": 1.36
    },
    {
      "id": 68209,
      "businessDate": "2025-11-20",
      "exchangeIndexId": 51,
      "closingIndex": 1327.01,
      "openIndex": 1331.4,
      "highIndex": 1334.4,
      "lowIndex": 1323.37,
      "fiftyTwoWeekHigh": 1561.48,
      "fiftyTwoWeekLow": 1296.0,
      "turnoverValue": 257454569.9,
      "turnoverVolume": 1068329,
      "totalTransaction": 5191,
      "absChange": -4.38,
      "percentageChange": -0.32
    },
    {
      "id": 68192,
      "businessDate": "2025-11-19",
      "exchangeIndexId": 51,
      "closingIndex": 1331.4,
      "openIndex": 1334.44,
      "highIndex": 1340.16,
      "lowIndex": 1326.13,
      "fiftyTwoWeekHigh": 1561.48,
      "fiftyTwoWeekLow": 1296.0,
      "turnoverValue": 211862146.8,
      "turnoverVolume": 867557,
      "totalTransaction": 4471,
      "absChange": -1.96,
      "percentageChange": -0.14
    },
    {
      "id": 68175,
      "businessDate": "2025-11-18",
      "exchangeIndexId": 51,
      "closingIndex": 1333.36,
      "openIndex": 1329.65,
      "highIndex": 1341.88,
      "lowIndex": 1328.46,
      "fiftyTwoWeekHigh": 1561.48,
      "fiftyTwoWeekLow": 1296.0,
      "turnoverValue": 265544891.7,
      "turnoverVolume": 1060771,
      "totalTransaction": 4728,
      "absChange": 4.15,
      "percentageChange": 0.31
    },
    {
      "id": 68158,
      "businessDate": "2025-11-17",
      "exchangeIndexId": 51,
      "closingIndex": 1329.21,
      "openIndex": 1329.66,
      "highIndex": 1334.66,
      "lowIndex": 1325.13,
      "fiftyTwoWeekHigh": 1561.48,
      "fiftyTwoWeekLow": 1296.0,
      "turnoverValue": 329832910.2,
      "turnoverVolume": 1334733,
      "totalTransaction": 5772,
      "absChange": 1.8,
      "percentageChange": 0.13
    },
    {
      "id": 68141,
      "businessDate": "2025-11-16",
      "exchangeIndexId": 51,
      "closingIndex": 1327.4,
      "openIndex": 1331.51,
      "highIndex": 1334.24,
      "lowIndex": 1321.79,
      "fiftyTwoWeekHigh": 1561.48,
      "fiftyTwoWeekLow": 1296.0,
      "turnoverValue": 217177710.0,
      "turnoverVolume": 860850,
      "totalTransaction": 4813,
      "absChange": -4.11,
      "percentageChange": -0.3
    },
    {
      "id": 68124,
      "businessDate": "2025-11-13",
      "exchangeIndexId": 51,
      "closingIndex": 1331.51,
      "openIndex": 1327.62,
      "highIndex": 1338.11,
      "lowIndex": 1322.71,
      "fiftyTwoWeekHigh": 1561.48,
      "fiftyTwoWeekLow": 1296.0,
      "turnoverValue": 275491970.2,
      "turnoverVolume": 1098984,
      "totalTransaction": 5054,
      "absChange": 1.7,
      "percentageChange": 0.12
    },
    {
      "id": 68107,
      "businessDate": "2025-11-12",
      "exchangeIndexId": 51,
      "closingIndex": 1329.81,
      "openIndex": 1340.72,
      "highIndex": 1341.01,
      "lowIndex": 1327.89,
      "fiftyTwoWeekHigh": 1561.48,
      "fiftyTwoWeekLow": 1296.0,
      "turnoverValue": 281098421.6,
      "turnoverVolume": 1049938,
      "totalTransaction": 5496,
      "absChange": -9.01,
      "percentageChange": -0.67
    },
    {
      "id": 68090,
      "businessDate": "2025-11-11",
      "exchangeIndexId": 51,
      "closingIndex": 1338.82,
      "openIndex": 1337.88,
      "highIndex": 1345.88,
      "lowIndex": 1330.65,
      "fiftyTwoWeekHigh": 1561.48,
      "fiftyTwoWeekLow": 1296.0,
      "turnoverValue": 323201487.0,
      "turnoverVolume": 1317655,
      "totalTransaction": 5496,
      "absChange": 0.94,
      "percentageChange": 0.07
    },
    {
      "id": 68073,
      "businessDate": "2025-11-10",
      "exchangeIndexId": 51,
      "closingIndex": 1337.88,
      "openIndex": 1348.22,
      "highIndex": 1354.21,
      "lowIndex": 1335.05,
      "fiftyTwoWeekHigh": 1561.48,
      "fiftyTwoWeekLow": 1296.0,
      "turnoverValue": 369853946.0,
      "turnoverVolume": 1413766,
      "totalTransaction": 5070,
      "absChange": -8.15,
      "percentageChange": -0.6
    },
    {
      "id": 68056,
      "businessDate": "2025-11-09",
      "exchangeIndexId": 51,
      "closingIndex": 1346.04,
      "openIndex": 1363.03,
      "highIndex": 1363.03,
      "lowIndex": 1344.41,
      "fiftyTwoWeekHigh": 1561.48,
      "fiftyTwoWeekLow": 1296.0,
      "turnoverValue": 384687350.1,
      "turnoverVolume": 1445676,
      "totalTransaction": 5743,
      "absChange": -17.72,
      "percentageChange": -1.29
    },
    {
      "id": 68039,
      "businessDate": "2025-11-06",
      "exchangeIndexId": 51,
      "closingIndex": 1363.76,
      "openIndex": 1371.45,
      "highIndex": 1377.49,
      "lowIndex": 1360.28,
      "fiftyTwoWeekHigh": 1561.48,
      "fiftyTwoWeekLow": 1296.0,
      "turnoverValue": 397937243.1,
      "turnoverVolume": 1428483,
      "totalTransaction": 5405,
      "absChange": -5.92,
      "percentageChange": -0.43
    }
  ],
  "pageable": {
    "sort": {
      "sorted": false,
      "unsorted": true,
      "empty": true
    },
    "offset": 0,
    "pageNumber": 0,
    "pageSize": 20,
    "paged": true,
    "unpaged": false
  },
  "last": false,
  "totalPages": 12,
  "totalElements": 227,
  "size": 20,
  "number": 0,
  "sort": {
    "sorted": false,
    "unsorted": true,
    "empty": true
  },
  "first": true,
  "numberOfElements": 20,
  "empty": false
}