{
  "content": [
    {
      "id": 68370,
      "businessDate": "2025-12-03",
      "exchangeIndexId": 59,
      "closingIndex": 10974.64,
      "openIndex": 11077.53,
      "highIndex": 11082.8,
      "lowIndex": 10896.66,
      "fiftyTwoWeekHigh": 13705.07,
      "fiftyTwoWeekLow": 10448.66,
      "turnoverValue": 103758092.1,
      "turnoverVolume": 159961,
      "totalTransaction": 1287,
      "absChange": -80.77,
      "percentageChange": -0.73
    },
    {
      "id": 68353,
      "businessDate": "2025-12-02",
      "exchangeIndexId": 59,
      "closingIndex": 11055.42,
      "openIndex": 11026.0,
      "highIndex": 11113.3,
      "lowIndex": 10989.23,
      "fiftyTwoWeekHigh": 13705.07,
      "fiftyTwoWeekLow": 10448.66,
      "turnoverValue": 79995900.3,
      "turnoverVolume": 129395,
      "totalTransaction": 924,
      "absChange": 29.41,
      "percentageChange": 0.26
    },
    {
      "id": 68336,
      "businessDate": "2025-12-01",
      "exchangeIndexId": 59,
      "closingIndex": 11026.0,
      "openIndex": 11026.69,
      "highIndex": 11102.74,
      "lowIndex": 10920.96,
      "fiftyTwoWeekHigh": 13705.07,
      "fiftyTwoWeekLow": 10448.66,
      "turnoverValue": 85149320.1,
      "turnoverVolume": 145166,
      "totalTransaction": 1089,
      "absChange": -0.68,
      "percentageChange": 0.0
    },
    {
      "id": 68319,
      "businessDate": "2025-11-30",
      "exchangeIndexId": 59,
      "closingIndex": 11026.69,
      "openIndex": 11103.43,
      "highIndex": 11233.98,
      "lowIndex": 11007.25,
      "fiftyTwoWeekHigh": 13705.07,
      "fiftyTwoWeekLow": 10448.66,
      "turnoverValue": 165384058.8,
      "turnoverVolume": 290050,
      "totalTransaction": 1979,
      "absChange": -76.73,
      "percentageChange": -0.69
    },
    {
      "id": 68302,
      "businessDate": "2025-11-27",
      "exchangeIndexId": 59,
      "closingIndex": 11103.43,
      "openIndex": 11092.21,
      "highIndex": 11156.61,
      "lowIndex": 11035.31,
      "fiftyTwoWeekHigh": 13705.07,
      "fiftyTwoWeekLow": 10448.66,
      "turnoverValue": 90721270.0,
      "turnoverVolume": 142620,
      "totalTransaction": 1375,
      "absChange": 11.21,
      "percentageChange": 0.1
    },
    {
      "id": 68285,
      "businessDate": "2025-11-26",
      "exchangeIndexId": 59,
      "closingIndex": 11092.21,
      "openIndex": 11129.71,
      "highIndex": 11138.32,
      "lowIndex": 11029.86,
      "fiftyTwoWeekHigh": 13705.07,
      "fiftyTwoWeekLow": 10448.66,
      "turnoverValue": 117488443.0,
      "turnoverVolume": 187294,
      "totalTransaction": 1309,
      "absChange": -37.5,
      "percentageChange": -0.33
    },
    {
      "id": 68268,
      "businessDate": "2025-11-25",
      "exchangeIndexId": 59,
      "closingIndex": 11129.71,
      "openIndex": 11077.99,
      "highIndex": 11129.71,
      "lowIndex": 10933.22,
      "fiftyTwoWeekHigh": 13705.07,
      "fiftyTwoWeekLow": 10448.66,
      "turnoverValue": 155824285.7,
      "turnoverVolume": 239469,
      "totalTransaction": 1730,
      "absChange": 72.17,
      "percentageChange": 0.65
    },
    {
      "id": 68251,
      "businessDate": "2025-11-24",
      "exchangeIndexId": 59,
      "closingIndex": 11057.54,
      "openIndex": 10736.39,
      "highIndex": 11057.58,
      "lowIndex": 10736.39,
      "fiftyTwoWeekHigh": 13705.07,
      "fiftyTwoWeekLow": 10448.66,
      "turnoverValue": 222655336.3,
      "turnoverVolume": 347300,
      "totalTransaction": 2425,
      "absChange": 321.14,
      "percentageChange": 2.99
    },
    {
      "id": 68234,
      "businessDate": "2025-11-23",
      "exchangeIndexId": 59,
      "closingIndex": 10736.39,
      "openIndex": 10526.69,
      "highIndex": 10753.74,
      "lowIndex": 10503.05,
      "fiftyTwoWeekHigh": 13705.07,
      "fiftyTwoWeekLow": 10448.66,
      "turnoverValue": 116929612.4,
      "turnoverVolume": 177316,
      "totalTransaction": 1643,
      "absChange": 209.7,
      "percentageChange": 1.99
    },
    {
      "id": 68217,
      "businessDate": "2025-11-20",
      "exchangeIndexId": 59,
      "closingIndex": 10526.69,
      "openIndex": 10559.42,
      "highIndex": 10575.14,
      "lowIndex": 10498.72,
      "fiftyTwoWeekHigh": 13705.07,
      "fiftyTwoWeekLow": 10448.66,
      "turnoverValue": 59990261.8,
      "turnoverVolume": 94631,
      "totalTransaction": 1023,
      "absChange": -32.73,
      "percentageChange": -0.3
    },
    {
      "id": 68200,
      "businessDate": "2025-11-19",
      "exchangeIndexId": 59,
      "closingIndex": 10559.42,
      "openIndex": 10620.75,
      "highIndex": 10643.33,
      "lowIndex": 10517.01,
      "fiftyTwoWeekHigh": 13705.07,
      "fiftyTwoWeekLow": 10448.66,
      "turnoverValue": 55199902.6,
      "turnoverVolume": 88113,
      "totalTransaction": 854,
      "absChange": -61.32,
      "percentageChange": -0.57
    },
    {
      "id": 68183,
      "businessDate": "2025-11-18",
      "exchangeIndexId": 59,
      "closingIndex": 10620.75,
      "openIndex": 10531.55,
      "highIndex": 10653.54,
      "lowIndex": 10509.06,
      "fiftyTwoWeekHigh": 13705.07,
      "fiftyTwoWeekLow": 10448.66,
      "turnoverValue": 100524381.9,
      "turnoverVolume": 157019,
      "totalTransaction": 1169,
      "absChange": 89.19,
      "percentageChange": 0.84
    },
    {
      "id": 68166,
      "businessDate": "2025-11-17",
      "exchangeIndexId": 59,
      "closingIndex": 10531.55,
      "openIndex": 10541.67,
      "highIndex": 10559.07,
      "lowIndex": 10436.22,
      "fiftyTwoWeekHigh": 13705.07,
      "fiftyTwoWeekLow": 10448.66,
      "turnoverValue": 68397745.8,
      "turnoverVolume": 111589,
      "totalTransaction": 1075,
      "absChange": -10.04,
      "percentageChange": -0.09
    },
    {
      "id": 68149,
      "businessDate": "2025-11-16",
      "exchangeIndexId": 59,
      "closingIndex": 10541.6,
      "openIndex": 10593.72,
      "highIndex": 10623.82,
      "lowIndex": 10456.56,
      "fiftyTwoWeekHigh": 13705.07,
      "fiftyTwoWeekLow": 10448.66,
      "turnoverValue": 66205048.7,
      "turnoverVolume": 112415,
      "totalTransaction": 1154,
      "absChange": -52.11,
      "percentageChange": -0.49
    },
    {
      "id": 68132,
      "businessDate": "2025-11-13",
      "exchangeIndexId": 59,
      "closingIndex": 10593.72,
      "openIndex": 10621.92,
      "highIndex": 10630.43,
      "lowIndex": 10465.44,
      "fiftyTwoWeekHigh": 13705.07,
      "fiftyTwoWeekLow": 10448.66,
      "turnoverValue": 53992907.2,
      "turnoverVolume": 84598,
      "totalTransaction": 1000,
      "absChange": -28.87,
      "percentageChange": -0.27
    },
    {
      "id": 68115,
      "businessDate": "2025-11-12",
      "exchangeIndexId": 59,
      "closingIndex": 10622.59,
      "openIndex": 10681.28,
      "highIndex": 10747.07,
      "lowIndex": 10526.37,
      "fiftyTwoWeekHigh": 13705.07,
      "fiftyTwoWeekLow": 10448.66,
      "turnoverValue": 79298650.7,
      "turnoverVolume": 126955,
      "totalTransaction": 1144,
      "absChange": -58.68,
      "percentageChange": -0.54
    },
    {
      "id": 68098,
      "businessDate": "2025-11-11",
      "exchangeIndexId": 59,
      "closingIndex": 10681.28,
      "openIndex": 10617.54,
      "highIndex": 10681.28,
      "lowIndex": 10573.64,
      "fiftyTwoWeekHigh": 13705.07,
      "fiftyTwoWeekLow": 10448.66,
      "turnoverValue": 47889070.0,
      "turnoverVolume": 79841,
      "totalTransaction": 862,
      "absChange": 53.63,
      "percentageChange": 0.5
    },
    {
      "id": 68081,
      "businessDate": "2025-11-10",
      "exchangeIndexId": 59,
      "closingIndex": 10627.65,
      "openIndex": 10661.06,
      "highIndex": 10695.44,
      "lowIndex": 10597.42,
      "fiftyTwoWeekHigh": 13705.07,
      "fiftyTwoWeekLow": 10448.66,
      "turnoverValue": 59842258.8,
      "turnoverVolume": 99643,
      "totalTransaction": 1019,
      "absChange": -43.99,
      "percentageChange": -0.41
    },
    {
      "id": 68064,
      "businessDate": "2025-11-09",
      "exchangeIndexId": 59,
      "closingIndex": 10671.64,
      "openIndex": 10816.33,
      "highIndex": 10835.91,
      "lowIndex": 10616.11,
      "fiftyTwoWeekHigh": 13705.07,
      "fiftyTwoWeekLow": 10448.66,
      "turnoverValue": 86147326.9,
      "turnoverVolume": 128883,
      "totalTransaction": 1474,
      "absChange": -144.68,
      "percentageChange": -1.33
    },
    {
      "id": 68047,
      "businessDate": "2025-11-06",
      "exchangeIndexId": 59,
      "closingIndex": 10816.33,
      "openIndex": 10925.28,
      "highIndex": 11032.33,
      "lowIndex": 10768.59,
      "fiftyTwoWeekHigh": 13705.07,
      "fiftyTwoWeekLow": 10448.66,
      "turnoverValue": 129320608.9,
      "turnoverVolume": 206330,
      "totalTransaction": 1600,
      "absChange": -108.95,
      "percentageChange": -0.99
    }
  ],
  "pageable": {
    "sort": {
      "unsorted": true,
      "sorted": false,
      "empty": true
    },
    "offset": 0,
    "pageNumber": 0,
    "pageSize": 20,
    "paged": true,
    "unpaged": false
  },
  "last": false,
  "totalPages": 12,
  "totalElements": 227,
  "size": 20,
  "number": 0,
  "sort": {
    "unsorted": true,
    "sorted": false,
    "empty": true
  },
  "first": true,
  "numberOfElements": 20,
  "empty": false
}