{
  "content": [
    {
      "id": 68373,
      "businessDate": "2025-12-03",
      "exchangeIndexId": 62,
      "closingIndex": 179.95,
      "openIndex": 181.17,
      "highIndex": 181.88,
      "lowIndex": 179.51,
      "fiftyTwoWeekHigh": 206.25,
      "fiftyTwoWeekLow": 170.57,
      "turnoverValue": 5204981201.8,
      "turnoverVolume": 10032760,
      "totalTransaction": 66677,
      "absChange": -1.01,
      "percentageChange": -0.55
    },
    {
      "id": 68356,
      "businessDate": "2025-12-02",
      "exchangeIndexId": 62,
      "closingIndex": 180.96,
      "openIndex": 180.81,
      "highIndex": 181.57,
      "lowIndex": 180.49,
      "fiftyTwoWeekHigh": 206.25,
      "fiftyTwoWeekLow": 170.57,
      "turnoverValue": 4428897079.21,
      "turnoverVolume": 8982522,
      "totalTransaction": 55222,
      "absChange": -0.08,
      "percentageChange": -0.04
    },
    {
      "id": 68339,
      "businessDate": "2025-12-01",
      "exchangeIndexId": 62,
      "closingIndex": 181.05,
      "openIndex": 181.44,
      "highIndex": 181.96,
      "lowIndex": 180.18,
      "fiftyTwoWeekHigh": 206.25,
      "fiftyTwoWeekLow": 170.57,
      "turnoverValue": 4646837437.5,
      "turnoverVolume": 9333151,
      "totalTransaction": 59637,
      "absChange": -0.47,
      "percentageChange": -0.26
    },
    {
      "id": 68322,
      "businessDate": "2025-11-30",
      "exchangeIndexId": 62,
      "closingIndex": 181.53,
      "openIndex": 183.55,
      "highIndex": 184.41,
      "lowIndex": 181.14,
      "fiftyTwoWeekHigh": 206.25,
      "fiftyTwoWeekLow": 170.57,
      "turnoverValue": 6989153104.5,
      "turnoverVolume": 14644046,
      "totalTransaction": 83081,
      "absChange": -2.06,
      "percentageChange": -1.12
    },
    {
      "id": 68305,
      "businessDate": "2025-11-27",
      "exchangeIndexId": 62,
      "closingIndex": 183.59,
      "openIndex": 182.75,
      "highIndex": 183.68,
      "lowIndex": 182.03,
      "fiftyTwoWeekHigh": 206.25,
      "fiftyTwoWeekLow": 170.57,
      "turnoverValue": 6592772483.1,
      "turnoverVolume": 13713256,
      "totalTransaction": 85117,
      "absChange": 1.14,
      "percentageChange": 0.62
    },
    {
      "id": 68288,
      "businessDate": "2025-11-26",
      "exchangeIndexId": 62,
      "closingIndex": 182.45,
      "openIndex": 182.36,
      "highIndex": 182.96,
      "lowIndex": 181.16,
      "fiftyTwoWeekHigh": 206.25,
      "fiftyTwoWeekLow": 170.57,
      "turnoverValue": 6633948936.4,
      "turnoverVolume": 12331791,
      "totalTransaction": 90782,
      "absChange": 0.54,
      "percentageChange": 0.3
    },
    {
      "id": 68271,
      "businessDate": "2025-11-25",
      "exchangeIndexId": 62,
      "closingIndex": 181.9,
      "openIndex": 181.78,
      "highIndex": 181.9,
      "lowIndex": 180.27,
      "fiftyTwoWeekHigh": 206.25,
      "fiftyTwoWeekLow": 170.57,
      "turnoverValue": 5772367029.9,
      "turnoverVolume": 11399410,
      "totalTransaction": 101790,
      "absChange": 0.46,
      "percentageChange": 0.25
    },
    {
      "id": 68254,
      "businessDate": "2025-11-24",
      "exchangeIndexId": 62,
      "closingIndex": 181.44,
      "openIndex": 177.95,
      "highIndex": 181.44,
      "lowIndex": 177.94,
      "fiftyTwoWeekHigh": 206.25,
      "fiftyTwoWeekLow": 170.57,
      "turnoverValue": 6980366743.6,
      "turnoverVolume": 13178676,
      "totalTransaction": 78804,
      "absChange": 3.59,
      "percentageChange": 2.01
    },
    {
      "id": 68237,
      "businessDate": "2025-11-23",
      "exchangeIndexId": 62,
      "closingIndex": 177.85,
      "openIndex": 174.97,
      "highIndex": 177.85,
      "lowIndex": 174.95,
      "fiftyTwoWeekHigh": 206.25,
      "fiftyTwoWeekLow": 170.57,
      "turnoverValue": 6191880996.7,
      "turnoverVolume": 12376471,
      "totalTransaction": 74974,
      "absChange": 3.05,
      "percentageChange": 1.74
    },
    {
      "id": 68220,
      "businessDate": "2025-11-20",
      "exchangeIndexId": 62,
      "closingIndex": 174.8,
      "openIndex": 174.94,
      "highIndex": 175.04,
      "lowIndex": 174.25,
      "fiftyTwoWeekHigh": 206.25,
      "fiftyTwoWeekLow": 170.57,
      "turnoverValue": 4658881231.94,
      "turnoverVolume": 9504544,
      "totalTransaction": 65364,
      "absChange": -0.18,
      "percentageChange": -0.1
    },
    {
      "id": 68203,
      "businessDate": "2025-11-19",
      "exchangeIndexId": 62,
      "closingIndex": 174.99,
      "openIndex": 175.7,
      "highIndex": 176.32,
      "lowIndex": 174.31,
      "fiftyTwoWeekHigh": 206.25,
      "fiftyTwoWeekLow": 170.57,
      "turnoverValue": 3736002021.6,
      "turnoverVolume": 7566544,
      "totalTransaction": 49884,
      "absChange": -0.51,
      "percentageChange": -0.29
    },
    {
      "id": 68186,
      "businessDate": "2025-11-18",
      "exchangeIndexId": 62,
      "closingIndex": 175.5,
      "openIndex": 174.31,
      "highIndex": 176.33,
      "lowIndex": 174.2,
      "fiftyTwoWeekHigh": 206.25,
      "fiftyTwoWeekLow": 170.57,
      "turnoverValue": 4031530768.1,
      "turnoverVolume": 8557300,
      "totalTransaction": 54274,
      "absChange": 1.16,
      "percentageChange": 0.66
    },
    {
      "id": 68169,
      "businessDate": "2025-11-17",
      "exchangeIndexId": 62,
      "closingIndex": 174.33,
      "openIndex": 173.83,
      "highIndex": 174.66,
      "lowIndex": 173.24,
      "fiftyTwoWeekHigh": 206.25,
      "fiftyTwoWeekLow": 170.57,
      "turnoverValue": 3891257814.9,
      "turnoverVolume": 7922772,
      "totalTransaction": 60838,
      "absChange": 0.71,
      "percentageChange": 0.41
    },
    {
      "id": 68152,
      "businessDate": "2025-11-16",
      "exchangeIndexId": 62,
      "closingIndex": 173.61,
      "openIndex": 174.36,
      "highIndex": 174.36,
      "lowIndex": 173.06,
      "fiftyTwoWeekHigh": 206.25,
      "fiftyTwoWeekLow": 170.57,
      "turnoverValue": 3420145224.6,
      "turnoverVolume": 6783605,
      "totalTransaction": 46267,
      "absChange": -0.5,
      "percentageChange": -0.29
    },
    {
      "id": 68135,
      "businessDate": "2025-11-13",
      "exchangeIndexId": 62,
      "closingIndex": 174.12,
      "openIndex": 173.77,
      "highIndex": 175.02,
      "lowIndex": 173.21,
      "fiftyTwoWeekHigh": 206.25,
      "fiftyTwoWeekLow": 170.57,
      "turnoverValue": 3435359539.63,
      "turnoverVolume": 6975650,
      "totalTransaction": 49810,
      "absChange": -0.01,
      "percentageChange": 0.0
    },
    {
      "id": 68118,
      "businessDate": "2025-11-12",
      "exchangeIndexId": 62,
      "closingIndex": 174.14,
      "openIndex": 175.67,
      "highIndex": 175.75,
      "lowIndex": 173.81,
      "fiftyTwoWeekHigh": 206.25,
      "fiftyTwoWeekLow": 170.57,
      "turnoverValue": 3779229520.9,
      "turnoverVolume": 7093870,
      "totalTransaction": 65886,
      "absChange": -1.33,
      "percentageChange": -0.76
    },
    {
      "id": 68101,
      "businessDate": "2025-11-11",
      "exchangeIndexId": 62,
      "closingIndex": 175.48,
      "openIndex": 175.31,
      "highIndex": 175.8,
      "lowIndex": 174.31,
      "fiftyTwoWeekHigh": 206.25,
      "fiftyTwoWeekLow": 170.57,
      "turnoverValue": 3582670412.8,
      "turnoverVolume": 7244991,
      "totalTransaction": 54800,
      "absChange": 0.23,
      "percentageChange": 0.13
    },
    {
      "id": 68084,
      "businessDate": "2025-11-10",
      "exchangeIndexId": 62,
      "closingIndex": 175.24,
      "openIndex": 175.97,
      "highIndex": 176.28,
      "lowIndex": 174.3,
      "fiftyTwoWeekHigh": 206.25,
      "fiftyTwoWeekLow": 170.57,
      "turnoverValue": 4025803479.5,
      "turnoverVolume": 7607798,
      "totalTransaction": 39948,
      "absChange": -0.38,
      "percentageChange": -0.22
    },
    {
      "id": 68067,
      "businessDate": "2025-11-09",
      "exchangeIndexId": 62,
      "closingIndex": 175.63,
      "openIndex": 178.23,
      "highIndex": 178.29,
      "lowIndex": 175.36,
      "fiftyTwoWeekHigh": 206.25,
      "fiftyTwoWeekLow": 170.57,
      "turnoverValue": 4561004599.9,
      "turnoverVolume": 8696711,
      "totalTransaction": 46519,
      "absChange": -2.42,
      "percentageChange": -1.36
    },
    {
      "id": 68050,
      "businessDate": "2025-11-06",
      "exchangeIndexId": 62,
      "closingIndex": 178.05,
      "openIndex": 179.11,
      "highIndex": 179.61,
      "lowIndex": 177.5,
      "fiftyTwoWeekHigh": 206.25,
      "fiftyTwoWeekLow": 170.57,
      "turnoverValue": 5328147891.4,
      "turnoverVolume": 10016220,
      "totalTransaction": 49764,
      "absChange": -0.81,
      "percentageChange": -0.45
    }
  ],
  "pageable": {
    "sort": {
      "unsorted": true,
      "sorted": false,
      "empty": true
    },
    "offset": 0,
    "pageNumber": 0,
    "pageSize": 20,
    "paged": true,
    "unpaged": false
  },
  "last": false,
  "totalPages": 12,
  "totalElements": 227,
  "size": 20,
  "number": 0,
  "sort": {
    "unsorted": true,
    "sorted": false,
    "empty": true
  },
  "first": true,
  "numberOfElements": 20,
  "empty": false
}