{
  "content": [
    {
      "id": 68372,
      "businessDate": "2025-12-03",
      "exchangeIndexId": 61,
      "closingIndex": 3824.6,
      "openIndex": 3833.67,
      "highIndex": 3872.27,
      "lowIndex": 3764.16,
      "fiftyTwoWeekHigh": 5362.34,
      "fiftyTwoWeekLow": 3538.87,
      "turnoverValue": 14721849.7,
      "turnoverVolume": 2787,
      "totalTransaction": 98,
      "absChange": -9.07,
      "percentageChange": -0.23
    },
    {
      "id": 68355,
      "businessDate": "2025-12-02",
      "exchangeIndexId": 61,
      "closingIndex": 3833.67,
      "openIndex": 3804.92,
      "highIndex": 3836.52,
      "lowIndex": 3758.49,
      "fiftyTwoWeekHigh": 5362.34,
      "fiftyTwoWeekLow": 3538.87,
      "turnoverValue": 2369375.0,
      "turnoverVolume": 451,
      "totalTransaction": 26,
      "absChange": 28.74,
      "percentageChange": 0.75
    },
    {
      "id": 68338,
      "businessDate": "2025-12-01",
      "exchangeIndexId": 61,
      "closingIndex": 3804.92,
      "openIndex": 3809.02,
      "highIndex": 3875.24,
      "lowIndex": 3733.22,
      "fiftyTwoWeekHigh": 5362.34,
      "fiftyTwoWeekLow": 3538.87,
      "turnoverValue": 7768084.0,
      "turnoverVolume": 1570,
      "totalTransaction": 82,
      "absChange": -4.1,
      "percentageChange": -0.1
    },
    {
      "id": 68321,
      "businessDate": "2025-11-30",
      "exchangeIndexId": 61,
      "closingIndex": 3809.02,
      "openIndex": 3828.81,
      "highIndex": 4166.66,
      "lowIndex": 3776.66,
      "fiftyTwoWeekHigh": 5362.34,
      "fiftyTwoWeekLow": 3538.87,
      "turnoverValue": 15275934.1,
      "turnoverVolume": 2943,
      "totalTransaction": 133,
      "absChange": -19.78,
      "percentageChange": -0.51
    },
    {
      "id": 68304,
      "businessDate": "2025-11-27",
      "exchangeIndexId": 61,
      "closingIndex": 3828.81,
      "openIndex": 3834.46,
      "highIndex": 3878.03,
      "lowIndex": 3798.65,
      "fiftyTwoWeekHigh": 5362.34,
      "fiftyTwoWeekLow": 3538.87,
      "turnoverValue": 4390444.0,
      "turnoverVolume": 837,
      "totalTransaction": 40,
      "absChange": -5.64,
      "percentageChange": -0.14
    },
    {
      "id": 68287,
      "businessDate": "2025-11-26",
      "exchangeIndexId": 61,
      "closingIndex": 3834.46,
      "openIndex": 3808.5,
      "highIndex": 3869.53,
      "lowIndex": 3801.88,
      "fiftyTwoWeekHigh": 5362.34,
      "fiftyTwoWeekLow": 3538.87,
      "turnoverValue": 11123908.4,
      "turnoverVolume": 2084,
      "totalTransaction": 69,
      "absChange": 25.95,
      "percentageChange": 0.68
    },
    {
      "id": 68270,
      "businessDate": "2025-11-25",
      "exchangeIndexId": 61,
      "closingIndex": 3808.5,
      "openIndex": 3859.95,
      "highIndex": 3883.67,
      "lowIndex": 3807.22,
      "fiftyTwoWeekHigh": 5362.34,
      "fiftyTwoWeekLow": 3497.1,
      "turnoverValue": 5638498.6,
      "turnoverVolume": 1072,
      "totalTransaction": 69,
      "absChange": -51.45,
      "percentageChange": -1.33
    },
    {
      "id": 68253,
      "businessDate": "2025-11-24",
      "exchangeIndexId": 61,
      "closingIndex": 3859.95,
      "openIndex": 3830.66,
      "highIndex": 3883.04,
      "lowIndex": 3788.88,
      "fiftyTwoWeekHigh": 5362.34,
      "fiftyTwoWeekLow": 3493.72,
      "turnoverValue": 23989428.4,
      "turnoverVolume": 4431,
      "totalTransaction": 114,
      "absChange": 29.29,
      "percentageChange": 0.76
    },
    {
      "id": 68236,
      "businessDate": "2025-11-23",
      "exchangeIndexId": 61,
      "closingIndex": 3830.66,
      "openIndex": 3821.1,
      "highIndex": 3872.53,
      "lowIndex": 3756.29,
      "fiftyTwoWeekHigh": 5362.34,
      "fiftyTwoWeekLow": 3493.72,
      "turnoverValue": 13801830.4,
      "turnoverVolume": 2596,
      "totalTransaction": 104,
      "absChange": 9.56,
      "percentageChange": 0.25
    },
    {
      "id": 68219,
      "businessDate": "2025-11-20",
      "exchangeIndexId": 61,
      "closingIndex": 3821.1,
      "openIndex": 3814.5,
      "highIndex": 3833.37,
      "lowIndex": 3751.23,
      "fiftyTwoWeekHigh": 5362.34,
      "fiftyTwoWeekLow": 3493.72,
      "turnoverValue": 13829035.0,
      "turnoverVolume": 2608,
      "totalTransaction": 136,
      "absChange": 6.59,
      "percentageChange": 0.17
    },
    {
      "id": 68202,
      "businessDate": "2025-11-19",
      "exchangeIndexId": 61,
      "closingIndex": 3814.5,
      "openIndex": 3870.76,
      "highIndex": 3875.95,
      "lowIndex": 3771.92,
      "fiftyTwoWeekHigh": 5362.34,
      "fiftyTwoWeekLow": 3493.72,
      "turnoverValue": 8054156.5,
      "turnoverVolume": 1545,
      "totalTransaction": 67,
      "absChange": 12.31,
      "percentageChange": 0.32
    },
    {
      "id": 68185,
      "businessDate": "2025-11-18",
      "exchangeIndexId": 61,
      "closingIndex": 3802.18,
      "openIndex": 3798.67,
      "highIndex": 3828.67,
      "lowIndex": 3779.67,
      "fiftyTwoWeekHigh": 5362.34,
      "fiftyTwoWeekLow": 3493.72,
      "turnoverValue": 8935663.0,
      "turnoverVolume": 1690,
      "totalTransaction": 63,
      "absChange": 3.51,
      "percentageChange": 0.09
    },
    {
      "id": 68168,
      "businessDate": "2025-11-17",
      "exchangeIndexId": 61,
      "closingIndex": 3798.67,
      "openIndex": 3794.95,
      "highIndex": 3826.84,
      "lowIndex": 3734.84,
      "fiftyTwoWeekHigh": 5362.34,
      "fiftyTwoWeekLow": 3493.72,
      "turnoverValue": 11533718.7,
      "turnoverVolume": 2234,
      "totalTransaction": 93,
      "absChange": 3.71,
      "percentageChange": 0.09
    },
    {
      "id": 68151,
      "businessDate": "2025-11-16",
      "exchangeIndexId": 61,
      "closingIndex": 3794.95,
      "openIndex": 3798.75,
      "highIndex": 3831.81,
      "lowIndex": 3731.09,
      "fiftyTwoWeekHigh": 5362.34,
      "fiftyTwoWeekLow": 3493.72,
      "turnoverValue": 9123291.0,
      "turnoverVolume": 1770,
      "totalTransaction": 63,
      "absChange": -3.8,
      "percentageChange": -0.1
    },
    {
      "id": 68134,
      "businessDate": "2025-11-13",
      "exchangeIndexId": 61,
      "closingIndex": 3798.75,
      "openIndex": 3768.81,
      "highIndex": 3825.24,
      "lowIndex": 3713.81,
      "fiftyTwoWeekHigh": 5362.34,
      "fiftyTwoWeekLow": 3493.72,
      "turnoverValue": 5108439.0,
      "turnoverVolume": 1010,
      "totalTransaction": 55,
      "absChange": 29.94,
      "percentageChange": 0.79
    },
    {
      "id": 68117,
      "businessDate": "2025-11-12",
      "exchangeIndexId": 61,
      "closingIndex": 3768.81,
      "openIndex": 3859.76,
      "highIndex": 3859.81,
      "lowIndex": 3714.09,
      "fiftyTwoWeekHigh": 5362.34,
      "fiftyTwoWeekLow": 3493.72,
      "turnoverValue": 6608581.2,
      "turnoverVolume": 1332,
      "totalTransaction": 72,
      "absChange": -90.94,
      "percentageChange": -2.35
    },
    {
      "id": 68100,
      "businessDate": "2025-11-11",
      "exchangeIndexId": 61,
      "closingIndex": 3859.76,
      "openIndex": 3833.1,
      "highIndex": 3865.24,
      "lowIndex": 3717.93,
      "fiftyTwoWeekHigh": 5362.34,
      "fiftyTwoWeekLow": 3493.72,
      "turnoverValue": 14239643.0,
      "turnoverVolume": 2827,
      "totalTransaction": 71,
      "absChange": 26.65,
      "percentageChange": 0.69
    },
    {
      "id": 68083,
      "businessDate": "2025-11-10",
      "exchangeIndexId": 61,
      "closingIndex": 3833.1,
      "openIndex": 3811.93,
      "highIndex": 3879.53,
      "lowIndex": 3719.74,
      "fiftyTwoWeekHigh": 5362.34,
      "fiftyTwoWeekLow": 3493.72,
      "turnoverValue": 7573778.0,
      "turnoverVolume": 1502,
      "totalTransaction": 74,
      "absChange": 21.17,
      "percentageChange": 0.55
    },
    {
      "id": 68066,
      "businessDate": "2025-11-09",
      "exchangeIndexId": 61,
      "closingIndex": 3811.93,
      "openIndex": 3833.88,
      "highIndex": 3901.9,
      "lowIndex": 3762.5,
      "fiftyTwoWeekHigh": 5362.34,
      "fiftyTwoWeekLow": 3493.72,
      "turnoverValue": 6348730.8,
      "turnoverVolume": 1255,
      "totalTransaction": 61,
      "absChange": -21.95,
      "percentageChange": -0.57
    },
    {
      "id": 68049,
      "businessDate": "2025-11-06",
      "exchangeIndexId": 61,
      "closingIndex": 3833.88,
      "openIndex": 3842.12,
      "highIndex": 4196.43,
      "lowIndex": 3833.88,
      "fiftyTwoWeekHigh": 5362.34,
      "fiftyTwoWeekLow": 3493.72,
      "turnoverValue": 8729383.0,
      "turnoverVolume": 1702,
      "totalTransaction": 79,
      "absChange": -8.23,
      "percentageChange": -0.21
    }
  ],
  "pageable": {
    "sort": {
      "sorted": false,
      "unsorted": true,
      "empty": true
    },
    "offset": 0,
    "pageNumber": 0,
    "pageSize": 20,
    "paged": true,
    "unpaged": false
  },
  "last": false,
  "totalPages": 12,
  "totalElements": 227,
  "size": 20,
  "number": 0,
  "sort": {
    "sorted": false,
    "unsorted": true,
    "empty": true
  },
  "first": true,
  "numberOfElements": 20,
  "empty": false
}