{
  "content": [
    {
      "id": 68364,
      "businessDate": "2025-12-03",
      "exchangeIndexId": 53,
      "closingIndex": 2358.72,
      "openIndex": 2380.91,
      "highIndex": 2401.94,
      "lowIndex": 2353.2,
      "fiftyTwoWeekHigh": 2774.99,
      "fiftyTwoWeekLow": 1897.38,
      "turnoverValue": 437981759.5,
      "turnoverVolume": 488288,
      "totalTransaction": 5246,
      "absChange": -12.65,
      "percentageChange": -0.53
    },
    {
      "id": 68347,
      "businessDate": "2025-12-02",
      "exchangeIndexId": 53,
      "closingIndex": 2371.38,
      "openIndex": 2351.72,
      "highIndex": 2393.26,
      "lowIndex": 2351.72,
      "fiftyTwoWeekHigh": 2774.99,
      "fiftyTwoWeekLow": 1897.38,
      "turnoverValue": 255670150.6,
      "turnoverVolume": 273142,
      "totalTransaction": 2734,
      "absChange": 0.07,
      "percentageChange": 0.0
    },
    {
      "id": 68330,
      "businessDate": "2025-12-01",
      "exchangeIndexId": 53,
      "closingIndex": 2371.3,
      "openIndex": 2375.97,
      "highIndex": 2391.0,
      "lowIndex": 2360.02,
      "fiftyTwoWeekHigh": 2774.99,
      "fiftyTwoWeekLow": 1897.38,
      "turnoverValue": 353382026.1,
      "turnoverVolume": 363588,
      "totalTransaction": 3198,
      "absChange": -4.35,
      "percentageChange": -0.18
    },
    {
      "id": 68313,
      "businessDate": "2025-11-30",
      "exchangeIndexId": 53,
      "closingIndex": 2375.66,
      "openIndex": 2391.13,
      "highIndex": 2423.26,
      "lowIndex": 2361.88,
      "fiftyTwoWeekHigh": 2774.99,
      "fiftyTwoWeekLow": 1897.38,
      "turnoverValue": 443532756.5,
      "turnoverVolume": 499482,
      "totalTransaction": 5195,
      "absChange": -25.03,
      "percentageChange": -1.04
    },
    {
      "id": 68296,
      "businessDate": "2025-11-27",
      "exchangeIndexId": 53,
      "closingIndex": 2400.69,
      "openIndex": 2430.68,
      "highIndex": 2430.68,
      "lowIndex": 2390.45,
      "fiftyTwoWeekHigh": 2774.99,
      "fiftyTwoWeekLow": 1897.38,
      "turnoverValue": 373118460.0,
      "turnoverVolume": 393853,
      "totalTransaction": 4091,
      "absChange": -1.3,
      "percentageChange": -0.05
    },
    {
      "id": 68279,
      "businessDate": "2025-11-26",
      "exchangeIndexId": 53,
      "closingIndex": 2402.0,
      "openIndex": 2400.83,
      "highIndex": 2410.06,
      "lowIndex": 2375.76,
      "fiftyTwoWeekHigh": 2774.99,
      "fiftyTwoWeekLow": 1897.38,
      "turnoverValue": 382313085.1,
      "turnoverVolume": 391037,
      "totalTransaction": 3612,
      "absChange": 10.96,
      "percentageChange": 0.45
    },
    {
      "id": 68262,
      "businessDate": "2025-11-25",
      "exchangeIndexId": 53,
      "closingIndex": 2391.03,
      "openIndex": 2389.62,
      "highIndex": 2400.87,
      "lowIndex": 2367.06,
      "fiftyTwoWeekHigh": 2774.99,
      "fiftyTwoWeekLow": 1897.38,
      "turnoverValue": 459344878.3,
      "turnoverVolume": 484808,
      "totalTransaction": 4305,
      "absChange": 11.87,
      "percentageChange": 0.49
    },
    {
      "id": 68245,
      "businessDate": "2025-11-24",
      "exchangeIndexId": 53,
      "closingIndex": 2379.15,
      "openIndex": 2349.28,
      "highIndex": 2380.87,
      "lowIndex": 2343.1,
      "fiftyTwoWeekHigh": 2774.99,
      "fiftyTwoWeekLow": 1897.38,
      "turnoverValue": 519200042.5,
      "turnoverVolume": 530785,
      "totalTransaction": 4196,
      "absChange": 38.71,
      "percentageChange": 1.65
    },
    {
      "id": 68228,
      "businessDate": "2025-11-23",
      "exchangeIndexId": 53,
      "closingIndex": 2340.44,
      "openIndex": 2312.42,
      "highIndex": 2365.61,
      "lowIndex": 2312.25,
      "fiftyTwoWeekHigh": 2774.99,
      "fiftyTwoWeekLow": 1897.38,
      "turnoverValue": 396352919.0,
      "turnoverVolume": 415060,
      "totalTransaction": 4040,
      "absChange": 27.46,
      "percentageChange": 1.18
    },
    {
      "id": 68211,
      "businessDate": "2025-11-20",
      "exchangeIndexId": 53,
      "closingIndex": 2312.97,
      "openIndex": 2306.05,
      "highIndex": 2322.33,
      "lowIndex": 2295.73,
      "fiftyTwoWeekHigh": 2774.99,
      "fiftyTwoWeekLow": 1897.38,
      "turnoverValue": 263705955.9,
      "turnoverVolume": 279285,
      "totalTransaction": 3470,
      "absChange": 6.92,
      "percentageChange": 0.3
    },
    {
      "id": 68194,
      "businessDate": "2025-11-19",
      "exchangeIndexId": 53,
      "closingIndex": 2306.05,
      "openIndex": 2323.52,
      "highIndex": 2330.02,
      "lowIndex": 2294.96,
      "fiftyTwoWeekHigh": 2774.99,
      "fiftyTwoWeekLow": 1897.38,
      "turnoverValue": 231779850.3,
      "turnoverVolume": 258389,
      "totalTransaction": 3308,
      "absChange": -7.63,
      "percentageChange": -0.32
    },
    {
      "id": 68177,
      "businessDate": "2025-11-18",
      "exchangeIndexId": 53,
      "closingIndex": 2313.68,
      "openIndex": 2283.69,
      "highIndex": 2345.68,
      "lowIndex": 2283.69,
      "fiftyTwoWeekHigh": 2774.99,
      "fiftyTwoWeekLow": 1897.38,
      "turnoverValue": 180036069.7,
      "turnoverVolume": 191950,
      "totalTransaction": 2320,
      "absChange": 12.33,
      "percentageChange": 0.53
    },
    {
      "id": 68160,
      "businessDate": "2025-11-17",
      "exchangeIndexId": 53,
      "closingIndex": 2301.34,
      "openIndex": 2334.93,
      "highIndex": 2334.97,
      "lowIndex": 2295.92,
      "fiftyTwoWeekHigh": 2774.99,
      "fiftyTwoWeekLow": 1897.38,
      "turnoverValue": 145287409.9,
      "turnoverVolume": 152156,
      "totalTransaction": 1849,
      "absChange": -11.54,
      "percentageChange": -0.49
    },
    {
      "id": 68143,
      "businessDate": "2025-11-16",
      "exchangeIndexId": 53,
      "closingIndex": 2312.88,
      "openIndex": 2314.81,
      "highIndex": 2342.97,
      "lowIndex": 2277.77,
      "fiftyTwoWeekHigh": 2774.99,
      "fiftyTwoWeekLow": 1897.38,
      "turnoverValue": 297717040.6,
      "turnoverVolume": 269105,
      "totalTransaction": 2427,
      "absChange": 16.73,
      "percentageChange": 0.72
    },
    {
      "id": 68126,
      "businessDate": "2025-11-13",
      "exchangeIndexId": 53,
      "closingIndex": 2296.15,
      "openIndex": 2293.06,
      "highIndex": 2328.39,
      "lowIndex": 2289.34,
      "fiftyTwoWeekHigh": 2774.99,
      "fiftyTwoWeekLow": 1897.38,
      "turnoverValue": 164327913.4,
      "turnoverVolume": 170126,
      "totalTransaction": 2051,
      "absChange": -5.72,
      "percentageChange": -0.24
    },
    {
      "id": 68109,
      "businessDate": "2025-11-12",
      "exchangeIndexId": 53,
      "closingIndex": 2301.88,
      "openIndex": 2324.72,
      "highIndex": 2355.36,
      "lowIndex": 2298.36,
      "fiftyTwoWeekHigh": 2774.99,
      "fiftyTwoWeekLow": 1897.38,
      "turnoverValue": 151304912.0,
      "turnoverVolume": 162725,
      "totalTransaction": 2001,
      "absChange": -31.18,
      "percentageChange": -1.33
    },
    {
      "id": 68092,
      "businessDate": "2025-11-11",
      "exchangeIndexId": 53,
      "closingIndex": 2333.07,
      "openIndex": 2373.94,
      "highIndex": 2380.48,
      "lowIndex": 2329.83,
      "fiftyTwoWeekHigh": 2774.99,
      "fiftyTwoWeekLow": 1897.38,
      "turnoverValue": 124021959.6,
      "turnoverVolume": 148767,
      "totalTransaction": 1948,
      "absChange": -15.94,
      "percentageChange": -0.67
    },
    {
      "id": 68075,
      "businessDate": "2025-11-10",
      "exchangeIndexId": 53,
      "closingIndex": 2349.01,
      "openIndex": 2383.68,
      "highIndex": 2383.68,
      "lowIndex": 2328.56,
      "fiftyTwoWeekHigh": 2774.99,
      "fiftyTwoWeekLow": 1897.38,
      "turnoverValue": 246828000.5,
      "turnoverVolume": 246031,
      "totalTransaction": 2404,
      "absChange": -7.01,
      "percentageChange": -0.29
    },
    {
      "id": 68058,
      "businessDate": "2025-11-09",
      "exchangeIndexId": 53,
      "closingIndex": 2356.03,
      "openIndex": 2368.15,
      "highIndex": 2368.24,
      "lowIndex": 2313.44,
      "fiftyTwoWeekHigh": 2774.99,
      "fiftyTwoWeekLow": 1897.38,
      "turnoverValue": 371308126.3,
      "turnoverVolume": 347353,
      "totalTransaction": 2942,
      "absChange": -3.03,
      "percentageChange": -0.12
    },
    {
      "id": 68041,
      "businessDate": "2025-11-06",
      "exchangeIndexId": 53,
      "closingIndex": 2359.07,
      "openIndex": 2369.9,
      "highIndex": 2387.54,
      "lowIndex": 2342.24,
      "fiftyTwoWeekHigh": 2774.99,
      "fiftyTwoWeekLow": 1897.38,
      "turnoverValue": 226906121.8,
      "turnoverVolume": 263832,
      "totalTransaction": 2406,
      "absChange": -14.73,
      "percentageChange": -0.62
    }
  ],
  "pageable": {
    "sort": {
      "unsorted": true,
      "sorted": false,
      "empty": true
    },
    "offset": 0,
    "pageNumber": 0,
    "pageSize": 20,
    "paged": true,
    "unpaged": false
  },
  "last": false,
  "totalPages": 12,
  "totalElements": 227,
  "size": 20,
  "number": 0,
  "sort": {
    "unsorted": true,
    "sorted": false,
    "empty": true
  },
  "first": true,
  "numberOfElements": 20,
  "empty": false
}