{
  "content": [
    {
      "id": 68374,
      "businessDate": "2025-12-03",
      "exchangeIndexId": 63,
      "closingIndex": 153.19,
      "openIndex": 154.31,
      "highIndex": 154.87,
      "lowIndex": 152.82,
      "fiftyTwoWeekHigh": 177.3,
      "fiftyTwoWeekLow": 145.59,
      "turnoverValue": 1645784094.1,
      "turnoverVolume": 3626293,
      "totalTransaction": 16107,
      "absChange": -1.04,
      "percentageChange": -0.68
    },
    {
      "id": 68357,
      "businessDate": "2025-12-02",
      "exchangeIndexId": 63,
      "closingIndex": 154.24,
      "openIndex": 154.39,
      "highIndex": 154.91,
      "lowIndex": 153.9,
      "fiftyTwoWeekHigh": 177.3,
      "fiftyTwoWeekLow": 145.59,
      "turnoverValue": 1293772434.51,
      "turnoverVolume": 3015165,
      "totalTransaction": 13870,
      "absChange": -0.38,
      "percentageChange": -0.24
    },
    {
      "id": 68340,
      "businessDate": "2025-12-01",
      "exchangeIndexId": 63,
      "closingIndex": 154.62,
      "openIndex": 155.5,
      "highIndex": 155.68,
      "lowIndex": 154.01,
      "fiftyTwoWeekHigh": 177.3,
      "fiftyTwoWeekLow": 145.59,
      "turnoverValue": 1584550869.9,
      "turnoverVolume": 3627476,
      "totalTransaction": 16125,
      "absChange": -0.76,
      "percentageChange": -0.49
    },
    {
      "id": 68323,
      "businessDate": "2025-11-30",
      "exchangeIndexId": 63,
      "closingIndex": 155.39,
      "openIndex": 157.03,
      "highIndex": 157.85,
      "lowIndex": 154.98,
      "fiftyTwoWeekHigh": 177.3,
      "fiftyTwoWeekLow": 145.59,
      "turnoverValue": 2693484421.2,
      "turnoverVolume": 5788484,
      "totalTransaction": 23888,
      "absChange": -1.66,
      "percentageChange": -1.05
    },
    {
      "id": 68306,
      "businessDate": "2025-11-27",
      "exchangeIndexId": 63,
      "closingIndex": 157.06,
      "openIndex": 156.09,
      "highIndex": 157.21,
      "lowIndex": 155.62,
      "fiftyTwoWeekHigh": 177.3,
      "fiftyTwoWeekLow": 145.59,
      "turnoverValue": 2789469162.3,
      "turnoverVolume": 6001034,
      "totalTransaction": 24632,
      "absChange": 1.21,
      "percentageChange": 0.77
    },
    {
      "id": 68289,
      "businessDate": "2025-11-26",
      "exchangeIndexId": 63,
      "closingIndex": 155.84,
      "openIndex": 155.64,
      "highIndex": 156.17,
      "lowIndex": 154.63,
      "fiftyTwoWeekHigh": 177.3,
      "fiftyTwoWeekLow": 145.59,
      "turnoverValue": 3159840300.2,
      "turnoverVolume": 5517383,
      "totalTransaction": 24859,
      "absChange": 0.49,
      "percentageChange": 0.31
    },
    {
      "id": 68272,
      "businessDate": "2025-11-25",
      "exchangeIndexId": 63,
      "closingIndex": 155.35,
      "openIndex": 155.1,
      "highIndex": 155.35,
      "lowIndex": 153.7,
      "fiftyTwoWeekHigh": 177.3,
      "fiftyTwoWeekLow": 145.59,
      "turnoverValue": 2298950541.3,
      "turnoverVolume": 4931767,
      "totalTransaction": 21762,
      "absChange": 0.5,
      "percentageChange": 0.32
    },
    {
      "id": 68255,
      "businessDate": "2025-11-24",
      "exchangeIndexId": 63,
      "closingIndex": 154.85,
      "openIndex": 152.18,
      "highIndex": 154.85,
      "lowIndex": 152.12,
      "fiftyTwoWeekHigh": 177.3,
      "fiftyTwoWeekLow": 145.59,
      "turnoverValue": 2551209928.1,
      "turnoverVolume": 5343653,
      "totalTransaction": 23610,
      "absChange": 2.81,
      "percentageChange": 1.85
    },
    {
      "id": 68238,
      "businessDate": "2025-11-23",
      "exchangeIndexId": 63,
      "closingIndex": 152.03,
      "openIndex": 149.63,
      "highIndex": 152.03,
      "lowIndex": 149.57,
      "fiftyTwoWeekHigh": 177.3,
      "fiftyTwoWeekLow": 145.59,
      "turnoverValue": 2569685546.4,
      "turnoverVolume": 4635001,
      "totalTransaction": 20083,
      "absChange": 2.66,
      "percentageChange": 1.78
    },
    {
      "id": 68221,
      "businessDate": "2025-11-20",
      "exchangeIndexId": 63,
      "closingIndex": 149.37,
      "openIndex": 149.92,
      "highIndex": 149.95,
      "lowIndex": 148.93,
      "fiftyTwoWeekHigh": 177.3,
      "fiftyTwoWeekLow": 145.59,
      "turnoverValue": 1411726971.1,
      "turnoverVolume": 3276481,
      "totalTransaction": 15229,
      "absChange": -0.54,
      "percentageChange": -0.36
    },
    {
      "id": 68204,
      "businessDate": "2025-11-19",
      "exchangeIndexId": 63,
      "closingIndex": 149.91,
      "openIndex": 150.5,
      "highIndex": 151.17,
      "lowIndex": 149.24,
      "fiftyTwoWeekHigh": 177.3,
      "fiftyTwoWeekLow": 145.59,
      "turnoverValue": 1556490504.1,
      "turnoverVolume": 3441719,
      "totalTransaction": 14765,
      "absChange": -0.45,
      "percentageChange": -0.3
    },
    {
      "id": 68187,
      "businessDate": "2025-11-18",
      "exchangeIndexId": 63,
      "closingIndex": 150.37,
      "openIndex": 149.45,
      "highIndex": 151.05,
      "lowIndex": 149.29,
      "fiftyTwoWeekHigh": 177.3,
      "fiftyTwoWeekLow": 145.59,
      "turnoverValue": 1687626463.5,
      "turnoverVolume": 3803574,
      "totalTransaction": 16901,
      "absChange": 0.96,
      "percentageChange": 0.64
    },
    {
      "id": 68170,
      "businessDate": "2025-11-17",
      "exchangeIndexId": 63,
      "closingIndex": 149.4,
      "openIndex": 149.08,
      "highIndex": 149.86,
      "lowIndex": 148.49,
      "fiftyTwoWeekHigh": 177.3,
      "fiftyTwoWeekLow": 145.59,
      "turnoverValue": 1601144065.5,
      "turnoverVolume": 3444124,
      "totalTransaction": 16376,
      "absChange": 0.47,
      "percentageChange": 0.32
    },
    {
      "id": 68153,
      "businessDate": "2025-11-16",
      "exchangeIndexId": 63,
      "closingIndex": 148.93,
      "openIndex": 149.7,
      "highIndex": 149.7,
      "lowIndex": 148.36,
      "fiftyTwoWeekHigh": 177.3,
      "fiftyTwoWeekLow": 145.59,
      "turnoverValue": 1326798671.2,
      "turnoverVolume": 2814925,
      "totalTransaction": 14890,
      "absChange": -0.56,
      "percentageChange": -0.37
    },
    {
      "id": 68136,
      "businessDate": "2025-11-13",
      "exchangeIndexId": 63,
      "closingIndex": 149.49,
      "openIndex": 149.33,
      "highIndex": 150.21,
      "lowIndex": 148.63,
      "fiftyTwoWeekHigh": 177.3,
      "fiftyTwoWeekLow": 145.59,
      "turnoverValue": 1366968042.6,
      "turnoverVolume": 2813097,
      "totalTransaction": 15410,
      "absChange": -0.06,
      "percentageChange": -0.04
    },
    {
      "id": 68119,
      "businessDate": "2025-11-12",
      "exchangeIndexId": 63,
      "closingIndex": 149.55,
      "openIndex": 150.88,
      "highIndex": 151.03,
      "lowIndex": 149.3,
      "fiftyTwoWeekHigh": 177.3,
      "fiftyTwoWeekLow": 145.59,
      "turnoverValue": 1661426344.3,
      "turnoverVolume": 2899286,
      "totalTransaction": 16026,
      "absChange": -1.09,
      "percentageChange": -0.72
    },
    {
      "id": 68102,
      "businessDate": "2025-11-11",
      "exchangeIndexId": 63,
      "closingIndex": 150.64,
      "openIndex": 150.88,
      "highIndex": 151.43,
      "lowIndex": 149.86,
      "fiftyTwoWeekHigh": 177.3,
      "fiftyTwoWeekLow": 145.59,
      "turnoverValue": 1680077460.0,
      "turnoverVolume": 3226730,
      "totalTransaction": 14701,
      "absChange": -0.16,
      "percentageChange": -0.11
    },
    {
      "id": 68085,
      "businessDate": "2025-11-10",
      "exchangeIndexId": 63,
      "closingIndex": 150.81,
      "openIndex": 151.45,
      "highIndex": 151.85,
      "lowIndex": 150.12,
      "fiftyTwoWeekHigh": 177.3,
      "fiftyTwoWeekLow": 145.59,
      "turnoverValue": 1962772770.3,
      "turnoverVolume": 3435726,
      "totalTransaction": 15569,
      "absChange": -0.34,
      "percentageChange": -0.23
    },
    {
      "id": 68068,
      "businessDate": "2025-11-09",
      "exchangeIndexId": 63,
      "closingIndex": 151.16,
      "openIndex": 153.55,
      "highIndex": 153.56,
      "lowIndex": 151.03,
      "fiftyTwoWeekHigh": 177.3,
      "fiftyTwoWeekLow": 145.59,
      "turnoverValue": 1994598097.0,
      "turnoverVolume": 3946089,
      "totalTransaction": 18186,
      "absChange": -2.21,
      "percentageChange": -1.44
    },
    {
      "id": 68051,
      "businessDate": "2025-11-06",
      "exchangeIndexId": 63,
      "closingIndex": 153.37,
      "openIndex": 154.42,
      "highIndex": 154.87,
      "lowIndex": 152.98,
      "fiftyTwoWeekHigh": 177.3,
      "fiftyTwoWeekLow": 145.59,
      "turnoverValue": 2746217095.1,
      "turnoverVolume": 4774581,
      "totalTransaction": 21451,
      "absChange": -0.76,
      "percentageChange": -0.49
    }
  ],
  "pageable": {
    "sort": {
      "sorted": false,
      "unsorted": true,
      "empty": true
    },
    "offset": 0,
    "pageNumber": 0,
    "pageSize": 20,
    "paged": true,
    "unpaged": false
  },
  "last": false,
  "totalPages": 12,
  "totalElements": 227,
  "size": 20,
  "number": 0,
  "sort": {
    "sorted": false,
    "unsorted": true,
    "empty": true
  },
  "first": true,
  "numberOfElements": 20,
  "empty": false
}