{
  "content": [
    {
      "id": 68359,
      "businessDate": "2025-12-03",
      "exchangeIndexId": 65,
      "closingIndex": 13164.05,
      "openIndex": 13299.38,
      "highIndex": 13387.6,
      "lowIndex": 13140.99,
      "fiftyTwoWeekHigh": 14671.87,
      "fiftyTwoWeekLow": 11763.82,
      "turnoverValue": 296619557.3,
      "turnoverVolume": 523578,
      "totalTransaction": 4192,
      "absChange": -157.96,
      "percentageChange": -1.18
    },
    {
      "id": 68342,
      "businessDate": "2025-12-02",
      "exchangeIndexId": 65,
      "closingIndex": 13322.01,
      "openIndex": 13383.02,
      "highIndex": 13469.04,
      "lowIndex": 13277.31,
      "fiftyTwoWeekHigh": 14671.87,
      "fiftyTwoWeekLow": 11763.82,
      "turnoverValue": 239056466.2,
      "turnoverVolume": 427058,
      "totalTransaction": 3168,
      "absChange": -76.69,
      "percentageChange": -0.57
    },
    {
      "id": 68325,
      "businessDate": "2025-12-01",
      "exchangeIndexId": 65,
      "closingIndex": 13398.71,
      "openIndex": 13437.87,
      "highIndex": 13523.17,
      "lowIndex": 13337.72,
      "fiftyTwoWeekHigh": 14671.87,
      "fiftyTwoWeekLow": 11763.82,
      "turnoverValue": 379103031.3,
      "turnoverVolume": 688250,
      "totalTransaction": 4546,
      "absChange": -69.96,
      "percentageChange": -0.51
    },
    {
      "id": 68308,
      "businessDate": "2025-11-30",
      "exchangeIndexId": 65,
      "closingIndex": 13468.67,
      "openIndex": 13641.5,
      "highIndex": 13818.69,
      "lowIndex": 13434.09,
      "fiftyTwoWeekHigh": 14671.87,
      "fiftyTwoWeekLow": 11763.82,
      "turnoverValue": 794958512.2,
      "turnoverVolume": 1380569,
      "totalTransaction": 7387,
      "absChange": -164.73,
      "percentageChange": -1.2
    },
    {
      "id": 68291,
      "businessDate": "2025-11-27",
      "exchangeIndexId": 65,
      "closingIndex": 13633.41,
      "openIndex": 13630.83,
      "highIndex": 13680.0,
      "lowIndex": 13529.46,
      "fiftyTwoWeekHigh": 14671.87,
      "fiftyTwoWeekLow": 11763.82,
      "turnoverValue": 649388933.9,
      "turnoverVolume": 1173664,
      "totalTransaction": 6468,
      "absChange": 19.71,
      "percentageChange": 0.14
    },
    {
      "id": 68274,
      "businessDate": "2025-11-26",
      "exchangeIndexId": 65,
      "closingIndex": 13613.7,
      "openIndex": 13747.93,
      "highIndex": 13748.74,
      "lowIndex": 13505.59,
      "fiftyTwoWeekHigh": 14671.87,
      "fiftyTwoWeekLow": 11763.82,
      "turnoverValue": 574039488.8,
      "turnoverVolume": 1039320,
      "totalTransaction": 5821,
      "absChange": -44.88,
      "percentageChange": -0.32
    },
    {
      "id": 68257,
      "businessDate": "2025-11-25",
      "exchangeIndexId": 65,
      "closingIndex": 13658.59,
      "openIndex": 13760.68,
      "highIndex": 13783.63,
      "lowIndex": 13489.85,
      "fiftyTwoWeekHigh": 14671.87,
      "fiftyTwoWeekLow": 11763.82,
      "turnoverValue": 633599987.1,
      "turnoverVolume": 1118416,
      "totalTransaction": 7663,
      "absChange": -41.33,
      "percentageChange": -0.3
    },
    {
      "id": 68240,
      "businessDate": "2025-11-24",
      "exchangeIndexId": 65,
      "closingIndex": 13699.92,
      "openIndex": 13091.51,
      "highIndex": 13732.22,
      "lowIndex": 13071.91,
      "fiftyTwoWeekHigh": 14671.87,
      "fiftyTwoWeekLow": 11763.82,
      "turnoverValue": 1338242672.4,
      "turnoverVolume": 2147409,
      "totalTransaction": 11879,
      "absChange": 644.99,
      "percentageChange": 4.94
    },
    {
      "id": 68223,
      "businessDate": "2025-11-23",
      "exchangeIndexId": 65,
      "closingIndex": 13054.93,
      "openIndex": 12720.47,
      "highIndex": 13060.39,
      "lowIndex": 12716.29,
      "fiftyTwoWeekHigh": 14671.87,
      "fiftyTwoWeekLow": 11763.82,
      "turnoverValue": 413142855.0,
      "turnoverVolume": 697547,
      "totalTransaction": 5254,
      "absChange": 325.54,
      "percentageChange": 2.55
    },
    {
      "id": 68206,
      "businessDate": "2025-11-20",
      "exchangeIndexId": 65,
      "closingIndex": 12729.38,
      "openIndex": 12738.73,
      "highIndex": 12763.24,
      "lowIndex": 12664.27,
      "fiftyTwoWeekHigh": 14671.87,
      "fiftyTwoWeekLow": 11763.82,
      "turnoverValue": 142108219.64,
      "turnoverVolume": 249065,
      "totalTransaction": 2832,
      "absChange": -18.26,
      "percentageChange": -0.14
    },
    {
      "id": 68189,
      "businessDate": "2025-11-19",
      "exchangeIndexId": 65,
      "closingIndex": 12747.65,
      "openIndex": 12813.83,
      "highIndex": 12861.49,
      "lowIndex": 12695.48,
      "fiftyTwoWeekHigh": 14671.87,
      "fiftyTwoWeekLow": 11763.82,
      "turnoverValue": 167124887.5,
      "turnoverVolume": 306114,
      "totalTransaction": 2495,
      "absChange": -68.88,
      "percentageChange": -0.53
    },
    {
      "id": 68172,
      "businessDate": "2025-11-18",
      "exchangeIndexId": 65,
      "closingIndex": 12816.54,
      "openIndex": 12757.41,
      "highIndex": 12929.65,
      "lowIndex": 12749.42,
      "fiftyTwoWeekHigh": 14671.87,
      "fiftyTwoWeekLow": 11763.82,
      "turnoverValue": 211354393.4,
      "turnoverVolume": 394705,
      "totalTransaction": 3186,
      "absChange": 59.13,
      "percentageChange": 0.46
    },
    {
      "id": 68155,
      "businessDate": "2025-11-17",
      "exchangeIndexId": 65,
      "closingIndex": 12757.41,
      "openIndex": 12676.27,
      "highIndex": 12760.99,
      "lowIndex": 12629.21,
      "fiftyTwoWeekHigh": 14671.87,
      "fiftyTwoWeekLow": 11763.82,
      "turnoverValue": 176383178.1,
      "turnoverVolume": 327830,
      "totalTransaction": 3263,
      "absChange": 81.64,
      "percentageChange": 0.64
    },
    {
      "id": 68138,
      "businessDate": "2025-11-16",
      "exchangeIndexId": 65,
      "closingIndex": 12675.76,
      "openIndex": 12689.39,
      "highIndex": 12723.7,
      "lowIndex": 12613.18,
      "fiftyTwoWeekHigh": 14671.87,
      "fiftyTwoWeekLow": 11763.82,
      "turnoverValue": 146978702.1,
      "turnoverVolume": 275622,
      "totalTransaction": 2645,
      "absChange": -13.63,
      "percentageChange": -0.1
    },
    {
      "id": 68121,
      "businessDate": "2025-11-13",
      "exchangeIndexId": 65,
      "closingIndex": 12689.39,
      "openIndex": 12682.46,
      "highIndex": 12787.06,
      "lowIndex": 12600.09,
      "fiftyTwoWeekHigh": 14671.87,
      "fiftyTwoWeekLow": 11763.82,
      "turnoverValue": 166295380.7,
      "turnoverVolume": 277687,
      "totalTransaction": 2940,
      "absChange": -24.87,
      "percentageChange": -0.19
    },
    {
      "id": 68104,
      "businessDate": "2025-11-12",
      "exchangeIndexId": 65,
      "closingIndex": 12714.27,
      "openIndex": 12836.81,
      "highIndex": 12886.89,
      "lowIndex": 12657.2,
      "fiftyTwoWeekHigh": 14671.87,
      "fiftyTwoWeekLow": 11763.82,
      "turnoverValue": 194329240.6,
      "turnoverVolume": 320968,
      "totalTransaction": 3038,
      "absChange": -128.41,
      "percentageChange": -0.99
    },
    {
      "id": 68087,
      "businessDate": "2025-11-11",
      "exchangeIndexId": 65,
      "closingIndex": 12842.68,
      "openIndex": 12763.03,
      "highIndex": 12870.05,
      "lowIndex": 12681.37,
      "fiftyTwoWeekHigh": 14671.87,
      "fiftyTwoWeekLow": 11763.82,
      "turnoverValue": 126542091.2,
      "turnoverVolume": 228670,
      "totalTransaction": 2773,
      "absChange": 74.02,
      "percentageChange": 0.57
    },
    {
      "id": 68070,
      "businessDate": "2025-11-10",
      "exchangeIndexId": 65,
      "closingIndex": 12768.65,
      "openIndex": 12814.64,
      "highIndex": 12877.3,
      "lowIndex": 12684.18,
      "fiftyTwoWeekHigh": 14671.87,
      "fiftyTwoWeekLow": 11763.82,
      "turnoverValue": 198844028.1,
      "turnoverVolume": 349324,
      "totalTransaction": 2749,
      "absChange": -33.72,
      "percentageChange": -0.26
    },
    {
      "id": 68053,
      "businessDate": "2025-11-09",
      "exchangeIndexId": 65,
      "closingIndex": 12802.38,
      "openIndex": 12992.73,
      "highIndex": 12992.73,
      "lowIndex": 12764.9,
      "fiftyTwoWeekHigh": 14671.87,
      "fiftyTwoWeekLow": 11763.82,
      "turnoverValue": 332905474.2,
      "turnoverVolume": 407282,
      "totalTransaction": 3116,
      "absChange": -174.95,
      "percentageChange": -1.34
    },
    {
      "id": 68036,
      "businessDate": "2025-11-06",
      "exchangeIndexId": 65,
      "closingIndex": 12977.33,
      "openIndex": 13069.63,
      "highIndex": 13112.27,
      "lowIndex": 12927.71,
      "fiftyTwoWeekHigh": 14671.87,
      "fiftyTwoWeekLow": 11763.82,
      "turnoverValue": 263539642.9,
      "turnoverVolume": 432690,
      "totalTransaction": 3482,
      "absChange": -75.26,
      "percentageChange": -0.57
    }
  ],
  "pageable": {
    "sort": {
      "sorted": false,
      "unsorted": true,
      "empty": true
    },
    "offset": 0,
    "pageNumber": 0,
    "pageSize": 20,
    "paged": true,
    "unpaged": false
  },
  "last": false,
  "totalPages": 12,
  "totalElements": 227,
  "size": 20,
  "number": 0,
  "sort": {
    "sorted": false,
    "unsorted": true,
    "empty": true
  },
  "first": true,
  "numberOfElements": 20,
  "empty": false
}