{
  "content": [
    {
      "id": 68371,
      "businessDate": "2025-12-03",
      "exchangeIndexId": 60,
      "closingIndex": 2345.95,
      "openIndex": 2309.09,
      "highIndex": 2375.8,
      "lowIndex": 2309.09,
      "fiftyTwoWeekHigh": 3509.03,
      "fiftyTwoWeekLow": 2157.02,
      "turnoverValue": 396992687.4,
      "turnoverVolume": 747641,
      "totalTransaction": 3617,
      "absChange": 36.86,
      "percentageChange": 1.59
    },
    {
      "id": 68354,
      "businessDate": "2025-12-02",
      "exchangeIndexId": 60,
      "closingIndex": 2309.09,
      "openIndex": 2302.65,
      "highIndex": 2323.91,
      "lowIndex": 2299.84,
      "fiftyTwoWeekHigh": 3509.03,
      "fiftyTwoWeekLow": 2157.02,
      "turnoverValue": 119009703.91,
      "turnoverVolume": 235767,
      "totalTransaction": 1324,
      "absChange": 6.44,
      "percentageChange": 0.27
    },
    {
      "id": 68337,
      "businessDate": "2025-12-01",
      "exchangeIndexId": 60,
      "closingIndex": 2302.65,
      "openIndex": 2281.71,
      "highIndex": 2322.05,
      "lowIndex": 2280.67,
      "fiftyTwoWeekHigh": 3530.39,
      "fiftyTwoWeekLow": 2157.02,
      "turnoverValue": 136913565.9,
      "turnoverVolume": 274467,
      "totalTransaction": 1669,
      "absChange": 20.93,
      "percentageChange": 0.91
    },
    {
      "id": 68320,
      "businessDate": "2025-11-30",
      "exchangeIndexId": 60,
      "closingIndex": 2281.71,
      "openIndex": 2303.68,
      "highIndex": 2321.17,
      "lowIndex": 2275.83,
      "fiftyTwoWeekHigh": 3638.25,
      "fiftyTwoWeekLow": 2157.02,
      "turnoverValue": 168237898.7,
      "turnoverVolume": 340185,
      "totalTransaction": 1747,
      "absChange": -19.28,
      "percentageChange": -0.83
    },
    {
      "id": 68303,
      "businessDate": "2025-11-27",
      "exchangeIndexId": 60,
      "closingIndex": 2300.99,
      "openIndex": 2310.12,
      "highIndex": 2317.2,
      "lowIndex": 2292.19,
      "fiftyTwoWeekHigh": 3674.25,
      "fiftyTwoWeekLow": 2157.02,
      "turnoverValue": 82258818.8,
      "turnoverVolume": 163183,
      "totalTransaction": 1268,
      "absChange": -8.87,
      "percentageChange": -0.38
    },
    {
      "id": 68286,
      "businessDate": "2025-11-26",
      "exchangeIndexId": 60,
      "closingIndex": 2309.86,
      "openIndex": 2316.33,
      "highIndex": 2320.34,
      "lowIndex": 2293.59,
      "fiftyTwoWeekHigh": 3691.9,
      "fiftyTwoWeekLow": 2157.02,
      "turnoverValue": 76051482.4,
      "turnoverVolume": 151166,
      "totalTransaction": 1019,
      "absChange": -3.85,
      "percentageChange": -0.16
    },
    {
      "id": 68269,
      "businessDate": "2025-11-25",
      "exchangeIndexId": 60,
      "closingIndex": 2313.72,
      "openIndex": 2312.53,
      "highIndex": 2331.99,
      "lowIndex": 2297.21,
      "fiftyTwoWeekHigh": 3691.9,
      "fiftyTwoWeekLow": 2157.02,
      "turnoverValue": 90055367.0,
      "turnoverVolume": 177816,
      "totalTransaction": 1202,
      "absChange": 0.49,
      "percentageChange": 0.02
    },
    {
      "id": 68252,
      "businessDate": "2025-11-24",
      "exchangeIndexId": 60,
      "closingIndex": 2313.22,
      "openIndex": 2283.16,
      "highIndex": 2313.88,
      "lowIndex": 2283.16,
      "fiftyTwoWeekHigh": 3691.9,
      "fiftyTwoWeekLow": 2157.02,
      "turnoverValue": 100476768.1,
      "turnoverVolume": 198364,
      "totalTransaction": 1398,
      "absChange": 32.53,
      "percentageChange": 1.42
    },
    {
      "id": 68235,
      "businessDate": "2025-11-23",
      "exchangeIndexId": 60,
      "closingIndex": 2280.69,
      "openIndex": 2244.97,
      "highIndex": 2285.86,
      "lowIndex": 2244.97,
      "fiftyTwoWeekHigh": 3691.9,
      "fiftyTwoWeekLow": 2157.02,
      "turnoverValue": 89332616.5,
      "turnoverVolume": 177741,
      "totalTransaction": 1406,
      "absChange": 36.15,
      "percentageChange": 1.61
    },
    {
      "id": 68218,
      "businessDate": "2025-11-20",
      "exchangeIndexId": 60,
      "closingIndex": 2244.53,
      "openIndex": 2263.16,
      "highIndex": 2268.98,
      "lowIndex": 2236.91,
      "fiftyTwoWeekHigh": 3691.9,
      "fiftyTwoWeekLow": 2157.02,
      "turnoverValue": 75273805.2,
      "turnoverVolume": 146123,
      "totalTransaction": 1196,
      "absChange": -16.15,
      "percentageChange": -0.71
    },
    {
      "id": 68201,
      "businessDate": "2025-11-19",
      "exchangeIndexId": 60,
      "closingIndex": 2260.68,
      "openIndex": 2276.36,
      "highIndex": 2294.98,
      "lowIndex": 2248.88,
      "fiftyTwoWeekHigh": 3691.9,
      "fiftyTwoWeekLow": 2157.02,
      "turnoverValue": 67040651.7,
      "turnoverVolume": 131661,
      "totalTransaction": 1000,
      "absChange": -15.63,
      "percentageChange": -0.68
    },
    {
      "id": 68184,
      "businessDate": "2025-11-18",
      "exchangeIndexId": 60,
      "closingIndex": 2276.32,
      "openIndex": 2261.14,
      "highIndex": 2293.54,
      "lowIndex": 2258.35,
      "fiftyTwoWeekHigh": 3691.9,
      "fiftyTwoWeekLow": 2157.02,
      "turnoverValue": 96514549.1,
      "turnoverVolume": 188540,
      "totalTransaction": 1259,
      "absChange": 20.15,
      "percentageChange": 0.89
    },
    {
      "id": 68167,
      "businessDate": "2025-11-17",
      "exchangeIndexId": 60,
      "closingIndex": 2256.16,
      "openIndex": 2242.38,
      "highIndex": 2265.02,
      "lowIndex": 2241.2,
      "fiftyTwoWeekHigh": 3700.31,
      "fiftyTwoWeekLow": 2157.02,
      "turnoverValue": 69736142.0,
      "turnoverVolume": 135600,
      "totalTransaction": 1105,
      "absChange": 12.67,
      "percentageChange": 0.56
    },
    {
      "id": 68150,
      "businessDate": "2025-11-16",
      "exchangeIndexId": 60,
      "closingIndex": 2243.48,
      "openIndex": 2265.56,
      "highIndex": 2269.57,
      "lowIndex": 2236.59,
      "fiftyTwoWeekHigh": 3761.77,
      "fiftyTwoWeekLow": 2157.02,
      "turnoverValue": 69389180.3,
      "turnoverVolume": 135824,
      "totalTransaction": 1082,
      "absChange": -19.71,
      "percentageChange": -0.87
    },
    {
      "id": 68133,
      "businessDate": "2025-11-13",
      "exchangeIndexId": 60,
      "closingIndex": 2263.19,
      "openIndex": 2253.54,
      "highIndex": 2277.67,
      "lowIndex": 2247.42,
      "fiftyTwoWeekHigh": 3765.51,
      "fiftyTwoWeekLow": 2157.02,
      "turnoverValue": 81996856.53,
      "turnoverVolume": 160344,
      "totalTransaction": 1222,
      "absChange": 0.3,
      "percentageChange": 0.01
    },
    {
      "id": 68116,
      "businessDate": "2025-11-12",
      "exchangeIndexId": 60,
      "closingIndex": 2262.89,
      "openIndex": 2277.39,
      "highIndex": 2299.68,
      "lowIndex": 2254.11,
      "fiftyTwoWeekHigh": 3765.51,
      "fiftyTwoWeekLow": 2157.02,
      "turnoverValue": 101852192.3,
      "turnoverVolume": 203409,
      "totalTransaction": 1474,
      "absChange": -18.08,
      "percentageChange": -0.79
    },
    {
      "id": 68099,
      "businessDate": "2025-11-11",
      "exchangeIndexId": 60,
      "closingIndex": 2280.97,
      "openIndex": 2291.65,
      "highIndex": 2306.57,
      "lowIndex": 2263.68,
      "fiftyTwoWeekHigh": 3765.51,
      "fiftyTwoWeekLow": 2157.02,
      "turnoverValue": 79596859.8,
      "turnoverVolume": 158568,
      "totalTransaction": 1173,
      "absChange": -13.34,
      "percentageChange": -0.58
    },
    {
      "id": 68082,
      "businessDate": "2025-11-10",
      "exchangeIndexId": 60,
      "closingIndex": 2294.32,
      "openIndex": 2309.45,
      "highIndex": 2315.95,
      "lowIndex": 2273.54,
      "fiftyTwoWeekHigh": 3765.51,
      "fiftyTwoWeekLow": 2157.02,
      "turnoverValue": 105814613.4,
      "turnoverVolume": 206352,
      "totalTransaction": 1621,
      "absChange": -17.54,
      "percentageChange": -0.75
    },
    {
      "id": 68065,
      "businessDate": "2025-11-09",
      "exchangeIndexId": 60,
      "closingIndex": 2311.87,
      "openIndex": 2374.96,
      "highIndex": 2377.44,
      "lowIndex": 2304.24,
      "fiftyTwoWeekHigh": 3765.51,
      "fiftyTwoWeekLow": 2157.02,
      "turnoverValue": 175697848.6,
      "turnoverVolume": 324451,
      "totalTransaction": 2256,
      "absChange": -69.49,
      "percentageChange": -2.91
    },
    {
      "id": 68048,
      "businessDate": "2025-11-06",
      "exchangeIndexId": 60,
      "closingIndex": 2381.37,
      "openIndex": 2389.8,
      "highIndex": 2440.75,
      "lowIndex": 2374.24,
      "fiftyTwoWeekHigh": 3765.51,
      "fiftyTwoWeekLow": 2157.02,
      "turnoverValue": 320412976.7,
      "turnoverVolume": 599602,
      "totalTransaction": 3950,
      "absChange": -1.41,
      "percentageChange": -0.05
    }
  ],
  "pageable": {
    "sort": {
      "sorted": false,
      "unsorted": true,
      "empty": true
    },
    "offset": 0,
    "pageNumber": 0,
    "pageSize": 20,
    "paged": true,
    "unpaged": false
  },
  "last": false,
  "totalPages": 12,
  "totalElements": 227,
  "size": 20,
  "number": 0,
  "sort": {
    "sorted": false,
    "unsorted": true,
    "empty": true
  },
  "first": true,
  "numberOfElements": 20,
  "empty": false
}