{
  "content": [
    {
      "id": null,
      "businessDate": "2025-12-03",
      "securityId": 2790,
      "symbol": "ACLBSL",
      "securityName": "Aarambha Chautari Laghubitta Bittiya Sanstha Limited",
      "openPrice": 1017.0,
      "highPrice": 1025.0,
      "lowPrice": 1010.0,
      "closePrice": 1010.0,
      "totalTradedQuantity": 2479,
      "totalTradedValue": 2521828.1,
      "previousDayClosePrice": 1015.5,
      "fiftyTwoWeekHigh": 1284.9,
      "fiftyTwoWeekLow": 950.0,
      "lastUpdatedTime": "2025-12-03T14:59:49.659446",
      "lastUpdatedPrice": 1010.0,
      "totalTrades": 42,
      "averageTradedPrice": 1017.27,
      "marketCapitalization": 3708.15
    },
    {
      "id": null,
      "businessDate": "2025-12-03",
      "securityId": 397,
      "symbol": "ADBL",
      "securityName": "Agricultural Development Bank Limited",
      "openPrice": 304.0,
      "highPrice": 304.0,
      "lowPrice": 298.1,
      "closePrice": 298.2,
      "totalTradedQuantity": 23796,
      "totalTradedValue": 7133576.8,
      "previousDayClosePrice": 301.0,
      "fiftyTwoWeekHigh": 358.6,
      "fiftyTwoWeekLow": 272.3,
      "lastUpdatedTime": "2025-12-03T14:59:36.428383",
      "lastUpdatedPrice": 298.2,
      "totalTrades": 186,
      "averageTradedPrice": 299.78,
      "marketCapitalization": 42659.06
    },
    {
      "id": null,
      "businessDate": "2025-12-03",
      "securityId": 2886,
      "symbol": "ADBLD83",
      "securityName": "10.35% Agricultural Bank Debenture 2083",
      "openPrice": 1090.1,
      "highPrice": 1090.1,
      "lowPrice": 1090.1,
      "closePrice": 1090.1,
      "totalTradedQuantity": 100,
      "totalTradedValue": 109010.0,
      "previousDayClosePrice": 1104.0,
      "fiftyTwoWeekHigh": 1160.0,
      "fiftyTwoWeekLow": 1046.0,
      "lastUpdatedTime": "2025-12-03T12:39:27.323589",
      "lastUpdatedPrice": 1090.1,
      "totalTrades": 1,
      "averageTradedPrice": 1090.1,
      "marketCapitalization": 2725.25
    },
    {
      "id": null,
      "businessDate": "2025-12-03",
      "securityId": 9150,
      "symbol": "AHL",
      "securityName": "Asian Hydropower Limited",
      "openPrice": 595.0,
      "highPrice": 602.9,
      "lowPrice": 590.2,
      "closePrice": 600.0,
      "totalTradedQuantity": 4373,
      "totalTradedValue": 2598108.4,
      "previousDayClosePrice": 600.0,
      "fiftyTwoWeekHigh": 891.0,
      "fiftyTwoWeekLow": 577.4,
      "lastUpdatedTime": "2025-12-03T14:56:08.390593",
      "lastUpdatedPrice": 600.0,
      "totalTrades": 58,
      "averageTradedPrice": 594.12,
      "marketCapitalization": 2040.0
    },
    {
      "id": null,
      "businessDate": "2025-12-03",
      "securityId": 360,
      "symbol": "AHPC",
      "securityName": "Arun Valley Hydropower Development Co. Ltd.",
      "openPrice": 290.5,
      "highPrice": 290.5,
      "lowPrice": 281.4,
      "closePrice": 281.5,
      "totalTradedQuantity": 107813,
      "totalTradedValue": 30677095.1,
      "previousDayClosePrice": 284.9,
      "fiftyTwoWeekHigh": 334.0,
      "fiftyTwoWeekLow": 239.3,
      "lastUpdatedTime": "2025-12-03T14:59:59.821599",
      "lastUpdatedPrice": 281.5,
      "totalTrades": 314,
      "averageTradedPrice": 284.53,
      "marketCapitalization": 10832.13
    },
    {
      "id": null,
      "businessDate": "2025-12-03",
      "securityId": 2788,
      "symbol": "AKJCL",
      "securityName": "Ankhu Khola Jalvidhyut Company Ltd",
      "openPrice": 190.0,
      "highPrice": 191.0,
      "lowPrice": 187.0,
      "closePrice": 187.5,
      "totalTradedQuantity": 42060,
      "totalTradedValue": 7906397.7,
      "previousDayClosePrice": 188.3,
      "fiftyTwoWeekHigh": 233.5,
      "fiftyTwoWeekLow": 172.9,
      "lastUpdatedTime": "2025-12-03T14:59:57.955994",
      "lastUpdatedPrice": 187.5,
      "totalTrades": 158,
      "averageTradedPrice": 187.97,
      "marketCapitalization": 3750.0
    },
    {
      "id": null,
      "businessDate": "2025-12-03",
      "securityId": 2757,
      "symbol": "AKPL",
      "securityName": "Arun Kabeli Power Ltd.",
      "openPrice": 247.8,
      "highPrice": 247.8,
      "lowPrice": 242.1,
      "closePrice": 243.0,
      "totalTradedQuantity": 56038,
      "totalTradedValue": 13631584.2,
      "previousDayClosePrice": 243.0,
      "fiftyTwoWeekHigh": 306.5,
      "fiftyTwoWeekLow": 216.1,
      "lastUpdatedTime": "2025-12-03T14:59:54.351173",
      "lastUpdatedPrice": 243.0,
      "totalTrades": 200,
      "averageTradedPrice": 243.25,
      "marketCapitalization": 9467.14
    },
    {
      "id": null,
      "businessDate": "2025-12-03",
      "securityId": 2807,
      "symbol": "ALBSL",
      "securityName": "Asha Laghubitta Bittiya Sanstha Ltd",
      "openPrice": 1160.0,
      "highPrice": 1220.0,
      "lowPrice": 1160.0,
      "closePrice": 1220.0,
      "totalTradedQuantity": 78038,
      "totalTradedValue": 93358007.4,
      "previousDayClosePrice": 1179.0,
      "fiftyTwoWeekHigh": 1220.0,
      "fiftyTwoWeekLow": 771.0,
      "lastUpdatedTime": "2025-12-03T14:59:58.859893",
      "lastUpdatedPrice": 1220.0,
      "totalTrades": 625,
      "averageTradedPrice": 1196.31,
      "marketCapitalization": 8943.16
    },
    {
      "id": null,
      "businessDate": "2025-12-03",
      "securityId": 385,
      "symbol": "ALICL",
      "securityName": "Asian Life Insurance Co. Limited",
      "openPrice": 473.4,
      "highPrice": 476.0,
      "lowPrice": 463.6,
      "closePrice": 465.0,
      "totalTradedQuantity": 48017,
      "totalTradedValue": 22455151.6,
      "previousDayClosePrice": 473.4,
      "fiftyTwoWeekHigh": 831.0,
      "fiftyTwoWeekLow": 430.0,
      "lastUpdatedTime": "2025-12-03T14:59:59.963523",
      "lastUpdatedPrice": 465.0,
      "totalTrades": 336,
      "averageTradedPrice": 467.65,
      "marketCapitalization": 23255.39
    },
    {
      "id": null,
      "businessDate": "2025-12-03",
      "securityId": 9161,
      "symbol": "ANLB",
      "securityName": "Aatmanirbhar Laghubitta Bittiya Sanstha Limited",
      "openPrice": 6165.0,
      "highPrice": 6662.0,
      "lowPrice": 6165.0,
      "closePrice": 6186.0,
      "totalTradedQuantity": 296,
      "totalTradedValue": 1869951.4,
      "previousDayClosePrice": 6287.9,
      "fiftyTwoWeekHigh": 6800.0,
      "fiftyTwoWeekLow": 4673.0,
      "lastUpdatedTime": "2025-12-03T14:59:12.784434",
      "lastUpdatedPrice": 6186.0,
      "totalTrades": 28,
      "averageTradedPrice": 6317.4,
      "marketCapitalization": 4846.32
    },
    {
      "id": null,
      "businessDate": "2025-12-03",
      "securityId": 697,
      "symbol": "API",
      "securityName": "Api Power Company Ltd.",
      "openPrice": 291.0,
      "highPrice": 293.7,
      "lowPrice": 284.9,
      "closePrice": 288.0,
      "totalTradedQuantity": 118277,
      "totalTradedValue": 34172255.6,
      "previousDayClosePrice": 291.0,
      "fiftyTwoWeekHigh": 335.0,
      "fiftyTwoWeekLow": 246.2,
      "lastUpdatedTime": "2025-12-03T14:59:59.031436",
      "lastUpdatedPrice": 288.0,
      "totalTrades": 314,
      "averageTradedPrice": 288.91,
      "marketCapitalization": 17498.67
    },
    {
      "id": null,
      "businessDate": "2025-12-03",
      "securityId": 8117,
      "symbol": "AVYAN",
      "securityName": "Aviyan Laghubitta Bittiya Sanstha Limited",
      "openPrice": 987.0,
      "highPrice": 992.0,
      "lowPrice": 972.0,
      "closePrice": 979.0,
      "totalTradedQuantity": 2235,
      "totalTradedValue": 2190429.0,
      "previousDayClosePrice": 990.0,
      "fiftyTwoWeekHigh": 1306.8,
      "fiftyTwoWeekLow": 906.0,
      "lastUpdatedTime": "2025-12-03T14:59:27.964909",
      "lastUpdatedPrice": 979.0,
      "totalTrades": 38,
      "averageTradedPrice": 980.05,
      "marketCapitalization": 2447.5
    },
    {
      "id": null,
      "businessDate": "2025-12-03",
      "securityId": 9297,
      "symbol": "BANDIPUR",
      "securityName": "Bandipur Cablecar and Tourism Limited",
      "openPrice": 780.0,
      "highPrice": 837.0,
      "lowPrice": 775.1,
      "closePrice": 825.0,
      "totalTradedQuantity": 227147,
      "totalTradedValue": 184976769.6,
      "previousDayClosePrice": 780.0,
      "fiftyTwoWeekHigh": 837.0,
      "fiftyTwoWeekLow": 285.0,
      "lastUpdatedTime": "2025-12-03T14:59:59.910046",
      "lastUpdatedPrice": 825.0,
      "totalTrades": 5466,
      "averageTradedPrice": 814.34,
      "marketCapitalization": 23347.5
    },
    {
      "id": null,
      "businessDate": "2025-12-03",
      "securityId": 686,
      "symbol": "BARUN",
      "securityName": "Barun Hydropower Co. Ltd.",
      "openPrice": 335.0,
      "highPrice": 337.7,
      "lowPrice": 329.1,
      "closePrice": 332.0,
      "totalTradedQuantity": 224072,
      "totalTradedValue": 74425145.5,
      "previousDayClosePrice": 337.0,
      "fiftyTwoWeekHigh": 589.0,
      "fiftyTwoWeekLow": 292.1,
      "lastUpdatedTime": "2025-12-03T14:59:59.600654",
      "lastUpdatedPrice": 332.0,
      "totalTrades": 737,
      "averageTradedPrice": 332.14,
      "marketCapitalization": 3726.81
    },
    {
      "id": null,
      "businessDate": "2025-12-03",
      "securityId": 156,
      "symbol": "BBC",
      "securityName": "Bishal Bazar Company Limited",
      "openPrice": 4985.0,
      "highPrice": 4985.0,
      "lowPrice": 4840.3,
      "closePrice": 4924.9,
      "totalTradedQuantity": 599,
      "totalTradedValue": 2920998.0,
      "previousDayClosePrice": 4938.0,
      "fiftyTwoWeekHigh": 6899.0,
      "fiftyTwoWeekLow": 4480.0,
      "lastUpdatedTime": "2025-12-03T14:57:47.370264",
      "lastUpdatedPrice": 4924.9,
      "totalTrades": 34,
      "averageTradedPrice": 4876.45,
      "marketCapitalization": 197488.49
    },
    {
      "id": null,
      "businessDate": "2025-12-03",
      "securityId": 9171,
      "symbol": "BEDC",
      "securityName": "Bhugol Energy Development Company Limited",
      "openPrice": 571.0,
      "highPrice": 571.2,
      "lowPrice": 541.0,
      "closePrice": 561.0,
      "totalTradedQuantity": 33611,
      "totalTradedValue": 18633132.9,
      "previousDayClosePrice": 560.0,
      "fiftyTwoWeekHigh": 1080.0,
      "fiftyTwoWeekLow": 501.0,
      "lastUpdatedTime": "2025-12-03T14:59:58.237048",
      "lastUpdatedPrice": 561.0,
      "totalTrades": 212,
      "averageTradedPrice": 554.37,
      "marketCapitalization": 3052.14
    },
    {
      "id": null,
      "businessDate": "2025-12-03",
      "securityId": 227,
      "symbol": "BFC",
      "securityName": "Best Finance Company Ltd.",
      "openPrice": 472.1,
      "highPrice": 494.0,
      "lowPrice": 472.1,
      "closePrice": 488.0,
      "totalTradedQuantity": 73282,
      "totalTradedValue": 35714512.7,
      "previousDayClosePrice": 475.3,
      "fiftyTwoWeekHigh": 826.0,
      "fiftyTwoWeekLow": 411.5,
      "lastUpdatedTime": "2025-12-03T14:59:55.742267",
      "lastUpdatedPrice": 488.0,
      "totalTrades": 397,
      "averageTradedPrice": 487.35,
      "marketCapitalization": 4345.27
    },
    {
      "id": null,
      "businessDate": "2025-12-03",
      "securityId": 9214,
      "symbol": "BGWT",
      "securityName": "Bhagawati Hydropower Development Company Limited",
      "openPrice": 762.1,
      "highPrice": 779.9,
      "lowPrice": 762.0,
      "closePrice": 762.0,
      "totalTradedQuantity": 1362,
      "totalTradedValue": 1042774.5,
      "previousDayClosePrice": 768.0,
      "fiftyTwoWeekHigh": 1241.0,
      "fiftyTwoWeekLow": 750.1,
      "lastUpdatedTime": "2025-12-03T14:57:43.384001",
      "lastUpdatedPrice": 762.0,
      "totalTrades": 35,
      "averageTradedPrice": 765.62,
      "marketCapitalization": 5168.19
    },
    {
      "id": null,
      "businessDate": "2025-12-03",
      "securityId": 9267,
      "symbol": "BHCL",
      "securityName": "Bikash Hydropower Company Limited",
      "openPrice": 511.0,
      "highPrice": 545.0,
      "lowPrice": 504.5,
      "closePrice": 527.0,
      "totalTradedQuantity": 139422,
      "totalTradedValue": 73323272.6,
      "previousDayClosePrice": 511.0,
      "fiftyTwoWeekHigh": 625.7,
      "fiftyTwoWeekLow": 292.1,
      "lastUpdatedTime": "2025-12-03T14:59:38.892347",
      "lastUpdatedPrice": 527.0,
      "totalTrades": 1884,
      "averageTradedPrice": 525.9,
      "marketCapitalization": 4790.96
    },
    {
      "id": null,
      "businessDate": "2025-12-03",
      "securityId": 8075,
      "symbol": "BHDC",
      "securityName": "Bindhyabasini Hydropower Development Company Limited",
      "openPrice": 480.5,
      "highPrice": 495.0,
      "lowPrice": 476.0,
      "closePrice": 483.3,
      "totalTradedQuantity": 42464,
      "totalTradedValue": 20716091.4,
      "previousDayClosePrice": 485.6,
      "fiftyTwoWeekHigh": 760.2,
      "fiftyTwoWeekLow": 426.0,
      "lastUpdatedTime": "2025-12-03T14:59:58.720196",
      "lastUpdatedPrice": 483.3,
      "totalTrades": 252,
      "averageTradedPrice": 487.85,
      "marketCapitalization": 5460.32
    }
  ],
  "pageable": {
    "sort": {
      "unsorted": true,
      "sorted": false,
      "empty": true
    },
    "offset": 0,
    "pageNumber": 0,
    "pageSize": 20,
    "paged": true,
    "unpaged": false
  },
  "last": false,
  "totalPages": 17,
  "totalElements": 332,
  "size": 20,
  "number": 0,
  "sort": {
    "unsorted": true,
    "sorted": false,
    "empty": true
  },
  "first": true,
  "numberOfElements": 20,
  "empty": false
}